[
    {
        "INFORMACIÓ COMPLEMENTÀRIA": {
            "GbifId": "3826594490",
            "Image_urls": null,
            "Pertany_A": "Briofits_antocerotes"
        },
        "SITUACIÓ": {
            "Conservació": null,
            "Protecció": null,
            "UICN (Catalunya)": "NT",
            "UICN GBIF": "NE"
        },
        "TAXONOMIA": {
            "Classe": "Anthocerotopsida",
            "Espècie": "Anthoceros punctatus",
            "Família": "Anthocerotaceae",
            "Regne": "Viridiplantae",
            "TaxId": "3234",
            "Fílum": "Anthocerotophyta",
            "Ordre": "Anthocerotales"
        },
        "ORIGEN I ENDEMISME": {
            "Origen i Endemisme": "Autòctona"
        },
        "NOM DE L'AUTOR": {
            "Autor": "L."
        }
    },
    {
        "INFORMACIÓ COMPLEMENTÀRIA": {
            "GbifId": "4162285912",
            "Image_urls": [
                "https://inaturalist-open-data.s3.amazonaws.com/photos/183599852/medium.jpg",
                "https://inaturalist-open-data.s3.amazonaws.com/photos/209196048/medium.jpg",
                "https://inaturalist-open-data.s3.amazonaws.com/photos/113282295/medium.jpg"
            ],
            "Pertany_A": "Briofits_antocerotes"
        },
        "SITUACIÓ": {
            "Conservació": null,
            "Protecció": null,
            "UICN (Catalunya)": "VU",
            "UICN GBIF": "NE"
        },
        "TAXONOMIA": {
            "Classe": "Anthocerotopsida",
            "Espècie": "Phaeoceros carolinianus",
            "Família": "Notothyladaceae",
            "Regne": "Viridiplantae",
            "TaxId": "185665",
            "Fílum": "Anthocerotophyta",
            "Ordre": "Notothyladales"
        },
        "ORIGEN I ENDEMISME": {
            "Origen i Endemisme": "Autòctona"
        },
        "NOM DE L'AUTOR": {
            "Autor": "Michx. Prosk."
        }
    },
    {
        "INFORMACIÓ COMPLEMENTÀRIA": {
            "GbifId": "4035012658",
            "Image_urls": null,
            "Pertany_A": "Briofits_antocerotes"
        },
        "SITUACIÓ": {
            "Conservació": null,
            "Protecció": null,
            "UICN (Catalunya)": "LC",
            "UICN GBIF": "NE"
        },
        "TAXONOMIA": {
            "Classe": "Anthocerotopsida",
            "Espècie": "Phaeoceros laevis",
            "Família": "Notothyladaceae",
            "Regne": "Viridiplantae",
            "TaxId": "37308",
            "Fílum": "Anthocerotophyta",
            "Ordre": "Notothyladales"
        },
        "ORIGEN I ENDEMISME": {
            "Origen i Endemisme": "Autòctona"
        },
        "NOM DE L'AUTOR": {
            "Autor": "L. Prosk."
        }
    },
    {
        "INFORMACIÓ COMPLEMENTÀRIA": {
            "GbifId": "4111578082",
            "Image_urls": [
                "https://inaturalist-open-data.s3.amazonaws.com/photos/176153210/medium.jpg",
                "https://inaturalist-open-data.s3.amazonaws.com/photos/123022018/medium.jpeg"
            ],
            "Pertany_A": "Briofits_antocerotes"
        },
        "SITUACIÓ": {
            "Conservació": null,
            "Protecció": null,
            "UICN (Catalunya)": "LC",
            "UICN GBIF": "NE"
        },
        "TAXONOMIA": {
            "Classe": "Anthocerotopsida",
            "Espècie": "Phymatoceros bulbiculosus",
            "Família": "Phymatocerotaceae",
            "Regne": "Viridiplantae",
            "TaxId": "319832",
            "Fílum": "Anthocerotophyta",
            "Ordre": "Phymatocerotales"
        },
        "ORIGEN I ENDEMISME": {
            "Origen i Endemisme": "Autòctona"
        },
        "NOM DE L'AUTOR": {
            "Autor": "Brot. Stotler, W. Doyle et Crand.-Stotl."
        }
    }
]