[
    {
        "INFORMACIÓ COMPLEMENTÀRIA": {
            "GbifId": "4149265405",
            "Image_urls": null,
            "Pertany_A": "Coleopters_corilofids"
        },
        "SITUACIÓ": {
            "UICN GBIF": "NE"
        },
        "TAXONOMIA": {
            "Classe": "Insecta",
            "Espècie": "Aposericoderus revelierei",
            "Família": "Corylophidae",
            "Regne": "Metazoa",
            "Subfamília": "Corylophinae",
            "TaxId": null,
            "Fílum": "Arthropoda",
            "Ordre": "Coleoptera"
        },
        "ORIGEN I ENDEMISME": {
            "Origen i Endemisme": "Europa"
        },
        "NOM DE L'AUTOR": {
            "Autor": "Reitter, 1878"
        }
    },
    {
        "INFORMACIÓ COMPLEMENTÀRIA": {
            "GbifId": "3939284318",
            "Image_urls": null,
            "Pertany_A": "Coleopters_corilofids"
        },
        "SITUACIÓ": {
            "UICN GBIF": "NE"
        },
        "TAXONOMIA": {
            "Classe": "Insecta",
            "Espècie": "Arthrolips convexiuscula",
            "Família": "Corylophidae",
            "Regne": "Metazoa",
            "Subfamília": "Corylophinae",
            "TaxId": null,
            "Fílum": "Arthropoda",
            "Ordre": "Coleoptera"
        },
        "ORIGEN I ENDEMISME": {
            "Origen i Endemisme": "Europa"
        },
        "NOM DE L'AUTOR": {
            "Autor": "Motschulsky, 1849"
        }
    },
    {
        "INFORMACIÓ COMPLEMENTÀRIA": {
            "GbifId": "1804778829",
            "Image_urls": null,
            "Pertany_A": "Coleopters_corilofids"
        },
        "SITUACIÓ": {
            "UICN GBIF": "NE"
        },
        "TAXONOMIA": {
            "Classe": "Insecta",
            "Espècie": "Arthrolips humilis",
            "Família": "Corylophidae",
            "Regne": "Metazoa",
            "Subfamília": "Corylophinae",
            "TaxId": null,
            "Fílum": "Arthropoda",
            "Ordre": "Coleoptera"
        },
        "ORIGEN I ENDEMISME": {
            "Origen i Endemisme": "Europa"
        },
        "NOM DE L'AUTOR": {
            "Autor": "Rosenhauer, 1856"
        }
    },
    {
        "INFORMACIÓ COMPLEMENTÀRIA": {
            "GbifId": "3927428779",
            "Image_urls": null,
            "Pertany_A": "Coleopters_corilofids"
        },
        "SITUACIÓ": {
            "UICN GBIF": "NE"
        },
        "TAXONOMIA": {
            "Classe": "Insecta",
            "Espècie": "Arthrolips obscura",
            "Família": "Corylophidae",
            "Regne": "Metazoa",
            "Subfamília": "Corylophinae",
            "TaxId": null,
            "Fílum": "Arthropoda",
            "Ordre": "Coleoptera"
        },
        "ORIGEN I ENDEMISME": {
            "Origen i Endemisme": "Europa"
        },
        "NOM DE L'AUTOR": {
            "Autor": "C.R. Sahlberg, 1833"
        }
    },
    {
        "INFORMACIÓ COMPLEMENTÀRIA": {
            "GbifId": "3962943475",
            "Image_urls": null,
            "Pertany_A": "Coleopters_corilofids"
        },
        "SITUACIÓ": {
            "UICN GBIF": "NE"
        },
        "TAXONOMIA": {
            "Classe": "Insecta",
            "Espècie": "Arthrolips picea",
            "Família": "Corylophidae",
            "Regne": "Metazoa",
            "Subfamília": "Corylophinae",
            "TaxId": null,
            "Fílum": "Arthropoda",
            "Ordre": "Coleoptera"
        },
        "ORIGEN I ENDEMISME": {
            "Origen i Endemisme": "Europa"
        },
        "NOM DE L'AUTOR": {
            "Autor": "Comoli, 1837"
        }
    },
    {
        "INFORMACIÓ COMPLEMENTÀRIA": {
            "GbifId": null,
            "Image_urls": null,
            "Pertany_A": "Coleopters_corilofids"
        },
        "SITUACIÓ": {
            "UICN GBIF": null
        },
        "TAXONOMIA": {
            "Classe": "Insecta",
            "Espècie": "Arthrolpis fasciata",
            "Família": "Corylophidae",
            "Regne": "Metazoa",
            "Subfamília": "Corylophinae",
            "TaxId": null,
            "Fílum": "Arthropoda",
            "Ordre": "Coleoptera"
        },
        "ORIGEN I ENDEMISME": {
            "Origen i Endemisme": "Introduïda, invasora"
        },
        "NOM DE L'AUTOR": {
            "Autor": "Erichson, 1842"
        }
    },
    {
        "INFORMACIÓ COMPLEMENTÀRIA": {
            "GbifId": "4021079479",
            "Image_urls": [
                "https://inaturalist-open-data.s3.amazonaws.com/photos/259837324/medium.jpeg",
                "https://inaturalist-open-data.s3.amazonaws.com/photos/260904962/medium.jpeg"
            ],
            "Pertany_A": "Coleopters_corilofids"
        },
        "SITUACIÓ": {
            "UICN GBIF": "NE"
        },
        "TAXONOMIA": {
            "Classe": "Insecta",
            "Espècie": "Corylophus cassidoides",
            "Família": "Corylophidae",
            "Regne": "Metazoa",
            "Subfamília": "Corylophinae",
            "TaxId": "877958",
            "Fílum": "Arthropoda",
            "Ordre": "Coleoptera"
        },
        "ORIGEN I ENDEMISME": {
            "Origen i Endemisme": "Europa"
        },
        "NOM DE L'AUTOR": {
            "Autor": "Marsham, 1802"
        }
    },
    {
        "INFORMACIÓ COMPLEMENTÀRIA": {
            "GbifId": "4149361301",
            "Image_urls": null,
            "Pertany_A": "Coleopters_corilofids"
        },
        "SITUACIÓ": {
            "UICN GBIF": "NE"
        },
        "TAXONOMIA": {
            "Classe": "Insecta",
            "Espècie": "Corylophus sublaevipennis",
            "Família": "Corylophidae",
            "Regne": "Metazoa",
            "Subfamília": "Corylophinae",
            "TaxId": null,
            "Fílum": "Arthropoda",
            "Ordre": "Coleoptera"
        },
        "ORIGEN I ENDEMISME": {
            "Origen i Endemisme": "Europa"
        },
        "NOM DE L'AUTOR": {
            "Autor": "Jacquelin du Val, 1859"
        }
    },
    {
        "INFORMACIÓ COMPLEMENTÀRIA": {
            "GbifId": "1804778838",
            "Image_urls": null,
            "Pertany_A": "Coleopters_corilofids"
        },
        "SITUACIÓ": {
            "UICN GBIF": "NE"
        },
        "TAXONOMIA": {
            "Classe": "Insecta",
            "Espècie": "Orthoperus anxius",
            "Família": "Corylophidae",
            "Regne": "Metazoa",
            "Subfamília": "Orthoperinae",
            "TaxId": null,
            "Fílum": "Arthropoda",
            "Ordre": "Coleoptera"
        },
        "ORIGEN I ENDEMISME": {
            "Origen i Endemisme": "Europa"
        },
        "NOM DE L'AUTOR": {
            "Autor": "Mulsant & Rey 1861"
        }
    },
    {
        "INFORMACIÓ COMPLEMENTÀRIA": {
            "GbifId": "3766922777",
            "Image_urls": null,
            "Pertany_A": "Coleopters_corilofids"
        },
        "SITUACIÓ": {
            "UICN GBIF": "NE"
        },
        "TAXONOMIA": {
            "Classe": "Insecta",
            "Espècie": "Orthoperus nigrescens",
            "Família": "Corylophidae",
            "Regne": "Metazoa",
            "Subfamília": "Orthoperinae",
            "TaxId": "347422",
            "Fílum": "Arthropoda",
            "Ordre": "Coleoptera"
        },
        "ORIGEN I ENDEMISME": {
            "Origen i Endemisme": "Europa"
        },
        "NOM DE L'AUTOR": {
            "Autor": "Stephens, 1829"
        }
    },
    {
        "INFORMACIÓ COMPLEMENTÀRIA": {
            "GbifId": "4081534352",
            "Image_urls": null,
            "Pertany_A": "Coleopters_corilofids"
        },
        "SITUACIÓ": {
            "UICN GBIF": "NE"
        },
        "TAXONOMIA": {
            "Classe": "Insecta",
            "Espècie": "Rypobius praetermissus",
            "Família": "Corylophidae",
            "Regne": "Metazoa",
            "Subfamília": "Rypobiinae",
            "TaxId": null,
            "Fílum": "Arthropoda",
            "Ordre": "Coleoptera"
        },
        "ORIGEN I ENDEMISME": {
            "Origen i Endemisme": "Europa"
        },
        "NOM DE L'AUTOR": {
            "Autor": "Bowestead, 1999"
        }
    },
    {
        "INFORMACIÓ COMPLEMENTÀRIA": {
            "GbifId": "4058214342",
            "Image_urls": null,
            "Pertany_A": "Coleopters_corilofids"
        },
        "SITUACIÓ": {
            "UICN GBIF": "NE"
        },
        "TAXONOMIA": {
            "Classe": "Insecta",
            "Espècie": "Sericoderus lateralis",
            "Família": "Corylophidae",
            "Regne": "Metazoa",
            "Subfamília": "Corylophinae",
            "TaxId": "442098",
            "Fílum": "Arthropoda",
            "Ordre": "Coleoptera"
        },
        "ORIGEN I ENDEMISME": {
            "Origen i Endemisme": "Europa"
        },
        "NOM DE L'AUTOR": {
            "Autor": "Gyllenhal, 1827"
        }
    },
    {
        "INFORMACIÓ COMPLEMENTÀRIA": {
            "GbifId": null,
            "Image_urls": null,
            "Pertany_A": "Coleopters_corilofids"
        },
        "SITUACIÓ": {
            "UICN GBIF": null
        },
        "TAXONOMIA": {
            "Classe": "Insecta",
            "Espècie": "Sericoderus pecirkanus",
            "Família": "Corylophidae",
            "Regne": "Metazoa",
            "Subfamília": "Corylophinae",
            "TaxId": null,
            "Fílum": "Arthropoda",
            "Ordre": "Coleoptera"
        },
        "ORIGEN I ENDEMISME": {
            "Origen i Endemisme": "Àfrica i Europa"
        },
        "NOM DE L'AUTOR": {
            "Autor": "Reitter, 1908"
        }
    },
    {
        "INFORMACIÓ COMPLEMENTÀRIA": {
            "GbifId": "4081534330",
            "Image_urls": null,
            "Pertany_A": "Coleopters_corilofids"
        },
        "SITUACIÓ": {
            "UICN GBIF": "NE"
        },
        "TAXONOMIA": {
            "Classe": "Insecta",
            "Espècie": "Teplinus velatus",
            "Família": "Corylophidae",
            "Regne": "Metazoa",
            "Subfamília": "Corylophinae",
            "TaxId": null,
            "Fílum": "Arthropoda",
            "Ordre": "Coleoptera"
        },
        "ORIGEN I ENDEMISME": {
            "Origen i Endemisme": "Europa"
        },
        "NOM DE L'AUTOR": {
            "Autor": "Mulsant & Rey, 1861"
        }
    }
]