[
    {
        "INFORMACIÓ COMPLEMENTÀRIA": {
            "GbifId": "4028848327",
            "Image_urls": [
                "https://inaturalist-open-data.s3.amazonaws.com/photos/191388521/medium.jpeg",
                "https://inaturalist-open-data.s3.amazonaws.com/photos/191386817/medium.jpeg",
                "https://inaturalist-open-data.s3.amazonaws.com/photos/142412588/medium.jpeg",
                "https://inaturalist-open-data.s3.amazonaws.com/photos/143583420/medium.jpeg"
            ],
            "Pertany_A": "Coleopters_brentids"
        },
        "LEGISLACIÓ": {
            "Llibre vermell Espanya (2011)": "Inclosa"
        },
        "SITUACIÓ": {
            "UICN (Catalunya)": "NE",
            "UICN GBIF": "NE"
        },
        "TAXONOMIA": {
            "Classe": "Insecta",
            "Espècie": "Amorphocephala coronata",
            "Família": "Brentidae",
            "Regne": "Metazoa",
            "Subfamília": "Brentinae",
            "TaxId": "1586565",
            "Fílum": "Arthropoda",
            "Ordre": "Coleoptera"
        },
        "ORIGEN I ENDEMISME": {
            "Origen i Endemisme": "Mediterrània"
        },
        "NOM DE L'AUTOR": {
            "Autor": "Germar, 1817"
        }
    }
]