[
    {
        "INFORMACIÓ COMPLEMENTÀRIA": {
            "Pertany_A": "Coleopters_haliplids",
            "GbifId": "4524437723",
            "Image_urls": [
                "https://inaturalist-open-data.s3.amazonaws.com/photos/287623479/medium.jpeg",
                "https://inaturalist-open-data.s3.amazonaws.com/photos/287623796/medium.jpeg",
                "https://inaturalist-open-data.s3.amazonaws.com/photos/287623946/medium.jpeg",
                "https://www.artportalen.se/MediaLibrary/2023/9/ff010fec-7fce-4ef2-afce-86004c0cd5c9_image.jpg",
                "https://inaturalist-open-data.s3.amazonaws.com/photos/233713014/medium.jpg"
            ]
        },
        "SITUACIÓ": {
            "UICN GBIF": "NE"
        },
        "TAXONOMIA": {
            "Espècie": "Brychius elevatus",
            "Família": "Haliplidae",
            "TaxId": "1553162",
            "Classe": "Insecta",
            "Regne": "Metazoa"
        },
        "NOM DE L'AUTOR": {
            "Autor": "Panzer, 1794"
        }
    },
    {
        "INFORMACIÓ COMPLEMENTÀRIA": {
            "Pertany_A": "Coleopters_haliplids",
            "GbifId": "4524457728",
            "Image_urls": [
                "https://observation.org/photos/68077298.jpg",
                "https://observation.org/photos/68077299.jpg",
                "https://observation.org/photos/77396592.jpg",
                "https://observation.org/photos/77396888.jpg"
            ]
        },
        "SITUACIÓ": {
            "UICN GBIF": "NE"
        },
        "TAXONOMIA": {
            "Espècie": "Haliplus (Haliplidius) obliquus",
            "Família": "Haliplidae",
            "TaxId": "1587326",
            "Classe": "Insecta",
            "Regne": "Metazoa"
        },
        "NOM DE L'AUTOR": {
            "Autor": "Fabricius, 1787"
        }
    },
    {
        "INFORMACIÓ COMPLEMENTÀRIA": {
            "Pertany_A": "Coleopters_haliplids",
            "GbifId": "4148568573",
            "Image_urls": [
                "https://www.artportalen.se/MediaLibrary/2023/4/2cbc8e76-c4d5-4470-bec9-2e7f5eafe348_image.jpg",
                "https://www.artportalen.se/MediaLibrary/2023/4/0b412f4b-68cf-40a5-a828-8b86c94b92af_image.jpg",
                "https://observation.org/photos/76730102.jpg",
                "https://observation.org/photos/76730101.jpg"
            ]
        },
        "SITUACIÓ": {
            "UICN GBIF": "NE"
        },
        "TAXONOMIA": {
            "Espècie": "Haliplus (Haliplus) heydeni",
            "Família": "Haliplidae",
            "TaxId": "446442",
            "Classe": "Insecta",
            "Regne": "Metazoa"
        },
        "NOM DE L'AUTOR": {
            "Autor": "Wehncke, 1875"
        }
    },
    {
        "INFORMACIÓ COMPLEMENTÀRIA": {
            "Pertany_A": "Coleopters_haliplids",
            "GbifId": "4891462265",
            "Image_urls": [
                "https://observation.org/photos/88410045.jpg",
                "https://observation.org/photos/88410046.jpg",
                "https://inaturalist-open-data.s3.amazonaws.com/photos/264096135/medium.jpg",
                "https://inaturalist-open-data.s3.amazonaws.com/photos/264096147/medium.jpg",
                "https://inaturalist-open-data.s3.amazonaws.com/photos/264096148/medium.jpg"
            ]
        },
        "SITUACIÓ": {
            "UICN GBIF": "NE"
        },
        "TAXONOMIA": {
            "Espècie": "Haliplus (Haliplus) ruficollis",
            "Família": "Haliplidae",
            "TaxId": "110018",
            "Classe": "Insecta",
            "Regne": "Metazoa"
        },
        "NOM DE L'AUTOR": {
            "Autor": "DeGeer, 1774"
        }
    },
    {
        "INFORMACIÓ COMPLEMENTÀRIA": {
            "Pertany_A": "Coleopters_haliplids",
            "GbifId": "4856079344",
            "Image_urls": [
                "https://observation.org/photos/46869835.jpg",
                "https://observation.org/photos/46869834.jpg",
                "https://observation.org/photos/46869836.jpg",
                "https://observation.org/photos/46869838.jpg",
                "https://observation.org/photos/46869837.jpg",
                "https://observation.org/photos/46869833.jpg"
            ]
        },
        "SITUACIÓ": {
            "UICN GBIF": "NE"
        },
        "TAXONOMIA": {
            "Espècie": "Haliplus (Haliplus) sibiricus",
            "Família": "Haliplidae",
            "TaxId": "1553471",
            "Classe": "Insecta",
            "Regne": "Metazoa"
        },
        "NOM DE L'AUTOR": {
            "Autor": "Motschulsky, 1860"
        }
    },
    {
        "INFORMACIÓ COMPLEMENTÀRIA": {
            "Pertany_A": "Coleopters_haliplids",
            "GbifId": "4525306086",
            "Image_urls": [
                "https://inaturalist-open-data.s3.amazonaws.com/photos/352543110/medium.jpeg",
                "https://inaturalist-open-data.s3.amazonaws.com/photos/352543147/medium.jpeg",
                "https://www.artsobservasjoner.no/MediaLibrary/2024/7/8b48198c-317e-426a-a7c8-1563b3db4960_image.jpg"
            ]
        },
        "SITUACIÓ": {
            "UICN GBIF": "NE"
        },
        "TAXONOMIA": {
            "Espècie": "Haliplus (Liaphlus) fulvus",
            "Família": "Haliplidae",
            "TaxId": "1553470",
            "Classe": "Insecta",
            "Regne": "Metazoa"
        },
        "NOM DE L'AUTOR": {
            "Autor": "Fabricius, 1801"
        }
    },
    {
        "INFORMACIÓ COMPLEMENTÀRIA": {
            "Pertany_A": "Coleopters_haliplids",
            "GbifId": "2494011491",
            "Image_urls": null
        },
        "SITUACIÓ": {
            "UICN GBIF": "NE"
        },
        "TAXONOMIA": {
            "Espècie": "Haliplus (Liaphlus) guttatus",
            "Família": "Haliplidae",
            "TaxId": null,
            "Classe": "Insecta",
            "Regne": "Metazoa"
        },
        "NOM DE L'AUTOR": {
            "Autor": "Aubé, 1836"
        }
    },
    {
        "INFORMACIÓ COMPLEMENTÀRIA": {
            "Pertany_A": "Coleopters_haliplids",
            "GbifId": "4408733528",
            "Image_urls": [
                "https://observation.org/photos/76098915.jpg",
                "https://observation.org/photos/76098918.jpg",
                "https://observation.org/photos/76098917.jpg",
                "https://observation.org/photos/76098913.jpg",
                "https://observation.org/photos/61098178.jpg",
                "https://observation.org/photos/61098179.jpg",
                "https://observation.org/photos/61098177.jpg",
                "https://observation.org/photos/32652508.jpg",
                "https://observation.org/photos/32652509.jpg",
                "https://observation.org/photos/32652510.jpg",
                "https://observation.org/photos/32652515.jpg",
                "https://observation.org/photos/32652514.jpg",
                "https://observation.org/photos/32652517.jpg",
                "https://observation.org/photos/32652511.jpg",
                "https://observation.org/photos/32652512.jpg",
                "https://observation.org/photos/32652513.jpg",
                "https://observation.org/photos/21988621.jpg",
                "https://observation.org/photos/21988624.jpg",
                "https://observation.org/photos/21988623.jpg",
                "https://observation.org/photos/15702454.jpg",
                "https://observation.org/photos/15702451.jpg"
            ]
        },
        "SITUACIÓ": {
            "UICN GBIF": "NE"
        },
        "TAXONOMIA": {
            "Espècie": "Haliplus (Liaphlus) mucronatus",
            "Família": "Haliplidae",
            "TaxId": "107854",
            "Classe": "Insecta",
            "Regne": "Metazoa"
        },
        "NOM DE L'AUTOR": {
            "Autor": "Stephens, 1832"
        }
    },
    {
        "INFORMACIÓ COMPLEMENTÀRIA": {
            "Pertany_A": "Coleopters_haliplids",
            "GbifId": "998494753",
            "Image_urls": null
        },
        "SITUACIÓ": {
            "UICN GBIF": "NE"
        },
        "TAXONOMIA": {
            "Espècie": "Haliplus (Liaphlus) rubidus",
            "Família": "Haliplidae",
            "TaxId": null,
            "Classe": "Insecta",
            "Regne": "Metazoa"
        },
        "NOM DE L'AUTOR": {
            "Autor": "Perris, 1857"
        }
    },
    {
        "INFORMACIÓ COMPLEMENTÀRIA": {
            "Pertany_A": "Coleopters_haliplids",
            "GbifId": "4524464764",
            "Image_urls": [
                "https://www.artportalen.se/MediaLibrary/2021/3/2bfba7ed-f61e-40a1-992b-66199ea0c4e2_image.jpg",
                "https://www.artportalen.se/MediaLibrary/2021/3/b4b6bf82-c801-4814-8a92-3c6594f4456f_image.jpg"
            ]
        },
        "SITUACIÓ": {
            "UICN GBIF": "NE"
        },
        "TAXONOMIA": {
            "Espècie": "Haliplus (Liaphlus) variegatus",
            "Família": "Haliplidae",
            "TaxId": "1587327",
            "Classe": "Insecta",
            "Regne": "Metazoa"
        },
        "NOM DE L'AUTOR": {
            "Autor": "Sturm, 1834"
        }
    },
    {
        "INFORMACIÓ COMPLEMENTÀRIA": {
            "Pertany_A": "Coleopters_haliplids",
            "GbifId": "4881802707",
            "Image_urls": [
                "https://observation.org/photos/82156394.jpg",
                "https://observation.org/photos/83199815.jpg",
                "https://inaturalist-open-data.s3.amazonaws.com/photos/253485994/medium.jpg",
                "https://inaturalist-open-data.s3.amazonaws.com/photos/282173385/medium.jpg",
                "https://inaturalist-open-data.s3.amazonaws.com/photos/282173496/medium.jpg",
                "https://inaturalist-open-data.s3.amazonaws.com/photos/282179919/medium.jpg",
                "https://observation.org/photos/73864955.jpg",
                "https://observation.org/photos/73864954.jpg",
                "https://observation.org/photos/75624858.jpg"
            ]
        },
        "SITUACIÓ": {
            "UICN GBIF": "NE"
        },
        "TAXONOMIA": {
            "Espècie": "Haliplus (Neohaliplus) lineatocollis",
            "Família": "Haliplidae",
            "TaxId": "107853",
            "Classe": "Insecta",
            "Regne": "Metazoa"
        },
        "NOM DE L'AUTOR": {
            "Autor": "Marsham, 1802"
        }
    },
    {
        "INFORMACIÓ COMPLEMENTÀRIA": {
            "Pertany_A": "Coleopters_haliplids",
            "GbifId": "4891063010",
            "Image_urls": [
                "https://inaturalist-open-data.s3.amazonaws.com/photos/367774793/medium.jpeg",
                "https://observation.org/photos/89065741.jpg",
                "https://observation.org/photos/89065739.jpg",
                "https://inaturalist-open-data.s3.amazonaws.com/photos/394561534/medium.jpg",
                "https://observation.org/photos/62255368.jpg",
                "https://inaturalist-open-data.s3.amazonaws.com/photos/257684267/medium.jpeg",
                "https://nabu-naturgucker.de/?sprache=en&bild=174456059",
                "https://nabu-naturgucker.de/?sprache=en&bild=-269328792",
                "https://nabu-naturgucker.de/?sprache=en&bild=-1933846670",
                "https://inaturalist-open-data.s3.amazonaws.com/photos/268255841/medium.jpeg",
                "https://observation.org/photos/64098337.jpg",
                "https://observation.org/photos/64098335.jpg",
                "https://observation.org/photos/64098336.jpg",
                "https://observation.org/photos/64330486.jpg"
            ]
        },
        "SITUACIÓ": {
            "UICN GBIF": "NE"
        },
        "TAXONOMIA": {
            "Espècie": "Peltodytes caesus",
            "Família": "Haliplidae",
            "TaxId": "878349",
            "Classe": "Insecta",
            "Regne": "Metazoa"
        },
        "NOM DE L'AUTOR": {
            "Autor": "Duftschmid, 1805"
        }
    },
    {
        "INFORMACIÓ COMPLEMENTÀRIA": {
            "Pertany_A": "Coleopters_haliplids",
            "GbifId": "4524422739",
            "Image_urls": [
                "https://upload.wikimedia.org/wikipedia/commons/thumb/f/f9/Peltodytes_rotundatus_Aub%C3%A9%2C_1836.png/252px-Peltodytes_rotundatus_Aub%C3%A9%2C_1836.png",
                "https://upload.wikimedia.org/wikipedia/commons/thumb/e/ef/Peltodytes_rotundatus.jpg/144px-Peltodytes_rotundatus.jpg",
                "https://upload.wikimedia.org/wikipedia/commons/thumb/7/7a/Reitter-1908_table32.jpg/118px-Reitter-1908_table32.jpg",
                "https://upload.wikimedia.org/wikipedia/commons/thumb/f/f1/Haliplus_u.a.jpg/116px-Haliplus_u.a.jpg",
                "https://upload.wikimedia.org/wikipedia/commons/thumb/7/7c/Haliplus_fulvus_larva.png/413px-Haliplus_fulvus_larva.png"
            ]
        },
        "SITUACIÓ": {
            "UICN GBIF": "NE"
        },
        "TAXONOMIA": {
            "Espècie": "Peltodytes rotundatus",
            "Família": "Haliplidae",
            "TaxId": "107923",
            "Classe": "Insecta",
            "Regne": "Metazoa"
        },
        "NOM DE L'AUTOR": {
            "Autor": "Aubé, 1836"
        }
    }
]