[
    {
        "INFORMACIÓ COMPLEMENTÀRIA": {
            "GbifId": "2492238413",
            "Image_urls": null,
            "Pertany_A": "Coleopters_hidrenids"
        },
        "LEGISLACIÓ": {
            "Catàleg de fauna amenaçada (proposta 2020)": null
        },
        "SITUACIÓ": {
            "UICN GBIF": "NE"
        },
        "TAXONOMIA": {
            "Classe": "Insecta",
            "Espècie": "Hydraena (Hydraena) bitruncata",
            "Família": "Hydraenidae",
            "Regne": "Metazoa",
            "Subfamília": "Hydraeninae",
            "TaxId": "992569",
            "Fílum": "Arthropoda",
            "Ordre": "Coleoptera"
        },
        "ORIGEN I ENDEMISME": {
            "Origen i Endemisme": "Endemisme pirinenc"
        },
        "NOM DE L'AUTOR": {
            "Autor": "Orchymont, 1943"
        }
    },
    {
        "INFORMACIÓ COMPLEMENTÀRIA": {
            "GbifId": "178195304",
            "Image_urls": null,
            "Pertany_A": "Coleopters_hidrenids"
        },
        "LEGISLACIÓ": {
            "Catàleg de fauna amenaçada (proposta 2020)": null
        },
        "SITUACIÓ": {
            "UICN GBIF": "NE"
        },
        "TAXONOMIA": {
            "Classe": "Insecta",
            "Espècie": "Hydraena (Hydraena) catalonica",
            "Família": "Hydraenidae",
            "Regne": "Metazoa",
            "Subfamília": "Hydraeninae",
            "TaxId": "992573",
            "Fílum": "Arthropoda",
            "Ordre": "Coleoptera"
        },
        "ORIGEN I ENDEMISME": {
            "Origen i Endemisme": "Endemisme catalá i d'Osca"
        },
        "NOM DE L'AUTOR": {
            "Autor": "Fresneda, Aguilera & Hernando, 1994"
        }
    },
    {
        "INFORMACIÓ COMPLEMENTÀRIA": {
            "GbifId": "3997617915",
            "Image_urls": [
                "https://observation.org/photos/61107200.jpg",
                "https://observation.org/photos/61069911.jpg",
                "https://observation.org/photos/61069910.jpg",
                "https://observation.org/photos/61107201.jpg"
            ],
            "Pertany_A": "Coleopters_hidrenids"
        },
        "LEGISLACIÓ": {
            "Catàleg de fauna amenaçada (proposta 2020)": null
        },
        "SITUACIÓ": {
            "UICN GBIF": "NE"
        },
        "TAXONOMIA": {
            "Classe": "Insecta",
            "Espècie": "Hydraena (Hydraena) polita",
            "Família": "Hydraenidae",
            "Regne": "Metazoa",
            "Subfamília": "Hydraeninae",
            "TaxId": "992608",
            "Fílum": "Arthropoda",
            "Ordre": "Coleoptera"
        },
        "ORIGEN I ENDEMISME": {
            "Origen i Endemisme": "Europea"
        },
        "NOM DE L'AUTOR": {
            "Autor": "Kiesenweter, 1849"
        }
    },
    {
        "INFORMACIÓ COMPLEMENTÀRIA": {
            "GbifId": "3942723315",
            "Image_urls": null,
            "Pertany_A": "Coleopters_hidrenids"
        },
        "LEGISLACIÓ": {
            "Catàleg de fauna amenaçada (proposta 2020)": null
        },
        "SITUACIÓ": {
            "UICN GBIF": "NE"
        },
        "TAXONOMIA": {
            "Classe": "Insecta",
            "Espècie": "Hydraena (Hydraena) truncata",
            "Família": "Hydraenidae",
            "Regne": "Metazoa",
            "Subfamília": "Hydraeninae",
            "TaxId": "992622",
            "Fílum": "Arthropoda",
            "Ordre": "Coleoptera"
        },
        "ORIGEN I ENDEMISME": {
            "Origen i Endemisme": "Europea"
        },
        "NOM DE L'AUTOR": {
            "Autor": "Rey, 1885"
        }
    },
    {
        "INFORMACIÓ COMPLEMENTÀRIA": {
            "GbifId": "3942723428",
            "Image_urls": null,
            "Pertany_A": "Coleopters_hidrenids"
        },
        "LEGISLACIÓ": {
            "Catàleg de fauna amenaçada (proposta 2020)": null
        },
        "SITUACIÓ": {
            "UICN GBIF": "NE"
        },
        "TAXONOMIA": {
            "Classe": "Insecta",
            "Espècie": "Hydraena (Hydraena) diazi",
            "Família": "Hydraenidae",
            "Regne": "Metazoa",
            "Subfamília": "Hydraeninae",
            "TaxId": "915464",
            "Fílum": "Arthropoda",
            "Ordre": "Coleoptera"
        },
        "ORIGEN I ENDEMISME": {
            "Origen i Endemisme": "Pirineus"
        },
        "NOM DE L'AUTOR": {
            "Autor": "Trizzino, Jäch & Ribera, 2011"
        }
    },
    {
        "INFORMACIÓ COMPLEMENTÀRIA": {
            "GbifId": "178195235",
            "Image_urls": null,
            "Pertany_A": "Coleopters_hidrenids"
        },
        "LEGISLACIÓ": {
            "Catàleg de fauna amenaçada (proposta 2020)": null
        },
        "SITUACIÓ": {
            "UICN GBIF": "NE"
        },
        "TAXONOMIA": {
            "Classe": "Insecta",
            "Espècie": "Hydraena (Hydraena) exasperata",
            "Família": "Hydraenidae",
            "Regne": "Metazoa",
            "Subfamília": "Hydraeninae",
            "TaxId": "945534",
            "Fílum": "Arthropoda",
            "Ordre": "Coleoptera"
        },
        "ORIGEN I ENDEMISME": {
            "Origen i Endemisme": "Endemisme ibèric"
        },
        "NOM DE L'AUTOR": {
            "Autor": "Orchymont, 1935"
        }
    },
    {
        "INFORMACIÓ COMPLEMENTÀRIA": {
            "GbifId": "998495253",
            "Image_urls": null,
            "Pertany_A": "Coleopters_hidrenids"
        },
        "LEGISLACIÓ": {
            "Catàleg de fauna amenaçada (proposta 2020)": null
        },
        "SITUACIÓ": {
            "UICN GBIF": "NE"
        },
        "TAXONOMIA": {
            "Classe": "Insecta",
            "Espècie": "Hydraena (Hydraena) gracilidelphis",
            "Família": "Hydraenidae",
            "Regne": "Metazoa",
            "Subfamília": "Hydraeninae",
            "TaxId": "1432654",
            "Fílum": "Arthropoda",
            "Ordre": "Coleoptera"
        },
        "ORIGEN I ENDEMISME": {
            "Origen i Endemisme": "Endemisme ibèric i dels Pirineus"
        },
        "NOM DE L'AUTOR": {
            "Autor": "Trizzino, Valladares, Garrido & Aufdisio, 2012"
        }
    },
    {
        "INFORMACIÓ COMPLEMENTÀRIA": {
            "GbifId": "2475543743",
            "Image_urls": null,
            "Pertany_A": "Coleopters_hidrenids"
        },
        "LEGISLACIÓ": {
            "Catàleg de fauna amenaçada (proposta 2020)": null
        },
        "SITUACIÓ": {
            "UICN GBIF": "NE"
        },
        "TAXONOMIA": {
            "Classe": "Insecta",
            "Espècie": "Hydraena (Hydraena) carbonaria",
            "Família": "Hydraenidae",
            "Regne": "Metazoa",
            "Subfamília": "Hydraeninae",
            "TaxId": "1216142",
            "Fílum": "Arthropoda",
            "Ordre": "Coleoptera"
        },
        "ORIGEN I ENDEMISME": {
            "Origen i Endemisme": "Península Ibèrica i sud de França"
        },
        "NOM DE L'AUTOR": {
            "Autor": "Kiesenwetter, 1849"
        }
    },
    {
        "INFORMACIÓ COMPLEMENTÀRIA": {
            "GbifId": "4087328243",
            "Image_urls": null,
            "Pertany_A": "Coleopters_hidrenids"
        },
        "LEGISLACIÓ": {
            "Catàleg de fauna amenaçada (proposta 2020)": null
        },
        "SITUACIÓ": {
            "UICN GBIF": "NE"
        },
        "TAXONOMIA": {
            "Classe": "Insecta",
            "Espècie": "Hydraena (Hydraena) subimpressa",
            "Família": "Hydraenidae",
            "Regne": "Metazoa",
            "Subfamília": "Hydraeninae",
            "TaxId": "1216182",
            "Fílum": "Arthropoda",
            "Ordre": "Coleoptera"
        },
        "ORIGEN I ENDEMISME": {
            "Origen i Endemisme": "Europea"
        },
        "NOM DE L'AUTOR": {
            "Autor": "Rey, 1885"
        }
    },
    {
        "INFORMACIÓ COMPLEMENTÀRIA": {
            "GbifId": "2492443019",
            "Image_urls": null,
            "Pertany_A": "Coleopters_hidrenids"
        },
        "LEGISLACIÓ": {
            "Catàleg de fauna amenaçada (proposta 2020)": null
        },
        "SITUACIÓ": {
            "UICN GBIF": "NE"
        },
        "TAXONOMIA": {
            "Classe": "Insecta",
            "Espècie": "Hydraena (Hydraena) cordata",
            "Família": "Hydraenidae",
            "Regne": "Metazoa",
            "Subfamília": "Hydraeninae",
            "TaxId": "1216147",
            "Fílum": "Arthropoda",
            "Ordre": "Coleoptera"
        },
        "ORIGEN I ENDEMISME": {
            "Origen i Endemisme": "Sud de França, península Ibèrica i nord d'Àfrica"
        },
        "NOM DE L'AUTOR": {
            "Autor": "Schaufuss, 1883"
        }
    },
    {
        "INFORMACIÓ COMPLEMENTÀRIA": {
            "GbifId": "3802826690",
            "Image_urls": null,
            "Pertany_A": "Coleopters_hidrenids"
        },
        "LEGISLACIÓ": {
            "Catàleg de fauna amenaçada (proposta 2020)": null
        },
        "SITUACIÓ": {
            "UICN GBIF": "NE"
        },
        "TAXONOMIA": {
            "Classe": "Insecta",
            "Espècie": "Hydraena (Hydraena) curta",
            "Família": "Hydraenidae",
            "Regne": "Metazoa",
            "Subfamília": "Hydraeninae",
            "TaxId": "1216153",
            "Fílum": "Arthropoda",
            "Ordre": "Coleoptera"
        },
        "ORIGEN I ENDEMISME": {
            "Origen i Endemisme": "Endemisme pirinenc"
        },
        "NOM DE L'AUTOR": {
            "Autor": "Kiesenweter, 1849"
        }
    },
    {
        "INFORMACIÓ COMPLEMENTÀRIA": {
            "GbifId": "178195567",
            "Image_urls": null,
            "Pertany_A": "Coleopters_hidrenids"
        },
        "LEGISLACIÓ": {
            "Catàleg de fauna amenaçada (proposta 2020)": "Annex 1, vulnerable"
        },
        "SITUACIÓ": {
            "UICN GBIF": "NE"
        },
        "TAXONOMIA": {
            "Classe": "Insecta",
            "Espècie": "Hydraena (Hydraena) gavarrensis",
            "Família": "Hydraenidae",
            "Regne": "Metazoa",
            "Subfamília": "Hydraeninae",
            "TaxId": "992587",
            "Fílum": "Arthropoda",
            "Ordre": "Coleoptera"
        },
        "ORIGEN I ENDEMISME": {
            "Origen i Endemisme": "Endemisme català"
        },
        "NOM DE L'AUTOR": {
            "Autor": "Jäch, Díaz & Martinoy, 2005"
        }
    },
    {
        "INFORMACIÓ COMPLEMENTÀRIA": {
            "GbifId": null,
            "Image_urls": null,
            "Pertany_A": "Coleopters_hidrenids"
        },
        "LEGISLACIÓ": {
            "Catàleg de fauna amenaçada (proposta 2020)": null
        },
        "SITUACIÓ": {
            "UICN GBIF": null
        },
        "TAXONOMIA": {
            "Classe": "Insecta",
            "Espècie": "Hydraena (Hydraena) nibutissima",
            "Família": "Hydraenidae",
            "Regne": "Metazoa",
            "Subfamília": "Hydraeninae",
            "TaxId": null,
            "Fílum": "Arthropoda",
            "Ordre": "Coleoptera"
        },
        "ORIGEN I ENDEMISME": {
            "Origen i Endemisme": "Europea"
        },
        "NOM DE L'AUTOR": {
            "Autor": "Stephens, 1829"
        }
    },
    {
        "INFORMACIÓ COMPLEMENTÀRIA": {
            "GbifId": "178194496",
            "Image_urls": null,
            "Pertany_A": "Coleopters_hidrenids"
        },
        "LEGISLACIÓ": {
            "Catàleg de fauna amenaçada (proposta 2020)": null
        },
        "SITUACIÓ": {
            "UICN GBIF": "NE"
        },
        "TAXONOMIA": {
            "Classe": "Insecta",
            "Espècie": "Hydraena (Hydraena) brachymera",
            "Família": "Hydraenidae",
            "Regne": "Metazoa",
            "Subfamília": "Hydraeninae",
            "TaxId": "1216139",
            "Fílum": "Arthropoda",
            "Ordre": "Coleoptera"
        },
        "ORIGEN I ENDEMISME": {
            "Origen i Endemisme": "Península Ibèrica i Pirineus francesos"
        },
        "NOM DE L'AUTOR": {
            "Autor": "Orchymont, 1936"
        }
    },
    {
        "INFORMACIÓ COMPLEMENTÀRIA": {
            "GbifId": "3498951777",
            "Image_urls": null,
            "Pertany_A": "Coleopters_hidrenids"
        },
        "LEGISLACIÓ": {
            "Catàleg de fauna amenaçada (proposta 2020)": null
        },
        "SITUACIÓ": {
            "UICN GBIF": "NE"
        },
        "TAXONOMIA": {
            "Classe": "Insecta",
            "Espècie": "Hydraena (Hydraena) reyi",
            "Família": "Hydraenidae",
            "Regne": "Metazoa",
            "Subfamília": "Hydraeninae",
            "TaxId": "992612",
            "Fílum": "Arthropoda",
            "Ordre": "Coleoptera"
        },
        "ORIGEN I ENDEMISME": {
            "Origen i Endemisme": "Europea"
        },
        "NOM DE L'AUTOR": {
            "Autor": "Kuwert, 1888"
        }
    },
    {
        "INFORMACIÓ COMPLEMENTÀRIA": {
            "GbifId": "4014067269",
            "Image_urls": null,
            "Pertany_A": "Coleopters_hidrenids"
        },
        "LEGISLACIÓ": {
            "Catàleg de fauna amenaçada (proposta 2020)": null
        },
        "SITUACIÓ": {
            "UICN GBIF": "NE"
        },
        "TAXONOMIA": {
            "Classe": "Insecta",
            "Espècie": "Hydraena (Hydraena) riparia",
            "Família": "Hydraenidae",
            "Regne": "Metazoa",
            "Subfamília": "Hydraeninae",
            "TaxId": "878037",
            "Fílum": "Arthropoda",
            "Ordre": "Coleoptera"
        },
        "ORIGEN I ENDEMISME": {
            "Origen i Endemisme": "Eurosiberiana"
        },
        "NOM DE L'AUTOR": {
            "Autor": "Kugelann, 1794"
        }
    },
    {
        "INFORMACIÓ COMPLEMENTÀRIA": {
            "GbifId": "4087290082",
            "Image_urls": null,
            "Pertany_A": "Coleopters_hidrenids"
        },
        "LEGISLACIÓ": {
            "Catàleg de fauna amenaçada (proposta 2020)": null
        },
        "SITUACIÓ": {
            "UICN GBIF": "NE"
        },
        "TAXONOMIA": {
            "Classe": "Insecta",
            "Espècie": "Hydraena (Hydraena) angulosa",
            "Família": "Hydraenidae",
            "Regne": "Metazoa",
            "Subfamília": "Hydraeninae",
            "TaxId": "1216136",
            "Fílum": "Arthropoda",
            "Ordre": "Coleoptera"
        },
        "ORIGEN I ENDEMISME": {
            "Origen i Endemisme": "Europea"
        },
        "NOM DE L'AUTOR": {
            "Autor": "Mulsant, 1844"
        }
    },
    {
        "INFORMACIÓ COMPLEMENTÀRIA": {
            "GbifId": "178195295",
            "Image_urls": null,
            "Pertany_A": "Coleopters_hidrenids"
        },
        "LEGISLACIÓ": {
            "Catàleg de fauna amenaçada (proposta 2020)": null
        },
        "SITUACIÓ": {
            "UICN GBIF": "NE"
        },
        "TAXONOMIA": {
            "Classe": "Insecta",
            "Espècie": "Hydraena (Hydraena) delia",
            "Família": "Hydraenidae",
            "Regne": "Metazoa",
            "Subfamília": "Hydraeninae",
            "TaxId": "992575",
            "Fílum": "Arthropoda",
            "Ordre": "Coleoptera"
        },
        "ORIGEN I ENDEMISME": {
            "Origen i Endemisme": "Endemisme pirinenc"
        },
        "NOM DE L'AUTOR": {
            "Autor": "Balfour-Browne, 1979"
        }
    },
    {
        "INFORMACIÓ COMPLEMENTÀRIA": {
            "GbifId": "178195033",
            "Image_urls": null,
            "Pertany_A": "Coleopters_hidrenids"
        },
        "LEGISLACIÓ": {
            "Catàleg de fauna amenaçada (proposta 2020)": null
        },
        "SITUACIÓ": {
            "UICN GBIF": "NE"
        },
        "TAXONOMIA": {
            "Classe": "Insecta",
            "Espècie": "Hydraena (Hydraena) lucasi",
            "Família": "Hydraenidae",
            "Regne": "Metazoa",
            "Subfamília": "Hydraeninae",
            "TaxId": "1216162",
            "Fílum": "Arthropoda",
            "Ordre": "Coleoptera"
        },
        "ORIGEN I ENDEMISME": {
            "Origen i Endemisme": "Endemisme ibèric"
        },
        "NOM DE L'AUTOR": {
            "Autor": "Lagar, 1984"
        }
    },
    {
        "INFORMACIÓ COMPLEMENTÀRIA": {
            "GbifId": "4148433757",
            "Image_urls": null,
            "Pertany_A": "Coleopters_hidrenids"
        },
        "LEGISLACIÓ": {
            "Catàleg de fauna amenaçada (proposta 2020)": null
        },
        "SITUACIÓ": {
            "UICN GBIF": "NE"
        },
        "TAXONOMIA": {
            "Classe": "Insecta",
            "Espècie": "Hydraena (Hydraena) rufipennis",
            "Família": "Hydraenidae",
            "Regne": "Metazoa",
            "Subfamília": "Hydraeninae",
            "TaxId": "2036695",
            "Fílum": "Arthropoda",
            "Ordre": "Coleoptera"
        },
        "ORIGEN I ENDEMISME": {
            "Origen i Endemisme": "Europea"
        },
        "NOM DE L'AUTOR": {
            "Autor": "BoscáBerga, 1932"
        }
    },
    {
        "INFORMACIÓ COMPLEMENTÀRIA": {
            "GbifId": "178194488",
            "Image_urls": null,
            "Pertany_A": "Coleopters_hidrenids"
        },
        "LEGISLACIÓ": {
            "Catàleg de fauna amenaçada (proposta 2020)": null
        },
        "SITUACIÓ": {
            "UICN GBIF": "NE"
        },
        "TAXONOMIA": {
            "Classe": "Insecta",
            "Espècie": "Hydraena (Phothydraena) atrata",
            "Família": "Hydraenidae",
            "Regne": "Metazoa",
            "Subfamília": "Hydraeninae",
            "TaxId": "992563",
            "Fílum": "Arthropoda",
            "Ordre": "Coleoptera"
        },
        "ORIGEN I ENDEMISME": {
            "Origen i Endemisme": "Europa i nord d'Àfrica"
        },
        "NOM DE L'AUTOR": {
            "Autor": "desbrochers des Loges, 1891"
        }
    },
    {
        "INFORMACIÓ COMPLEMENTÀRIA": {
            "GbifId": "4057070747",
            "Image_urls": null,
            "Pertany_A": "Coleopters_hidrenids"
        },
        "LEGISLACIÓ": {
            "Catàleg de fauna amenaçada (proposta 2020)": null
        },
        "SITUACIÓ": {
            "UICN GBIF": "NE"
        },
        "TAXONOMIA": {
            "Classe": "Insecta",
            "Espècie": "Hydraena (Phothydraena) testacea",
            "Família": "Hydraenidae",
            "Regne": "Metazoa",
            "Subfamília": "Hydraeninae",
            "TaxId": "346784",
            "Fílum": "Arthropoda",
            "Ordre": "Coleoptera"
        },
        "ORIGEN I ENDEMISME": {
            "Origen i Endemisme": "Paleàrtica"
        },
        "NOM DE L'AUTOR": {
            "Autor": "Curtis, 1830"
        }
    },
    {
        "INFORMACIÓ COMPLEMENTÀRIA": {
            "GbifId": null,
            "Image_urls": null,
            "Pertany_A": "Coleopters_hidrenids"
        },
        "LEGISLACIÓ": {
            "Catàleg de fauna amenaçada (proposta 2020)": null
        },
        "SITUACIÓ": {
            "UICN GBIF": null
        },
        "TAXONOMIA": {
            "Classe": "Insecta",
            "Espècie": "Limnobius (Bilimneus) evanescens",
            "Família": "Hydraenidae",
            "Regne": "Metazoa",
            "Subfamília": "Hydraeninae",
            "TaxId": null,
            "Fílum": "Arthropoda",
            "Ordre": "Coleoptera"
        },
        "ORIGEN I ENDEMISME": {
            "Origen i Endemisme": "Península Ibèrica i nord d'Àfrica"
        },
        "NOM DE L'AUTOR": {
            "Autor": "Kiesenwetter, 1866"
        }
    },
    {
        "INFORMACIÓ COMPLEMENTÀRIA": {
            "GbifId": null,
            "Image_urls": null,
            "Pertany_A": "Coleopters_hidrenids"
        },
        "LEGISLACIÓ": {
            "Catàleg de fauna amenaçada (proposta 2020)": null
        },
        "SITUACIÓ": {
            "UICN GBIF": null
        },
        "TAXONOMIA": {
            "Classe": "Insecta",
            "Espècie": "Limnobius (Bilimneus) oblongus",
            "Família": "Hydraenidae",
            "Regne": "Metazoa",
            "Subfamília": "Hydraeninae",
            "TaxId": null,
            "Fílum": "Arthropoda",
            "Ordre": "Coleoptera"
        },
        "ORIGEN I ENDEMISME": {
            "Origen i Endemisme": "Sud d'Europa i nord d'Àfrica"
        },
        "NOM DE L'AUTOR": {
            "Autor": "Rey, 1883"
        }
    },
    {
        "INFORMACIÓ COMPLEMENTÀRIA": {
            "GbifId": null,
            "Image_urls": null,
            "Pertany_A": "Coleopters_hidrenids"
        },
        "LEGISLACIÓ": {
            "Catàleg de fauna amenaçada (proposta 2020)": null
        },
        "SITUACIÓ": {
            "UICN GBIF": null
        },
        "TAXONOMIA": {
            "Classe": "Insecta",
            "Espècie": "Limnobius (Limnobius) cordobanus",
            "Família": "Hydraenidae",
            "Regne": "Metazoa",
            "Subfamília": "Hydraeninae",
            "TaxId": null,
            "Fílum": "Arthropoda",
            "Ordre": "Coleoptera"
        },
        "ORIGEN I ENDEMISME": {
            "Origen i Endemisme": "Endemisme ibèric"
        },
        "NOM DE L'AUTOR": {
            "Autor": "Orchymont, 1938"
        }
    },
    {
        "INFORMACIÓ COMPLEMENTÀRIA": {
            "GbifId": null,
            "Image_urls": null,
            "Pertany_A": "Coleopters_hidrenids"
        },
        "LEGISLACIÓ": {
            "Catàleg de fauna amenaçada (proposta 2020)": null
        },
        "SITUACIÓ": {
            "UICN GBIF": null
        },
        "TAXONOMIA": {
            "Classe": "Insecta",
            "Espècie": "Limnobius (Limnobius) maurus",
            "Família": "Hydraenidae",
            "Regne": "Metazoa",
            "Subfamília": "Hydraeninae",
            "TaxId": null,
            "Fílum": "Arthropoda",
            "Ordre": "Coleoptera"
        },
        "ORIGEN I ENDEMISME": {
            "Origen i Endemisme": "Península Ibèrica i nord d'Àfrica"
        },
        "NOM DE L'AUTOR": {
            "Autor": "Balfour-Browne, 1979"
        }
    },
    {
        "INFORMACIÓ COMPLEMENTÀRIA": {
            "GbifId": null,
            "Image_urls": null,
            "Pertany_A": "Coleopters_hidrenids"
        },
        "LEGISLACIÓ": {
            "Catàleg de fauna amenaçada (proposta 2020)": null
        },
        "SITUACIÓ": {
            "UICN GBIF": null
        },
        "TAXONOMIA": {
            "Classe": "Insecta",
            "Espècie": "Limnobius (Limnobius) nitidus",
            "Família": "Hydraenidae",
            "Regne": "Metazoa",
            "Subfamília": "Hydraeninae",
            "TaxId": null,
            "Fílum": "Arthropoda",
            "Ordre": "Coleoptera"
        },
        "ORIGEN I ENDEMISME": {
            "Origen i Endemisme": "Europea"
        },
        "NOM DE L'AUTOR": {
            "Autor": "Marsham, 1802"
        }
    },
    {
        "INFORMACIÓ COMPLEMENTÀRIA": {
            "GbifId": null,
            "Image_urls": null,
            "Pertany_A": "Coleopters_hidrenids"
        },
        "LEGISLACIÓ": {
            "Catàleg de fauna amenaçada (proposta 2020)": null
        },
        "SITUACIÓ": {
            "UICN GBIF": null
        },
        "TAXONOMIA": {
            "Classe": "Insecta",
            "Espècie": "Limnobius (Limnobius) ordunyai",
            "Família": "Hydraenidae",
            "Regne": "Metazoa",
            "Subfamília": "Hydraeninae",
            "TaxId": null,
            "Fílum": "Arthropoda",
            "Ordre": "Coleoptera"
        },
        "ORIGEN I ENDEMISME": {
            "Origen i Endemisme": "Endemisme ibèric"
        },
        "NOM DE L'AUTOR": {
            "Autor": "Fresneda & Ribera, 1999"
        }
    },
    {
        "INFORMACIÓ COMPLEMENTÀRIA": {
            "GbifId": null,
            "Image_urls": null,
            "Pertany_A": "Coleopters_hidrenids"
        },
        "LEGISLACIÓ": {
            "Catàleg de fauna amenaçada (proposta 2020)": null
        },
        "SITUACIÓ": {
            "UICN GBIF": null
        },
        "TAXONOMIA": {
            "Classe": "Insecta",
            "Espècie": "Limnobius (Limnobius) furcatus",
            "Família": "Hydraenidae",
            "Regne": "Metazoa",
            "Subfamília": "Hydraeninae",
            "TaxId": null,
            "Fílum": "Arthropoda",
            "Ordre": "Coleoptera"
        },
        "ORIGEN I ENDEMISME": {
            "Origen i Endemisme": "Europea"
        },
        "NOM DE L'AUTOR": {
            "Autor": "Baudi, 1872"
        }
    },
    {
        "INFORMACIÓ COMPLEMENTÀRIA": {
            "GbifId": null,
            "Image_urls": null,
            "Pertany_A": "Coleopters_hidrenids"
        },
        "LEGISLACIÓ": {
            "Catàleg de fauna amenaçada (proposta 2020)": null
        },
        "SITUACIÓ": {
            "UICN GBIF": null
        },
        "TAXONOMIA": {
            "Classe": "Insecta",
            "Espècie": "Limnobius (Limnobius) truncatellus",
            "Família": "Hydraenidae",
            "Regne": "Metazoa",
            "Subfamília": "Hydraeninae",
            "TaxId": null,
            "Fílum": "Arthropoda",
            "Ordre": "Coleoptera"
        },
        "ORIGEN I ENDEMISME": {
            "Origen i Endemisme": "Europea"
        },
        "NOM DE L'AUTOR": {
            "Autor": "Thunberg, 1794"
        }
    },
    {
        "INFORMACIÓ COMPLEMENTÀRIA": {
            "GbifId": "4148498248",
            "Image_urls": null,
            "Pertany_A": "Coleopters_hidrenids"
        },
        "LEGISLACIÓ": {
            "Catàleg de fauna amenaçada (proposta 2020)": null
        },
        "SITUACIÓ": {
            "UICN GBIF": "NE"
        },
        "TAXONOMIA": {
            "Classe": "Insecta",
            "Espècie": "Ochthebius (Asiobates) dilatatus",
            "Família": "Hydraenidae",
            "Regne": "Metazoa",
            "Subfamília": "Ochthebiinae",
            "TaxId": "1309110",
            "Fílum": "Arthropoda",
            "Ordre": "Coleoptera"
        },
        "ORIGEN I ENDEMISME": {
            "Origen i Endemisme": "Paleàrtica"
        },
        "NOM DE L'AUTOR": {
            "Autor": "Stephens, 1829"
        }
    },
    {
        "INFORMACIÓ COMPLEMENTÀRIA": {
            "GbifId": null,
            "Image_urls": null,
            "Pertany_A": "Coleopters_hidrenids"
        },
        "LEGISLACIÓ": {
            "Catàleg de fauna amenaçada (proposta 2020)": null
        },
        "SITUACIÓ": {
            "UICN GBIF": null
        },
        "TAXONOMIA": {
            "Classe": "Insecta",
            "Espècie": "Ochthebius (Asiobates) immculatus",
            "Família": "Hydraenidae",
            "Regne": "Metazoa",
            "Subfamília": "Ochthebiinae",
            "TaxId": null,
            "Fílum": "Arthropoda",
            "Ordre": "Coleoptera"
        },
        "ORIGEN I ENDEMISME": {
            "Origen i Endemisme": "Mediterrània occidental"
        },
        "NOM DE L'AUTOR": {
            "Autor": "Breit, 1908"
        }
    },
    {
        "INFORMACIÓ COMPLEMENTÀRIA": {
            "GbifId": "4051477315",
            "Image_urls": null,
            "Pertany_A": "Coleopters_hidrenids"
        },
        "LEGISLACIÓ": {
            "Catàleg de fauna amenaçada (proposta 2020)": null
        },
        "SITUACIÓ": {
            "UICN GBIF": "NE"
        },
        "TAXONOMIA": {
            "Classe": "Insecta",
            "Espècie": "Ochthebius (Asiobates) impressipennis",
            "Família": "Hydraenidae",
            "Regne": "Metazoa",
            "Subfamília": "Ochthebiinae",
            "TaxId": null,
            "Fílum": "Arthropoda",
            "Ordre": "Coleoptera"
        },
        "ORIGEN I ENDEMISME": {
            "Origen i Endemisme": "Sud de França, única cita ibèrica (Girona)"
        },
        "NOM DE L'AUTOR": {
            "Autor": "Rey, 1886"
        }
    },
    {
        "INFORMACIÓ COMPLEMENTÀRIA": {
            "GbifId": "4148539498",
            "Image_urls": null,
            "Pertany_A": "Coleopters_hidrenids"
        },
        "LEGISLACIÓ": {
            "Catàleg de fauna amenaçada (proposta 2020)": null
        },
        "SITUACIÓ": {
            "UICN GBIF": "NE"
        },
        "TAXONOMIA": {
            "Classe": "Insecta",
            "Espècie": "Ochthebius (Calobius) quadricollis",
            "Família": "Hydraenidae",
            "Regne": "Metazoa",
            "Subfamília": "Ochthebiinae",
            "TaxId": "667175",
            "Fílum": "Arthropoda",
            "Ordre": "Coleoptera"
        },
        "ORIGEN I ENDEMISME": {
            "Origen i Endemisme": "Mediterrània occidental"
        },
        "NOM DE L'AUTOR": {
            "Autor": "Mulsant, 1844"
        }
    },
    {
        "INFORMACIÓ COMPLEMENTÀRIA": {
            "GbifId": "2250368411",
            "Image_urls": null,
            "Pertany_A": "Coleopters_hidrenids"
        },
        "LEGISLACIÓ": {
            "Catàleg de fauna amenaçada (proposta 2020)": null
        },
        "SITUACIÓ": {
            "UICN GBIF": null
        },
        "TAXONOMIA": {
            "Classe": "Insecta",
            "Espècie": "Ochthebius (Enicocerus) exsculptus",
            "Família": "Hydraenidae",
            "Regne": "Metazoa",
            "Subfamília": "Ochthebiinae",
            "TaxId": "723410",
            "Fílum": "Arthropoda",
            "Ordre": "Coleoptera"
        },
        "ORIGEN I ENDEMISME": {
            "Origen i Endemisme": "Europea"
        },
        "NOM DE L'AUTOR": {
            "Autor": "Germar, 1823"
        }
    },
    {
        "INFORMACIÓ COMPLEMENTÀRIA": {
            "GbifId": "998509839",
            "Image_urls": null,
            "Pertany_A": "Coleopters_hidrenids"
        },
        "LEGISLACIÓ": {
            "Catàleg de fauna amenaçada (proposta 2020)": null
        },
        "SITUACIÓ": {
            "UICN GBIF": "NE"
        },
        "TAXONOMIA": {
            "Classe": "Insecta",
            "Espècie": "Ochthebius (Ochthebius) dentifer",
            "Família": "Hydraenidae",
            "Regne": "Metazoa",
            "Subfamília": "Ochthebiinae",
            "TaxId": "1309105",
            "Fílum": "Arthropoda",
            "Ordre": "Coleoptera"
        },
        "ORIGEN I ENDEMISME": {
            "Origen i Endemisme": "Península Ibèrica i sud de França"
        },
        "NOM DE L'AUTOR": {
            "Autor": "Rey, 1885"
        }
    },
    {
        "INFORMACIÓ COMPLEMENTÀRIA": {
            "GbifId": "1913341675",
            "Image_urls": null,
            "Pertany_A": "Coleopters_hidrenids"
        },
        "LEGISLACIÓ": {
            "Catàleg de fauna amenaçada (proposta 2020)": null
        },
        "SITUACIÓ": {
            "UICN GBIF": "NE"
        },
        "TAXONOMIA": {
            "Classe": "Insecta",
            "Espècie": "Ochthebius (Ochthebius) mediterraneus",
            "Família": "Hydraenidae",
            "Regne": "Metazoa",
            "Subfamília": "Ochthebiinae",
            "TaxId": "1309234",
            "Fílum": "Arthropoda",
            "Ordre": "Coleoptera"
        },
        "ORIGEN I ENDEMISME": {
            "Origen i Endemisme": "Mediterrània occidental"
        },
        "NOM DE L'AUTOR": {
            "Autor": "Ienştea, 1988"
        }
    },
    {
        "INFORMACIÓ COMPLEMENTÀRIA": {
            "GbifId": "4154186345",
            "Image_urls": null,
            "Pertany_A": "Coleopters_hidrenids"
        },
        "LEGISLACIÓ": {
            "Catàleg de fauna amenaçada (proposta 2020)": null
        },
        "SITUACIÓ": {
            "UICN GBIF": "NE"
        },
        "TAXONOMIA": {
            "Classe": "Insecta",
            "Espècie": "Ochthebius (Ochthebius) marinus",
            "Família": "Hydraenidae",
            "Regne": "Metazoa",
            "Subfamília": "Ochthebiinae",
            "TaxId": "878164",
            "Fílum": "Arthropoda",
            "Ordre": "Coleoptera"
        },
        "ORIGEN I ENDEMISME": {
            "Origen i Endemisme": "Holàrtica"
        },
        "NOM DE L'AUTOR": {
            "Autor": "Paykull, 1798"
        }
    },
    {
        "INFORMACIÓ COMPLEMENTÀRIA": {
            "GbifId": "3999723664",
            "Image_urls": null,
            "Pertany_A": "Coleopters_hidrenids"
        },
        "LEGISLACIÓ": {
            "Catàleg de fauna amenaçada (proposta 2020)": null
        },
        "SITUACIÓ": {
            "UICN GBIF": "NE"
        },
        "TAXONOMIA": {
            "Classe": "Insecta",
            "Espècie": "Ochthebius (Ochthebius) meridionalis",
            "Família": "Hydraenidae",
            "Regne": "Metazoa",
            "Subfamília": "Ochthebiinae",
            "TaxId": "1309235",
            "Fílum": "Arthropoda",
            "Ordre": "Coleoptera"
        },
        "ORIGEN I ENDEMISME": {
            "Origen i Endemisme": "Mediterrània"
        },
        "NOM DE L'AUTOR": {
            "Autor": "Rey, 1885"
        }
    },
    {
        "INFORMACIÓ COMPLEMENTÀRIA": {
            "GbifId": "3999724221",
            "Image_urls": null,
            "Pertany_A": "Coleopters_hidrenids"
        },
        "LEGISLACIÓ": {
            "Catàleg de fauna amenaçada (proposta 2020)": null
        },
        "SITUACIÓ": {
            "UICN GBIF": "NE"
        },
        "TAXONOMIA": {
            "Classe": "Insecta",
            "Espècie": "Ochthebius (Ochthebius) pusillus",
            "Família": "Hydraenidae",
            "Regne": "Metazoa",
            "Subfamília": "Ochthebiinae",
            "TaxId": "1309306",
            "Fílum": "Arthropoda",
            "Ordre": "Coleoptera"
        },
        "ORIGEN I ENDEMISME": {
            "Origen i Endemisme": "Europea"
        },
        "NOM DE L'AUTOR": {
            "Autor": "Stephens, 1835"
        }
    },
    {
        "INFORMACIÓ COMPLEMENTÀRIA": {
            "GbifId": "411868931",
            "Image_urls": null,
            "Pertany_A": "Coleopters_hidrenids"
        },
        "LEGISLACIÓ": {
            "Catàleg de fauna amenaçada (proposta 2020)": null
        },
        "SITUACIÓ": {
            "UICN GBIF": "NE"
        },
        "TAXONOMIA": {
            "Classe": "Insecta",
            "Espècie": "Ochthebius (Ochthebius) subpictus subpictus",
            "Família": "Hydraenidae",
            "Regne": "Metazoa",
            "Subfamília": "Ochthebiinae",
            "TaxId": "1216191",
            "Fílum": "Arthropoda",
            "Ordre": "Coleoptera"
        },
        "ORIGEN I ENDEMISME": {
            "Origen i Endemisme": "Mediterrània"
        },
        "NOM DE L'AUTOR": {
            "Autor": "Wollaston, 1857"
        }
    },
    {
        "INFORMACIÓ COMPLEMENTÀRIA": {
            "GbifId": "4148520813",
            "Image_urls": null,
            "Pertany_A": "Coleopters_hidrenids"
        },
        "LEGISLACIÓ": {
            "Catàleg de fauna amenaçada (proposta 2020)": null
        },
        "SITUACIÓ": {
            "UICN GBIF": "NE"
        },
        "TAXONOMIA": {
            "Classe": "Insecta",
            "Espècie": "Ochthebius (Ochthebius) viridescens",
            "Família": "Hydraenidae",
            "Regne": "Metazoa",
            "Subfamília": "Ochthebiinae",
            "TaxId": "1309390",
            "Fílum": "Arthropoda",
            "Ordre": "Coleoptera"
        },
        "ORIGEN I ENDEMISME": {
            "Origen i Endemisme": "Mediterrània"
        },
        "NOM DE L'AUTOR": {
            "Autor": "Ienştea, 1988"
        }
    },
    {
        "INFORMACIÓ COMPLEMENTÀRIA": {
            "GbifId": "4085444708",
            "Image_urls": null,
            "Pertany_A": "Coleopters_hidrenids"
        },
        "LEGISLACIÓ": {
            "Catàleg de fauna amenaçada (proposta 2020)": null
        },
        "SITUACIÓ": {
            "UICN GBIF": "NE"
        },
        "TAXONOMIA": {
            "Classe": "Insecta",
            "Espècie": "Ochthebius (Ochthebius) metallescens",
            "Família": "Hydraenidae",
            "Regne": "Metazoa",
            "Subfamília": "Ochthebiinae",
            "TaxId": "1309238",
            "Fílum": "Arthropoda",
            "Ordre": "Coleoptera"
        },
        "ORIGEN I ENDEMISME": {
            "Origen i Endemisme": "Europea"
        },
        "NOM DE L'AUTOR": {
            "Autor": "Rosenhauer, 1847"
        }
    },
    {
        "INFORMACIÓ COMPLEMENTÀRIA": {
            "GbifId": "2475640879",
            "Image_urls": null,
            "Pertany_A": "Coleopters_hidrenids"
        },
        "LEGISLACIÓ": {
            "Catàleg de fauna amenaçada (proposta 2020)": null
        },
        "SITUACIÓ": {
            "UICN GBIF": "NE"
        },
        "TAXONOMIA": {
            "Classe": "Insecta",
            "Espècie": "Ochthebius (Ochthebius) semisericeus",
            "Família": "Hydraenidae",
            "Regne": "Metazoa",
            "Subfamília": "Ochthebiinae",
            "TaxId": "1309340",
            "Fílum": "Arthropoda",
            "Ordre": "Coleoptera"
        },
        "ORIGEN I ENDEMISME": {
            "Origen i Endemisme": "Espanya i França"
        },
        "NOM DE L'AUTOR": {
            "Autor": "Saint-Claire Deville, 1914"
        }
    },
    {
        "INFORMACIÓ COMPLEMENTÀRIA": {
            "GbifId": "3491770833",
            "Image_urls": null,
            "Pertany_A": "Coleopters_hidrenids"
        },
        "LEGISLACIÓ": {
            "Catàleg de fauna amenaçada (proposta 2020)": null
        },
        "SITUACIÓ": {
            "UICN GBIF": "NE"
        },
        "TAXONOMIA": {
            "Classe": "Insecta",
            "Espècie": "Ochthebius (Ochthebius) difficilis",
            "Família": "Hydraenidae",
            "Regne": "Metazoa",
            "Subfamília": "Ochthebiinae",
            "TaxId": "1309109",
            "Fílum": "Arthropoda",
            "Ordre": "Coleoptera"
        },
        "ORIGEN I ENDEMISME": {
            "Origen i Endemisme": "Mediterrània"
        },
        "NOM DE L'AUTOR": {
            "Autor": "Mulsant, 1844"
        }
    },
    {
        "INFORMACIÓ COMPLEMENTÀRIA": {
            "GbifId": "3810902504",
            "Image_urls": null,
            "Pertany_A": "Coleopters_hidrenids"
        },
        "LEGISLACIÓ": {
            "Catàleg de fauna amenaçada (proposta 2020)": null
        },
        "SITUACIÓ": {
            "UICN GBIF": "NE"
        },
        "TAXONOMIA": {
            "Classe": "Insecta",
            "Espècie": "Ochthebius (Ochthebius) nanus",
            "Família": "Hydraenidae",
            "Regne": "Metazoa",
            "Subfamília": "Ochthebiinae",
            "TaxId": "1309258",
            "Fílum": "Arthropoda",
            "Ordre": "Coleoptera"
        },
        "ORIGEN I ENDEMISME": {
            "Origen i Endemisme": "Paleàrtica"
        },
        "NOM DE L'AUTOR": {
            "Autor": "Stephens, 1829"
        }
    },
    {
        "INFORMACIÓ COMPLEMENTÀRIA": {
            "GbifId": "998508178",
            "Image_urls": null,
            "Pertany_A": "Coleopters_hidrenids"
        },
        "LEGISLACIÓ": {
            "Catàleg de fauna amenaçada (proposta 2020)": null
        },
        "SITUACIÓ": {
            "UICN GBIF": "NE"
        },
        "TAXONOMIA": {
            "Classe": "Insecta",
            "Espècie": "Ochthebius (Ochthebius) pilosus",
            "Família": "Hydraenidae",
            "Regne": "Metazoa",
            "Subfamília": "Ochthebiinae",
            "TaxId": "1309293",
            "Fílum": "Arthropoda",
            "Ordre": "Coleoptera"
        },
        "ORIGEN I ENDEMISME": {
            "Origen i Endemisme": "Mediterrània occidental"
        },
        "NOM DE L'AUTOR": {
            "Autor": "Waltl, 1835"
        }
    },
    {
        "INFORMACIÓ COMPLEMENTÀRIA": {
            "GbifId": "3993977762",
            "Image_urls": null,
            "Pertany_A": "Coleopters_hidrenids"
        },
        "LEGISLACIÓ": {
            "Catàleg de fauna amenaçada (proposta 2020)": null
        },
        "SITUACIÓ": {
            "UICN GBIF": "NE"
        },
        "TAXONOMIA": {
            "Classe": "Insecta",
            "Espècie": "Ochthebius (Ochthebius) subinteger",
            "Família": "Hydraenidae",
            "Regne": "Metazoa",
            "Subfamília": "Ochthebiinae",
            "TaxId": "1309363",
            "Fílum": "Arthropoda",
            "Ordre": "Coleoptera"
        },
        "ORIGEN I ENDEMISME": {
            "Origen i Endemisme": "Mediterrània"
        },
        "NOM DE L'AUTOR": {
            "Autor": "Mulsant & Rey, 1861"
        }
    }
]