[
    {
        "INFORMACIÓ COMPLEMENTÀRIA": {
            "GbifId": "4018258024",
            "Image_urls": [
                "https://inaturalist-open-data.s3.amazonaws.com/photos/264248838/medium.jpeg"
            ],
            "Pertany_A": "Coleopters_pirocroids"
        },
        "SITUACIÓ": {
            "UICN GBIF": "NE"
        },
        "TAXONOMIA": {
            "Classe": "Insecta",
            "Espècie": "Pyrochroa coccinea",
            "Família": "Pyrochroidae",
            "Regne": "Metazoa",
            "Subfamília": "Pyrochroinae",
            "TaxId": "295985",
            "Fílum": "Arthropoda",
            "Ordre": "Coleoptera"
        },
        "ORIGEN I ENDEMISME": {
            "Origen i Endemisme": "Europa"
        },
        "NOM DE L'AUTOR": {
            "Autor": "Linnaeus, 1761"
        }
    },
    {
        "INFORMACIÓ COMPLEMENTÀRIA": {
            "GbifId": "4148570557",
            "Image_urls": [
                "https://inaturalist-open-data.s3.amazonaws.com/photos/262404467/medium.jpeg",
                "https://inaturalist-open-data.s3.amazonaws.com/photos/264871892/medium.jpeg",
                "https://inaturalist-open-data.s3.amazonaws.com/photos/265653589/medium.jpg",
                "https://inaturalist-open-data.s3.amazonaws.com/photos/265708147/medium.jpeg"
            ],
            "Pertany_A": "Coleopters_pirocroids"
        },
        "SITUACIÓ": {
            "UICN GBIF": "NE"
        },
        "TAXONOMIA": {
            "Classe": "Insecta",
            "Espècie": "Pyrochroa serraticornis",
            "Família": "Pyrochroidae",
            "Regne": "Metazoa",
            "Subfamília": "Pyrochroinae",
            "TaxId": "346838",
            "Fílum": "Arthropoda",
            "Ordre": "Coleoptera"
        },
        "ORIGEN I ENDEMISME": {
            "Origen i Endemisme": "Europa"
        },
        "NOM DE L'AUTOR": {
            "Autor": "Scopoli, 1763"
        }
    }
]