[
    {
        "ESTUDIS": {
            "Estudis moleculars": null
        },
        "INFORMACIÓ COMPLEMENTÀRIA": {
            "GbifId": "3450235532",
            "Image_urls": null,
            "Pertany_A": "Crustacis_cumacis"
        },
        "SITUACIÓ": {
            "UICN GBIF": "NE"
        },
        "TAXONOMIA": {
            "Classe": "Malacostraca",
            "Espècie": "Bathycuma brevirostre",
            "Família": "Bodotriidae",
            "Regne": "Metazoa",
            "TaxId": null,
            "Fílum": "Arthropoda",
            "Ordre": "Cumacea"
        },
        "ORIGEN I ENDEMISME": {
            "Origen i Endemisme": "Autòctona"
        },
        "NOM DE L'AUTOR": {
            "Autor": "Norman, 1879"
        }
    },
    {
        "ESTUDIS": {
            "Estudis moleculars": null
        },
        "INFORMACIÓ COMPLEMENTÀRIA": {
            "GbifId": "4147786941",
            "Image_urls": null,
            "Pertany_A": "Crustacis_cumacis"
        },
        "SITUACIÓ": {
            "UICN GBIF": "NE"
        },
        "TAXONOMIA": {
            "Classe": "Malacostraca",
            "Espècie": "Bodotria arenosa",
            "Família": "Bodotriidae",
            "Regne": "Metazoa",
            "TaxId": null,
            "Fílum": "Arthropoda",
            "Ordre": "Cumacea"
        },
        "ORIGEN I ENDEMISME": {
            "Origen i Endemisme": "Autòctona"
        },
        "NOM DE L'AUTOR": {
            "Autor": "Goodsir, 1843"
        }
    },
    {
        "ESTUDIS": {
            "Estudis moleculars": null
        },
        "INFORMACIÓ COMPLEMENTÀRIA": {
            "GbifId": "1313793822",
            "Image_urls": null,
            "Pertany_A": "Crustacis_cumacis"
        },
        "SITUACIÓ": {
            "UICN GBIF": null
        },
        "TAXONOMIA": {
            "Classe": "Malacostraca",
            "Espècie": "Bodotria arenosa leloeuffi",
            "Família": "Bodotriidae",
            "Regne": "Metazoa",
            "TaxId": null,
            "Fílum": "Arthropoda",
            "Ordre": "Cumacea"
        },
        "ORIGEN I ENDEMISME": {
            "Origen i Endemisme": "Autòctona"
        },
        "NOM DE L'AUTOR": {
            "Autor": "Corbera and Gracia-Rubies 1998"
        }
    },
    {
        "ESTUDIS": {
            "Estudis moleculars": null
        },
        "INFORMACIÓ COMPLEMENTÀRIA": {
            "GbifId": "4020066477",
            "Image_urls": [
                "https://data.nhm.ac.uk/media/b51c41d0-f382-41de-b8f6-53c68b588f80"
            ],
            "Pertany_A": "Crustacis_cumacis"
        },
        "SITUACIÓ": {
            "UICN GBIF": "NE"
        },
        "TAXONOMIA": {
            "Classe": "Malacostraca",
            "Espècie": "Bodotria gibba",
            "Família": "Bodotriidae",
            "Regne": "Metazoa",
            "TaxId": null,
            "Fílum": "Arthropoda",
            "Ordre": "Cumacea"
        },
        "ORIGEN I ENDEMISME": {
            "Origen i Endemisme": "Autòctona"
        },
        "NOM DE L'AUTOR": {
            "Autor": "Sars, 1878"
        }
    },
    {
        "ESTUDIS": {
            "Estudis moleculars": null
        },
        "INFORMACIÓ COMPLEMENTÀRIA": {
            "GbifId": "4108968654",
            "Image_urls": null,
            "Pertany_A": "Crustacis_cumacis"
        },
        "SITUACIÓ": {
            "UICN GBIF": "NE"
        },
        "TAXONOMIA": {
            "Classe": "Malacostraca",
            "Espècie": "Bodotria pulchella",
            "Família": "Bodotriidae",
            "Regne": "Metazoa",
            "TaxId": null,
            "Fílum": "Arthropoda",
            "Ordre": "Cumacea"
        },
        "ORIGEN I ENDEMISME": {
            "Origen i Endemisme": "Autòctona"
        },
        "NOM DE L'AUTOR": {
            "Autor": "Sars, 1878"
        }
    },
    {
        "ESTUDIS": {
            "Estudis moleculars": "COI, (1) Raupach, M. J.; Barco, A.; Steinke, D.; Beermann, J.; Laakmann, S.; Mohrbeck, I.; Neumann, H.; Kihara, T. C.; Pointner, K.; Radulovici, A.; Segelken-Voigt, A.; Wesse, C.; Knebelsberger, T. (2015). «The Application of DNA Barcodes for the Identification of Marine Crustaceans from the North Sea and Adjacent Regions». PLoS One 10(9): e0139421. DOI: 10.1371/journal.pone.0139421"
        },
        "INFORMACIÓ COMPLEMENTÀRIA": {
            "GbifId": "4108940143",
            "Image_urls": null,
            "Pertany_A": "Crustacis_cumacis"
        },
        "SITUACIÓ": {
            "UICN GBIF": "NE"
        },
        "TAXONOMIA": {
            "Classe": "Malacostraca",
            "Espècie": "Bodotria scorpioides",
            "Família": "Bodotriidae",
            "Regne": "Metazoa",
            "TaxId": "1732141",
            "Fílum": "Arthropoda",
            "Ordre": "Cumacea"
        },
        "ORIGEN I ENDEMISME": {
            "Origen i Endemisme": "Autòctona"
        },
        "NOM DE L'AUTOR": {
            "Autor": "Montagu, 1804"
        }
    },
    {
        "ESTUDIS": {
            "Estudis moleculars": null
        },
        "INFORMACIÓ COMPLEMENTÀRIA": {
            "GbifId": "4147871911",
            "Image_urls": null,
            "Pertany_A": "Crustacis_cumacis"
        },
        "SITUACIÓ": {
            "UICN GBIF": "NE"
        },
        "TAXONOMIA": {
            "Classe": "Malacostraca",
            "Espècie": "Campylaspis glabra",
            "Família": "Nannastacidae",
            "Regne": "Metazoa",
            "TaxId": null,
            "Fílum": "Arthropoda",
            "Ordre": "Cumacea"
        },
        "ORIGEN I ENDEMISME": {
            "Origen i Endemisme": "Autòctona"
        },
        "NOM DE L'AUTOR": {
            "Autor": "Sars, 1879"
        }
    },
    {
        "ESTUDIS": {
            "Estudis moleculars": null
        },
        "INFORMACIÓ COMPLEMENTÀRIA": {
            "GbifId": "201110685",
            "Image_urls": null,
            "Pertany_A": "Crustacis_cumacis"
        },
        "SITUACIÓ": {
            "UICN GBIF": "NE"
        },
        "TAXONOMIA": {
            "Classe": "Malacostraca",
            "Espècie": "Campylaspis horridoides",
            "Família": "Nannastacidae",
            "Regne": "Metazoa",
            "TaxId": null,
            "Fílum": "Arthropoda",
            "Ordre": "Cumacea"
        },
        "ORIGEN I ENDEMISME": {
            "Origen i Endemisme": "Autòctona"
        },
        "NOM DE L'AUTOR": {
            "Autor": "Stephensen, 1915"
        }
    },
    {
        "ESTUDIS": {
            "Estudis moleculars": null
        },
        "INFORMACIÓ COMPLEMENTÀRIA": {
            "GbifId": "3913940518",
            "Image_urls": null,
            "Pertany_A": "Crustacis_cumacis"
        },
        "SITUACIÓ": {
            "UICN GBIF": "NE"
        },
        "TAXONOMIA": {
            "Classe": "Malacostraca",
            "Espècie": "Campylaspis spinosa",
            "Família": "Nannastacidae",
            "Regne": "Metazoa",
            "TaxId": null,
            "Fílum": "Arthropoda",
            "Ordre": "Cumacea"
        },
        "ORIGEN I ENDEMISME": {
            "Origen i Endemisme": "Autòctona"
        },
        "NOM DE L'AUTOR": {
            "Autor": "Calman, 1906"
        }
    },
    {
        "ESTUDIS": {
            "Estudis moleculars": null
        },
        "INFORMACIÓ COMPLEMENTÀRIA": {
            "GbifId": "201110436",
            "Image_urls": null,
            "Pertany_A": "Crustacis_cumacis"
        },
        "SITUACIÓ": {
            "UICN GBIF": "NE"
        },
        "TAXONOMIA": {
            "Classe": "Malacostraca",
            "Espècie": "Campylaspis squamifera",
            "Família": "Nannastacidae",
            "Regne": "Metazoa",
            "TaxId": null,
            "Fílum": "Arthropoda",
            "Ordre": "Cumacea"
        },
        "ORIGEN I ENDEMISME": {
            "Origen i Endemisme": "Autòctona"
        },
        "NOM DE L'AUTOR": {
            "Autor": "Fage, 1929"
        }
    },
    {
        "ESTUDIS": {
            "Estudis moleculars": null
        },
        "INFORMACIÓ COMPLEMENTÀRIA": {
            "GbifId": "3913941997",
            "Image_urls": null,
            "Pertany_A": "Crustacis_cumacis"
        },
        "SITUACIÓ": {
            "UICN GBIF": "NE"
        },
        "TAXONOMIA": {
            "Classe": "Malacostraca",
            "Espècie": "Campylaspis vitrea",
            "Família": "Nannastacidae",
            "Regne": "Metazoa",
            "TaxId": null,
            "Fílum": "Arthropoda",
            "Ordre": "Cumacea"
        },
        "ORIGEN I ENDEMISME": {
            "Origen i Endemisme": "Autòctona"
        },
        "NOM DE L'AUTOR": {
            "Autor": "Calman, 1906"
        }
    },
    {
        "ESTUDIS": {
            "Estudis moleculars": null
        },
        "INFORMACIÓ COMPLEMENTÀRIA": {
            "GbifId": "2005514636",
            "Image_urls": null,
            "Pertany_A": "Crustacis_cumacis"
        },
        "SITUACIÓ": {
            "UICN GBIF": "NE"
        },
        "TAXONOMIA": {
            "Classe": "Malacostraca",
            "Espècie": "Cumella limicola",
            "Família": "Nannastacidae",
            "Regne": "Metazoa",
            "TaxId": null,
            "Fílum": "Arthropoda",
            "Ordre": "Cumacea"
        },
        "ORIGEN I ENDEMISME": {
            "Origen i Endemisme": "Autòctona"
        },
        "NOM DE L'AUTOR": {
            "Autor": "Sars, 1879"
        }
    },
    {
        "ESTUDIS": {
            "Estudis moleculars": null
        },
        "INFORMACIÓ COMPLEMENTÀRIA": {
            "GbifId": "4147701826",
            "Image_urls": null,
            "Pertany_A": "Crustacis_cumacis"
        },
        "SITUACIÓ": {
            "UICN GBIF": "NE"
        },
        "TAXONOMIA": {
            "Classe": "Malacostraca",
            "Espècie": "Cumella pygmaea",
            "Família": "Nannastacidae",
            "Regne": "Metazoa",
            "TaxId": null,
            "Fílum": "Arthropoda",
            "Ordre": "Cumacea"
        },
        "ORIGEN I ENDEMISME": {
            "Origen i Endemisme": "Autòctona"
        },
        "NOM DE L'AUTOR": {
            "Autor": "Sars, 1865"
        }
    },
    {
        "ESTUDIS": {
            "Estudis moleculars": null
        },
        "INFORMACIÓ COMPLEMENTÀRIA": {
            "GbifId": "3450235363",
            "Image_urls": [
                "https://data.nhm.ac.uk/media/867b8e1e-9004-4763-9b71-5e71d15e67b1",
                "https://data.nhm.ac.uk/media/867b8e1e-9004-4763-9b71-5e71d15e67b1"
            ],
            "Pertany_A": "Crustacis_cumacis"
        },
        "SITUACIÓ": {
            "UICN GBIF": "NE"
        },
        "TAXONOMIA": {
            "Classe": "Malacostraca",
            "Espècie": "Cumellopsis puritani",
            "Família": "Nannastacidae",
            "Regne": "Metazoa",
            "TaxId": null,
            "Fílum": "Arthropoda",
            "Ordre": "Cumacea"
        },
        "ORIGEN I ENDEMISME": {
            "Origen i Endemisme": "Autòctona"
        },
        "NOM DE L'AUTOR": {
            "Autor": "Calman, 1906"
        }
    },
    {
        "ESTUDIS": {
            "Estudis moleculars": "COI, (2) Haye, P. A., Kornfield, I.; Watling, L. (2004). «Molecular insights into Cumacean family relationships (Crustacea, Cumacea)». Molecular Phylogenetics and Evolution, 30 (3), p. 798–809. DOI: 10.1016/j.ympev.2003.08.003"
        },
        "INFORMACIÓ COMPLEMENTÀRIA": {
            "GbifId": "3717544962",
            "Image_urls": null,
            "Pertany_A": "Crustacis_cumacis"
        },
        "SITUACIÓ": {
            "UICN GBIF": "NE"
        },
        "TAXONOMIA": {
            "Classe": "Malacostraca",
            "Espècie": "Cumopsis goodsir",
            "Família": "Bodotriidae",
            "Regne": "Metazoa",
            "TaxId": "94561",
            "Fílum": "Arthropoda",
            "Ordre": "Cumacea"
        },
        "ORIGEN I ENDEMISME": {
            "Origen i Endemisme": "Autòctona"
        },
        "NOM DE L'AUTOR": {
            "Autor": "van Beneden, 1861"
        }
    },
    {
        "ESTUDIS": {
            "Estudis moleculars": "rRNA (Glenner, H.; Gerken, S.; Meland, K. Inèdit)"
        },
        "INFORMACIÓ COMPLEMENTÀRIA": {
            "GbifId": "4147719851",
            "Image_urls": null,
            "Pertany_A": "Crustacis_cumacis"
        },
        "SITUACIÓ": {
            "UICN GBIF": "NE"
        },
        "TAXONOMIA": {
            "Classe": "Malacostraca",
            "Espècie": "Cyclaspis longicaudata",
            "Família": "Bodotriidae",
            "Regne": "Metazoa",
            "TaxId": "2546677",
            "Fílum": "Arthropoda",
            "Ordre": "Cumacea"
        },
        "ORIGEN I ENDEMISME": {
            "Origen i Endemisme": "Autòctona"
        },
        "NOM DE L'AUTOR": {
            "Autor": "Sars. 1865"
        }
    },
    {
        "ESTUDIS": {
            "Estudis moleculars": null
        },
        "INFORMACIÓ COMPLEMENTÀRIA": {
            "GbifId": "4147753067",
            "Image_urls": null,
            "Pertany_A": "Crustacis_cumacis"
        },
        "SITUACIÓ": {
            "UICN GBIF": "NE"
        },
        "TAXONOMIA": {
            "Classe": "Malacostraca",
            "Espècie": "Diastylis cornuta",
            "Família": "Diastylidae",
            "Regne": "Metazoa",
            "TaxId": "2546678",
            "Fílum": "Arthropoda",
            "Ordre": "Cumacea"
        },
        "ORIGEN I ENDEMISME": {
            "Origen i Endemisme": "Autòctona"
        },
        "NOM DE L'AUTOR": {
            "Autor": "Boeck, 1864"
        }
    },
    {
        "ESTUDIS": {
            "Estudis moleculars": null
        },
        "INFORMACIÓ COMPLEMENTÀRIA": {
            "GbifId": "201112687",
            "Image_urls": null,
            "Pertany_A": "Crustacis_cumacis"
        },
        "SITUACIÓ": {
            "UICN GBIF": "NE"
        },
        "TAXONOMIA": {
            "Classe": "Malacostraca",
            "Espècie": "Diastylis jonesi",
            "Família": "Diastylidae",
            "Regne": "Metazoa",
            "TaxId": null,
            "Fílum": "Arthropoda",
            "Ordre": "Cumacea"
        },
        "ORIGEN I ENDEMISME": {
            "Origen i Endemisme": "Autòctona"
        },
        "NOM DE L'AUTOR": {
            "Autor": "Reyss, 1972"
        }
    },
    {
        "ESTUDIS": {
            "Estudis moleculars": null
        },
        "INFORMACIÓ COMPLEMENTÀRIA": {
            "GbifId": "4147751752",
            "Image_urls": null,
            "Pertany_A": "Crustacis_cumacis"
        },
        "SITUACIÓ": {
            "UICN GBIF": "NE"
        },
        "TAXONOMIA": {
            "Classe": "Malacostraca",
            "Espècie": "Diastylis rugosa",
            "Família": "Diastylidae",
            "Regne": "Metazoa",
            "TaxId": "1732099",
            "Fílum": "Arthropoda",
            "Ordre": "Cumacea"
        },
        "ORIGEN I ENDEMISME": {
            "Origen i Endemisme": "Autòctona"
        },
        "NOM DE L'AUTOR": {
            "Autor": "Sars, 1865"
        }
    },
    {
        "ESTUDIS": {
            "Estudis moleculars": null
        },
        "INFORMACIÓ COMPLEMENTÀRIA": {
            "GbifId": "3045941248",
            "Image_urls": null,
            "Pertany_A": "Crustacis_cumacis"
        },
        "SITUACIÓ": {
            "UICN GBIF": "NE"
        },
        "TAXONOMIA": {
            "Classe": "Malacostraca",
            "Espècie": "Diastyloides carpinei",
            "Família": "Diastylidae",
            "Regne": "Metazoa",
            "TaxId": null,
            "Fílum": "Arthropoda",
            "Ordre": "Cumacea"
        },
        "ORIGEN I ENDEMISME": {
            "Origen i Endemisme": "Autòctona"
        },
        "NOM DE L'AUTOR": {
            "Autor": "Bacescu, 1969"
        }
    },
    {
        "ESTUDIS": {
            "Estudis moleculars": "rRNA (Glenner, H.; Gerken, S.; Meland, K. Inèdit)"
        },
        "INFORMACIÓ COMPLEMENTÀRIA": {
            "GbifId": "4147758134",
            "Image_urls": null,
            "Pertany_A": "Crustacis_cumacis"
        },
        "SITUACIÓ": {
            "UICN GBIF": "NE"
        },
        "TAXONOMIA": {
            "Classe": "Malacostraca",
            "Espècie": "Diastyloides serratus",
            "Família": "Diastylidae",
            "Regne": "Metazoa",
            "TaxId": "2546696",
            "Fílum": "Arthropoda",
            "Ordre": "Cumacea"
        },
        "ORIGEN I ENDEMISME": {
            "Origen i Endemisme": "Autòctona"
        },
        "NOM DE L'AUTOR": {
            "Autor": "Sars, 1865"
        }
    },
    {
        "ESTUDIS": {
            "Estudis moleculars": null
        },
        "INFORMACIÓ COMPLEMENTÀRIA": {
            "GbifId": "3481482058",
            "Image_urls": [
                "https://data.nhm.ac.uk/media/97a33726-53a0-448d-89fc-2d7e2eaf015e"
            ],
            "Pertany_A": "Crustacis_cumacis"
        },
        "SITUACIÓ": {
            "UICN GBIF": "NE"
        },
        "TAXONOMIA": {
            "Classe": "Malacostraca",
            "Espècie": "Eocuma ferox",
            "Família": "Bodotriidae",
            "Regne": "Metazoa",
            "TaxId": null,
            "Fílum": "Arthropoda",
            "Ordre": "Cumacea"
        },
        "ORIGEN I ENDEMISME": {
            "Origen i Endemisme": "Autòctona"
        },
        "NOM DE L'AUTOR": {
            "Autor": "Fisher, 1872"
        }
    },
    {
        "ESTUDIS": {
            "Estudis moleculars": null
        },
        "INFORMACIÓ COMPLEMENTÀRIA": {
            "GbifId": "3045941107",
            "Image_urls": [
                "https://data.nhm.ac.uk/media/2de2fc9e-8cce-4ff2-9405-483a143beef8",
                "https://data.nhm.ac.uk/media/2de2fc9e-8cce-4ff2-9405-483a143beef8"
            ],
            "Pertany_A": "Crustacis_cumacis"
        },
        "SITUACIÓ": {
            "UICN GBIF": "NE"
        },
        "TAXONOMIA": {
            "Classe": "Malacostraca",
            "Espècie": "Eudorella nana",
            "Família": "Leuconidae",
            "Regne": "Metazoa",
            "TaxId": "2990510",
            "Fílum": "Arthropoda",
            "Ordre": "Cumacea"
        },
        "ORIGEN I ENDEMISME": {
            "Origen i Endemisme": "Autòctona"
        },
        "NOM DE L'AUTOR": {
            "Autor": "Sars, 1879"
        }
    },
    {
        "ESTUDIS": {
            "Estudis moleculars": null
        },
        "INFORMACIÓ COMPLEMENTÀRIA": {
            "GbifId": "4147799989",
            "Image_urls": null,
            "Pertany_A": "Crustacis_cumacis"
        },
        "SITUACIÓ": {
            "UICN GBIF": "NE"
        },
        "TAXONOMIA": {
            "Classe": "Malacostraca",
            "Espècie": "Eudorella truncatula",
            "Família": "Leuconidae",
            "Regne": "Metazoa",
            "TaxId": "1582883",
            "Fílum": "Arthropoda",
            "Ordre": "Cumacea"
        },
        "ORIGEN I ENDEMISME": {
            "Origen i Endemisme": "Autòctona"
        },
        "NOM DE L'AUTOR": {
            "Autor": "Bate, 1856"
        }
    },
    {
        "ESTUDIS": {
            "Estudis moleculars": "rRNA (Glenner, H.; Gerken, S.; Meland, K. Inèdit)"
        },
        "INFORMACIÓ COMPLEMENTÀRIA": {
            "GbifId": "4108974979",
            "Image_urls": null,
            "Pertany_A": "Crustacis_cumacis"
        },
        "SITUACIÓ": {
            "UICN GBIF": "NE"
        },
        "TAXONOMIA": {
            "Classe": "Malacostraca",
            "Espècie": "Hemilamprops cristatus",
            "Família": "Lampropidae",
            "Regne": "Metazoa",
            "TaxId": "2546685",
            "Fílum": "Arthropoda",
            "Ordre": "Cumacea"
        },
        "ORIGEN I ENDEMISME": {
            "Origen i Endemisme": "Autòctona"
        },
        "NOM DE L'AUTOR": {
            "Autor": "Sars, 1870"
        }
    },
    {
        "ESTUDIS": {
            "Estudis moleculars": null
        },
        "INFORMACIÓ COMPLEMENTÀRIA": {
            "GbifId": null,
            "Image_urls": null,
            "Pertany_A": "Crustacis_cumacis"
        },
        "SITUACIÓ": {
            "UICN GBIF": null
        },
        "TAXONOMIA": {
            "Classe": "Malacostraca",
            "Espècie": "Iphinoe acutirostris",
            "Família": "Bodotriidae",
            "Regne": "Metazoa",
            "TaxId": null,
            "Fílum": "Arthropoda",
            "Ordre": "Cumacea"
        },
        "ORIGEN I ENDEMISME": {
            "Origen i Endemisme": "Autòctona"
        },
        "NOM DE L'AUTOR": {
            "Autor": "Ledoyer, 1965"
        }
    },
    {
        "ESTUDIS": {
            "Estudis moleculars": null
        },
        "INFORMACIÓ COMPLEMENTÀRIA": {
            "GbifId": null,
            "Image_urls": null,
            "Pertany_A": "Crustacis_cumacis"
        },
        "SITUACIÓ": {
            "UICN GBIF": null
        },
        "TAXONOMIA": {
            "Classe": "Malacostraca",
            "Espècie": "Iphinoe armata",
            "Família": "Bodotriidae",
            "Regne": "Metazoa",
            "TaxId": null,
            "Fílum": "Arthropoda",
            "Ordre": "Cumacea"
        },
        "ORIGEN I ENDEMISME": {
            "Origen i Endemisme": "Autòctona"
        },
        "NOM DE L'AUTOR": {
            "Autor": "Ledoyer, 1965"
        }
    },
    {
        "ESTUDIS": {
            "Estudis moleculars": null
        },
        "INFORMACIÓ COMPLEMENTÀRIA": {
            "GbifId": "1836923486",
            "Image_urls": null,
            "Pertany_A": "Crustacis_cumacis"
        },
        "SITUACIÓ": {
            "UICN GBIF": "NE"
        },
        "TAXONOMIA": {
            "Classe": "Malacostraca",
            "Espècie": "Iphinoe crassipes",
            "Família": "Bodotriidae",
            "Regne": "Metazoa",
            "TaxId": null,
            "Fílum": "Arthropoda",
            "Ordre": "Cumacea"
        },
        "ORIGEN I ENDEMISME": {
            "Origen i Endemisme": "Alòctona"
        },
        "NOM DE L'AUTOR": {
            "Autor": "Hansen, 1895"
        }
    },
    {
        "ESTUDIS": {
            "Estudis moleculars": null
        },
        "INFORMACIÓ COMPLEMENTÀRIA": {
            "GbifId": "1321083580",
            "Image_urls": null,
            "Pertany_A": "Crustacis_cumacis"
        },
        "SITUACIÓ": {
            "UICN GBIF": "NE"
        },
        "TAXONOMIA": {
            "Classe": "Malacostraca",
            "Espècie": "Iphinoe douniae",
            "Família": "Bodotriidae",
            "Regne": "Metazoa",
            "TaxId": null,
            "Fílum": "Arthropoda",
            "Ordre": "Cumacea"
        },
        "ORIGEN I ENDEMISME": {
            "Origen i Endemisme": "Autòctona"
        },
        "NOM DE L'AUTOR": {
            "Autor": "Ledoyer, 1965"
        }
    },
    {
        "ESTUDIS": {
            "Estudis moleculars": null
        },
        "INFORMACIÓ COMPLEMENTÀRIA": {
            "GbifId": "3481476561",
            "Image_urls": null,
            "Pertany_A": "Crustacis_cumacis"
        },
        "SITUACIÓ": {
            "UICN GBIF": "NE"
        },
        "TAXONOMIA": {
            "Classe": "Malacostraca",
            "Espècie": "Iphinoe inermis",
            "Família": "Bodotriidae",
            "Regne": "Metazoa",
            "TaxId": null,
            "Fílum": "Arthropoda",
            "Ordre": "Cumacea"
        },
        "ORIGEN I ENDEMISME": {
            "Origen i Endemisme": "Autòctona"
        },
        "NOM DE L'AUTOR": {
            "Autor": "Sars, 1878"
        }
    },
    {
        "ESTUDIS": {
            "Estudis moleculars": null
        },
        "INFORMACIÓ COMPLEMENTÀRIA": {
            "GbifId": null,
            "Image_urls": null,
            "Pertany_A": "Crustacis_cumacis"
        },
        "SITUACIÓ": {
            "UICN GBIF": null
        },
        "TAXONOMIA": {
            "Classe": "Malacostraca",
            "Espècie": "Iphinoe maculata",
            "Família": "Bodotriidae",
            "Regne": "Metazoa",
            "TaxId": null,
            "Fílum": "Arthropoda",
            "Ordre": "Cumacea"
        },
        "ORIGEN I ENDEMISME": {
            "Origen i Endemisme": "Autòctona"
        },
        "NOM DE L'AUTOR": {
            "Autor": "Ledoyer, 1965"
        }
    },
    {
        "ESTUDIS": {
            "Estudis moleculars": null
        },
        "INFORMACIÓ COMPLEMENTÀRIA": {
            "GbifId": null,
            "Image_urls": null,
            "Pertany_A": "Crustacis_cumacis"
        },
        "SITUACIÓ": {
            "UICN GBIF": null
        },
        "TAXONOMIA": {
            "Classe": "Malacostraca",
            "Espècie": "Iphinoe rhodaniensis",
            "Família": "Bodotriidae",
            "Regne": "Metazoa",
            "TaxId": null,
            "Fílum": "Arthropoda",
            "Ordre": "Cumacea"
        },
        "ORIGEN I ENDEMISME": {
            "Origen i Endemisme": "Autòctona"
        },
        "NOM DE L'AUTOR": {
            "Autor": "Ledoyer, 1965"
        }
    },
    {
        "ESTUDIS": {
            "Estudis moleculars": "rRNA (Glenner, H.; Gerken, S.; Meland, K. Inèdit)"
        },
        "INFORMACIÓ COMPLEMENTÀRIA": {
            "GbifId": "3989596302",
            "Image_urls": null,
            "Pertany_A": "Crustacis_cumacis"
        },
        "SITUACIÓ": {
            "UICN GBIF": "NE"
        },
        "TAXONOMIA": {
            "Classe": "Malacostraca",
            "Espècie": "Iphinoe serrata",
            "Família": "Bodotriidae",
            "Regne": "Metazoa",
            "TaxId": "1818032",
            "Fílum": "Arthropoda",
            "Ordre": "Cumacea"
        },
        "ORIGEN I ENDEMISME": {
            "Origen i Endemisme": "Autòctona"
        },
        "NOM DE L'AUTOR": {
            "Autor": "Norman, 1867"
        }
    },
    {
        "ESTUDIS": {
            "Estudis moleculars": null
        },
        "INFORMACIÓ COMPLEMENTÀRIA": {
            "GbifId": "3960477363",
            "Image_urls": [
                "https://static.wixstatic.com/media/1a6385_a5a136f717be49f39b4525c43d38927a~mv2.png/v1/fill/w_602,h_444,al_c,q_85,usm_0.66_1.00_0.01,enc_auto/IMG_1887(5).png"
            ],
            "Pertany_A": "Crustacis_cumacis"
        },
        "SITUACIÓ": {
            "UICN GBIF": "NE"
        },
        "TAXONOMIA": {
            "Classe": "Malacostraca",
            "Espècie": "Iphinoe tenella",
            "Família": "Bodotriidae",
            "Regne": "Metazoa",
            "TaxId": null,
            "Fílum": "Arthropoda",
            "Ordre": "Cumacea"
        },
        "ORIGEN I ENDEMISME": {
            "Origen i Endemisme": "Autòctona"
        },
        "NOM DE L'AUTOR": {
            "Autor": "Sars, 1878"
        }
    },
    {
        "ESTUDIS": {
            "Estudis moleculars": null
        },
        "INFORMACIÓ COMPLEMENTÀRIA": {
            "GbifId": "3913952509",
            "Image_urls": null,
            "Pertany_A": "Crustacis_cumacis"
        },
        "SITUACIÓ": {
            "UICN GBIF": "NE"
        },
        "TAXONOMIA": {
            "Classe": "Malacostraca",
            "Espècie": "Leucon (Crymoleucon) macrorhinus",
            "Família": "Leuconidae",
            "Regne": "Metazoa",
            "TaxId": null,
            "Fílum": "Arthropoda",
            "Ordre": "Cumacea"
        },
        "ORIGEN I ENDEMISME": {
            "Origen i Endemisme": "Autòctona"
        },
        "NOM DE L'AUTOR": {
            "Autor": "Fage, 1951"
        }
    },
    {
        "ESTUDIS": {
            "Estudis moleculars": null
        },
        "INFORMACIÓ COMPLEMENTÀRIA": {
            "GbifId": "191980927",
            "Image_urls": null,
            "Pertany_A": "Crustacis_cumacis"
        },
        "SITUACIÓ": {
            "UICN GBIF": "NE"
        },
        "TAXONOMIA": {
            "Classe": "Malacostraca",
            "Espècie": "Leucon (Epileucon) ensis",
            "Família": "Leuconidae",
            "Regne": "Metazoa",
            "TaxId": null,
            "Fílum": "Arthropoda",
            "Ordre": "Cumacea"
        },
        "ORIGEN I ENDEMISME": {
            "Origen i Endemisme": "Autòctona"
        },
        "NOM DE L'AUTOR": {
            "Autor": "Bishop, 1981"
        }
    },
    {
        "ESTUDIS": {
            "Estudis moleculars": null
        },
        "INFORMACIÓ COMPLEMENTÀRIA": {
            "GbifId": "3913955383",
            "Image_urls": null,
            "Pertany_A": "Crustacis_cumacis"
        },
        "SITUACIÓ": {
            "UICN GBIF": "NE"
        },
        "TAXONOMIA": {
            "Classe": "Malacostraca",
            "Espècie": "Leucon (Epileucon) longirostris",
            "Família": "Leuconidae",
            "Regne": "Metazoa",
            "TaxId": null,
            "Fílum": "Arthropoda",
            "Ordre": "Cumacea"
        },
        "ORIGEN I ENDEMISME": {
            "Origen i Endemisme": "Autòctona"
        },
        "NOM DE L'AUTOR": {
            "Autor": "Sars. 1871"
        }
    },
    {
        "ESTUDIS": {
            "Estudis moleculars": null
        },
        "INFORMACIÓ COMPLEMENTÀRIA": {
            "GbifId": "3481716314",
            "Image_urls": null,
            "Pertany_A": "Crustacis_cumacis"
        },
        "SITUACIÓ": {
            "UICN GBIF": "NE"
        },
        "TAXONOMIA": {
            "Classe": "Malacostraca",
            "Espècie": "Leucon (Leucon) affinis",
            "Família": "Leuconidae",
            "Regne": "Metazoa",
            "TaxId": null,
            "Fílum": "Arthropoda",
            "Ordre": "Cumacea"
        },
        "ORIGEN I ENDEMISME": {
            "Origen i Endemisme": "Autòctona"
        },
        "NOM DE L'AUTOR": {
            "Autor": "Fage, 1951"
        }
    },
    {
        "ESTUDIS": {
            "Estudis moleculars": null
        },
        "INFORMACIÓ COMPLEMENTÀRIA": {
            "GbifId": "3480974080",
            "Image_urls": null,
            "Pertany_A": "Crustacis_cumacis"
        },
        "SITUACIÓ": {
            "UICN GBIF": "NE"
        },
        "TAXONOMIA": {
            "Classe": "Malacostraca",
            "Espècie": "Leucon (Leucon) mediterraneus",
            "Família": "Leuconidae",
            "Regne": "Metazoa",
            "TaxId": null,
            "Fílum": "Arthropoda",
            "Ordre": "Cumacea"
        },
        "ORIGEN I ENDEMISME": {
            "Origen i Endemisme": "Autòctona"
        },
        "NOM DE L'AUTOR": {
            "Autor": "Sars. 1879"
        }
    },
    {
        "ESTUDIS": {
            "Estudis moleculars": null
        },
        "INFORMACIÓ COMPLEMENTÀRIA": {
            "GbifId": "3913944983",
            "Image_urls": null,
            "Pertany_A": "Crustacis_cumacis"
        },
        "SITUACIÓ": {
            "UICN GBIF": "NE"
        },
        "TAXONOMIA": {
            "Classe": "Malacostraca",
            "Espècie": "Leucon (Macrauloleucon) siphonatus",
            "Família": "Leuconidae",
            "Regne": "Metazoa",
            "TaxId": null,
            "Fílum": "Arthropoda",
            "Ordre": "Cumacea"
        },
        "ORIGEN I ENDEMISME": {
            "Origen i Endemisme": "Autòctona"
        },
        "NOM DE L'AUTOR": {
            "Autor": "Calman, 1905"
        }
    },
    {
        "ESTUDIS": {
            "Estudis moleculars": null
        },
        "INFORMACIÓ COMPLEMENTÀRIA": {
            "GbifId": "201118539",
            "Image_urls": null,
            "Pertany_A": "Crustacis_cumacis"
        },
        "SITUACIÓ": {
            "UICN GBIF": "NE"
        },
        "TAXONOMIA": {
            "Classe": "Malacostraca",
            "Espècie": "Makrokylindrus (Adiastylis) insignis",
            "Família": "Diastylidae",
            "Regne": "Metazoa",
            "TaxId": null,
            "Fílum": "Arthropoda",
            "Ordre": "Cumacea"
        },
        "ORIGEN I ENDEMISME": {
            "Origen i Endemisme": "Autòctona"
        },
        "NOM DE L'AUTOR": {
            "Autor": "Sars, 1871"
        }
    },
    {
        "ESTUDIS": {
            "Estudis moleculars": null
        },
        "INFORMACIÓ COMPLEMENTÀRIA": {
            "GbifId": "3481676062",
            "Image_urls": [
                "https://data.nhm.ac.uk/media/f15aeaaa-02bb-4d08-898e-6661983292c2"
            ],
            "Pertany_A": "Crustacis_cumacis"
        },
        "SITUACIÓ": {
            "UICN GBIF": "NE"
        },
        "TAXONOMIA": {
            "Classe": "Malacostraca",
            "Espècie": "Makrokylindrus (Adiastylis) longipes",
            "Família": "Diastylidae",
            "Regne": "Metazoa",
            "TaxId": null,
            "Fílum": "Arthropoda",
            "Ordre": "Cumacea"
        },
        "ORIGEN I ENDEMISME": {
            "Origen i Endemisme": "Autòctona"
        },
        "NOM DE L'AUTOR": {
            "Autor": "Sars, 1871"
        }
    },
    {
        "ESTUDIS": {
            "Estudis moleculars": null
        },
        "INFORMACIÓ COMPLEMENTÀRIA": {
            "GbifId": null,
            "Image_urls": null,
            "Pertany_A": "Crustacis_cumacis"
        },
        "SITUACIÓ": {
            "UICN GBIF": null
        },
        "TAXONOMIA": {
            "Classe": "Malacostraca",
            "Espècie": "Makrokylindrus (Makrokylindrus) stebbingi",
            "Família": "Diastylidae",
            "Regne": "Metazoa",
            "TaxId": null,
            "Fílum": "Arthropoda",
            "Ordre": "Cumacea"
        },
        "ORIGEN I ENDEMISME": {
            "Origen i Endemisme": "Autòctona"
        },
        "NOM DE L'AUTOR": {
            "Autor": "Stephensen, 1915"
        }
    },
    {
        "ESTUDIS": {
            "Estudis moleculars": null
        },
        "INFORMACIÓ COMPLEMENTÀRIA": {
            "GbifId": null,
            "Image_urls": null,
            "Pertany_A": "Crustacis_cumacis"
        },
        "SITUACIÓ": {
            "UICN GBIF": null
        },
        "TAXONOMIA": {
            "Classe": "Malacostraca",
            "Espècie": "Nannastacus ungiculatus",
            "Família": "Nannastacidae",
            "Regne": "Metazoa",
            "TaxId": null,
            "Fílum": "Arthropoda",
            "Ordre": "Cumacea"
        },
        "ORIGEN I ENDEMISME": {
            "Origen i Endemisme": "Autòctona"
        },
        "NOM DE L'AUTOR": {
            "Autor": "Sars, 1879"
        }
    },
    {
        "ESTUDIS": {
            "Estudis moleculars": null
        },
        "INFORMACIÓ COMPLEMENTÀRIA": {
            "GbifId": "3989804919",
            "Image_urls": null,
            "Pertany_A": "Crustacis_cumacis"
        },
        "SITUACIÓ": {
            "UICN GBIF": "NE"
        },
        "TAXONOMIA": {
            "Classe": "Malacostraca",
            "Espècie": "Platysympus typicus",
            "Família": "Lampropidae",
            "Regne": "Metazoa",
            "TaxId": "2883872",
            "Fílum": "Arthropoda",
            "Ordre": "Cumacea"
        },
        "ORIGEN I ENDEMISME": {
            "Origen i Endemisme": "Autòctona"
        },
        "NOM DE L'AUTOR": {
            "Autor": "Sars, 1870"
        }
    },
    {
        "ESTUDIS": {
            "Estudis moleculars": null
        },
        "INFORMACIÓ COMPLEMENTÀRIA": {
            "GbifId": "2623220126",
            "Image_urls": null,
            "Pertany_A": "Crustacis_cumacis"
        },
        "SITUACIÓ": {
            "UICN GBIF": "NE"
        },
        "TAXONOMIA": {
            "Classe": "Malacostraca",
            "Espècie": "Procampylaspis armata",
            "Família": "Nannastacidae",
            "Regne": "Metazoa",
            "TaxId": null,
            "Fílum": "Arthropoda",
            "Ordre": "Cumacea"
        },
        "ORIGEN I ENDEMISME": {
            "Origen i Endemisme": "Autòctona"
        },
        "NOM DE L'AUTOR": {
            "Autor": "Bonnier, 1896"
        }
    },
    {
        "ESTUDIS": {
            "Estudis moleculars": null
        },
        "INFORMACIÓ COMPLEMENTÀRIA": {
            "GbifId": "201123441",
            "Image_urls": null,
            "Pertany_A": "Crustacis_cumacis"
        },
        "SITUACIÓ": {
            "UICN GBIF": "NE"
        },
        "TAXONOMIA": {
            "Classe": "Malacostraca",
            "Espècie": "Procampylaspis bacescoi",
            "Família": "Nannastacidae",
            "Regne": "Metazoa",
            "TaxId": null,
            "Fílum": "Arthropoda",
            "Ordre": "Cumacea"
        },
        "ORIGEN I ENDEMISME": {
            "Origen i Endemisme": "Autòctona"
        },
        "NOM DE L'AUTOR": {
            "Autor": "Reyss and Soyer, 1966"
        }
    },
    {
        "ESTUDIS": {
            "Estudis moleculars": null
        },
        "INFORMACIÓ COMPLEMENTÀRIA": {
            "GbifId": "3481345681",
            "Image_urls": [
                "https://data.nhm.ac.uk/media/0c857807-51db-4794-81a9-ffe49163b91e"
            ],
            "Pertany_A": "Crustacis_cumacis"
        },
        "SITUACIÓ": {
            "UICN GBIF": "NE"
        },
        "TAXONOMIA": {
            "Classe": "Malacostraca",
            "Espècie": "Pseudocuma ciliatum",
            "Família": "Pseudocumatidae",
            "Regne": "Metazoa",
            "TaxId": null,
            "Fílum": "Arthropoda",
            "Ordre": "Cumacea"
        },
        "ORIGEN I ENDEMISME": {
            "Origen i Endemisme": "Autòctona"
        },
        "NOM DE L'AUTOR": {
            "Autor": "Sars, 1879"
        }
    },
    {
        "ESTUDIS": {
            "Estudis moleculars": null
        },
        "INFORMACIÓ COMPLEMENTÀRIA": {
            "GbifId": "4109118595",
            "Image_urls": null,
            "Pertany_A": "Crustacis_cumacis"
        },
        "SITUACIÓ": {
            "UICN GBIF": "NE"
        },
        "TAXONOMIA": {
            "Classe": "Malacostraca",
            "Espècie": "Pseudocuma longicorne",
            "Família": "Pseudocumatidae",
            "Regne": "Metazoa",
            "TaxId": null,
            "Fílum": "Arthropoda",
            "Ordre": "Cumacea"
        },
        "ORIGEN I ENDEMISME": {
            "Origen i Endemisme": "Autòctona"
        },
        "NOM DE L'AUTOR": {
            "Autor": "Bate, 1858"
        }
    },
    {
        "ESTUDIS": {
            "Estudis moleculars": "COI, (2) Haye, P. A., Kornfield, I.; Watling, L. (2004). «Molecular insights into Cumacean family relationships (Crustacea, Cumacea)». Molecular Phylogenetics and Evolution, 30 (3) Mohrbeck, I.; Raupach, M. J.; Martínez Arbizu, P.; Knebelsberger, T.; Laakmann, S. (2015). «High-throughput sequencing-the key to rapid biodiversity assessment of marine metazoa?». PLoS One10 (10): e0140342. DOI: 10.1371/journal.pone.0140342, p. 798–809. DOI: 10.1016/j.ympev.2003.08.003; rRNA, (3) Mohrbeck, I.; Raupach, M. J.; Martínez Arbizu, P.; Knebelsberger, T.; Laakmann, S. (2015). «High-throughput sequencing-the key to rapid biodiversity assessment of marine metazoa?». PLoS One10 (10): e0140342. DOI: 10.1371/journal.pone.0140342"
        },
        "INFORMACIÓ COMPLEMENTÀRIA": {
            "GbifId": "3989712310",
            "Image_urls": null,
            "Pertany_A": "Crustacis_cumacis"
        },
        "SITUACIÓ": {
            "UICN GBIF": "NE"
        },
        "TAXONOMIA": {
            "Classe": "Malacostraca",
            "Espècie": "Pseudocuma simile",
            "Família": "Pseudocumatidae",
            "Regne": "Metazoa",
            "TaxId": "1582888",
            "Fílum": "Arthropoda",
            "Ordre": "Cumacea"
        },
        "ORIGEN I ENDEMISME": {
            "Origen i Endemisme": "Autòctona"
        },
        "NOM DE L'AUTOR": {
            "Autor": "Sars, 1900"
        }
    },
    {
        "ESTUDIS": {
            "Estudis moleculars": null
        },
        "INFORMACIÓ COMPLEMENTÀRIA": {
            "GbifId": "1313793841",
            "Image_urls": null,
            "Pertany_A": "Crustacis_cumacis"
        },
        "SITUACIÓ": {
            "UICN GBIF": "NE"
        },
        "TAXONOMIA": {
            "Classe": "Malacostraca",
            "Espècie": "Scherocumella longirostris",
            "Família": "Nannastacidae",
            "Regne": "Metazoa",
            "TaxId": null,
            "Fílum": "Arthropoda",
            "Ordre": "Cumacea"
        },
        "ORIGEN I ENDEMISME": {
            "Origen i Endemisme": "Autòctona"
        },
        "NOM DE L'AUTOR": {
            "Autor": "Sars, 1879"
        }
    },
    {
        "ESTUDIS": {
            "Estudis moleculars": null
        },
        "INFORMACIÓ COMPLEMENTÀRIA": {
            "GbifId": "203584358",
            "Image_urls": null,
            "Pertany_A": "Crustacis_cumacis"
        },
        "SITUACIÓ": {
            "UICN GBIF": "NE"
        },
        "TAXONOMIA": {
            "Classe": "Malacostraca",
            "Espècie": "Schizocuma spinoculatum",
            "Família": "Nannastacidae",
            "Regne": "Metazoa",
            "TaxId": null,
            "Fílum": "Arthropoda",
            "Ordre": "Cumacea"
        },
        "ORIGEN I ENDEMISME": {
            "Origen i Endemisme": "Autòctona"
        },
        "NOM DE L'AUTOR": {
            "Autor": "Jones, 1984"
        }
    },
    {
        "ESTUDIS": {
            "Estudis moleculars": null
        },
        "INFORMACIÓ COMPLEMENTÀRIA": {
            "GbifId": "3913953450",
            "Image_urls": null,
            "Pertany_A": "Crustacis_cumacis"
        },
        "SITUACIÓ": {
            "UICN GBIF": "NE"
        },
        "TAXONOMIA": {
            "Classe": "Malacostraca",
            "Espècie": "Styloptocuma gracillimum",
            "Família": "Nannastacidae",
            "Regne": "Metazoa",
            "TaxId": null,
            "Fílum": "Arthropoda",
            "Ordre": "Cumacea"
        },
        "ORIGEN I ENDEMISME": {
            "Origen i Endemisme": "Autòctona"
        },
        "NOM DE L'AUTOR": {
            "Autor": "Calman, 1905"
        }
    },
    {
        "ESTUDIS": {
            "Estudis moleculars": "COI (Haye and Kornfield. Inèdit)"
        },
        "INFORMACIÓ COMPLEMENTÀRIA": {
            "GbifId": "2916975595",
            "Image_urls": null,
            "Pertany_A": "Crustacis_cumacis"
        },
        "SITUACIÓ": {
            "UICN GBIF": "NE"
        },
        "TAXONOMIA": {
            "Classe": "Malacostraca",
            "Espècie": "Vaunthompsonia cristata",
            "Família": "Bodotriidae",
            "Regne": "Metazoa",
            "TaxId": "156642",
            "Fílum": "Arthropoda",
            "Ordre": "Cumacea"
        },
        "ORIGEN I ENDEMISME": {
            "Origen i Endemisme": "Autòctona"
        },
        "NOM DE L'AUTOR": {
            "Autor": "Bate, 1858"
        }
    },
    {
        "ESTUDIS": {
            "Estudis moleculars": null
        },
        "INFORMACIÓ COMPLEMENTÀRIA": {
            "GbifId": "201125771",
            "Image_urls": [
                "https://data.nhm.ac.uk/media/90163c6f-8ab4-4c42-b8ee-012a51542ad1",
                "https://data.nhm.ac.uk/media/90163c6f-8ab4-4c42-b8ee-012a51542ad1",
                "https://data.nhm.ac.uk/media/90163c6f-8ab4-4c42-b8ee-012a51542ad1",
                "https://data.nhm.ac.uk/media/90163c6f-8ab4-4c42-b8ee-012a51542ad1"
            ],
            "Pertany_A": "Crustacis_cumacis"
        },
        "SITUACIÓ": {
            "UICN GBIF": "NE"
        },
        "TAXONOMIA": {
            "Classe": "Malacostraca",
            "Espècie": "Vemakylindrus hastatus",
            "Família": "Diastylidae",
            "Regne": "Metazoa",
            "TaxId": null,
            "Fílum": "Arthropoda",
            "Ordre": "Cumacea"
        },
        "ORIGEN I ENDEMISME": {
            "Origen i Endemisme": "Autòctona"
        },
        "NOM DE L'AUTOR": {
            "Autor": "Hansen, 1920"
        }
    }
]