[
    {
        "INFORMACIÓ COMPLEMENTÀRIA": {
            "Pertany_A": "Dipters_bibionids",
            "GbifId": "4080474515",
            "Image_urls": [
                "https://inaturalist-open-data.s3.amazonaws.com/photos/366065199/medium.jpeg",
                "https://inaturalist-open-data.s3.amazonaws.com/photos/367858666/medium.jpeg",
                "https://inaturalist-open-data.s3.amazonaws.com/photos/368936244/medium.jpeg",
                "https://inaturalist-open-data.s3.amazonaws.com/photos/375062299/medium.jpg",
                "https://inaturalist-open-data.s3.amazonaws.com/photos/375063611/medium.jpg"
            ]
        },
        "SITUACIÓ": {
            "UICN GBIF": "NE"
        },
        "TAXONOMIA": {
            "Espècie": "Bibio anglicus",
            "Família": "Bibionidae",
            "TaxId": null,
            "Classe": "Insecta",
            "Regne": "Metazoa",
            "Fílum": "Arthropoda",
            "Ordre": "Diptera"
        },
        "NOM DE L'AUTOR": {
            "Autor": "Verrall, 1869"
        }
    },
    {
        "INFORMACIÓ COMPLEMENTÀRIA": {
            "Pertany_A": "Dipters_bibionids",
            "GbifId": "4438662623",
            "Image_urls": [
                "https://inaturalist-open-data.s3.amazonaws.com/photos/352779320/medium.jpeg",
                "https://inaturalist-open-data.s3.amazonaws.com/photos/357221072/medium.jpeg",
                "https://inaturalist-open-data.s3.amazonaws.com/photos/357922535/medium.jpeg",
                "https://inaturalist-open-data.s3.amazonaws.com/photos/358819470/medium.jpeg",
                "https://inaturalist-open-data.s3.amazonaws.com/photos/359515844/medium.jpg",
                "https://inaturalist-open-data.s3.amazonaws.com/photos/360748643/medium.jpg",
                "https://inaturalist-open-data.s3.amazonaws.com/photos/361219819/medium.jpeg",
                "https://inaturalist-open-data.s3.amazonaws.com/photos/361946346/medium.jpeg",
                "https://inaturalist-open-data.s3.amazonaws.com/photos/362555063/medium.jpg",
                "https://inaturalist-open-data.s3.amazonaws.com/photos/363858699/medium.jpeg",
                "https://inaturalist-open-data.s3.amazonaws.com/photos/364363075/medium.jpg",
                "https://inaturalist-open-data.s3.amazonaws.com/photos/365089321/medium.jpeg"
            ]
        },
        "SITUACIÓ": {
            "UICN GBIF": "NE"
        },
        "TAXONOMIA": {
            "Espècie": "Bibio hortulanus",
            "Família": "Bibionidae",
            "TaxId": null,
            "Classe": "Insecta",
            "Regne": "Metazoa",
            "Fílum": "Arthropoda",
            "Ordre": "Diptera"
        },
        "NOM DE L'AUTOR": {
            "Autor": "Linaeus, 1758"
        }
    },
    {
        "INFORMACIÓ COMPLEMENTÀRIA": {
            "Pertany_A": "Dipters_bibionids",
            "GbifId": "4421089509",
            "Image_urls": [
                "https://observation.org/photos/85076564.jpg",
                "https://observation.org/photos/85596073.jpg",
                "https://observation.org/photos/85597731.jpg",
                "https://observation.org/photos/85597823.jpg",
                "https://observation.org/photos/85636822.jpg",
                "https://observation.org/photos/85636821.jpg",
                "https://observation.org/photos/85670352.jpg",
                "https://observation.org/photos/85710806.jpg",
                "https://observation.org/photos/85710807.jpg",
                "https://observation.org/photos/85710805.jpg"
            ]
        },
        "SITUACIÓ": {
            "UICN GBIF": "NE"
        },
        "TAXONOMIA": {
            "Espècie": "Bibio johannis",
            "Família": "Bibionidae",
            "TaxId": "2870496",
            "Classe": "Insecta",
            "Regne": "Metazoa",
            "Fílum": "Arthropoda",
            "Ordre": "Diptera"
        },
        "NOM DE L'AUTOR": {
            "Autor": "Linnaeus, 1767"
        }
    },
    {
        "INFORMACIÓ COMPLEMENTÀRIA": {
            "Pertany_A": "Dipters_bibionids",
            "GbifId": "4156207279",
            "Image_urls": [
                "https://observation.org/photos/85701699.jpg",
                "https://observation.org/photos/85742406.jpg",
                "https://observation.org/photos/85742407.jpg",
                "https://observation.org/photos/85742426.jpg",
                "https://observation.org/photos/85745615.jpg",
                "https://observation.org/photos/85756851.jpg",
                "https://observation.org/photos/85774059.jpg",
                "https://observation.org/photos/85774060.jpg",
                "https://observation.org/photos/85774132.jpg",
                "https://inaturalist-open-data.s3.amazonaws.com/photos/363626566/medium.jpg",
                "https://inaturalist-open-data.s3.amazonaws.com/photos/364739135/medium.jpeg",
                "https://inaturalist-open-data.s3.amazonaws.com/photos/365970226/medium.jpeg",
                "https://inaturalist-open-data.s3.amazonaws.com/photos/366324456/medium.jpeg"
            ]
        },
        "SITUACIÓ": {
            "UICN GBIF": "NE"
        },
        "TAXONOMIA": {
            "Espècie": "Bibio lanigerus",
            "Família": "Bibionidae",
            "TaxId": null,
            "Classe": "Insecta",
            "Regne": "Metazoa",
            "Fílum": "Arthropoda",
            "Ordre": "Diptera"
        },
        "NOM DE L'AUTOR": {
            "Autor": "Meigen, 1818"
        }
    },
    {
        "INFORMACIÓ COMPLEMENTÀRIA": {
            "Pertany_A": "Dipters_bibionids",
            "GbifId": null,
            "Image_urls": [
                "https://upload.wikimedia.org/wikipedia/commons/thumb/3/39/Bibio.leucopterus.-.lindsey.jpg/271px-Bibio.leucopterus.-.lindsey.jpg",
                "https://upload.wikimedia.org/wikipedia/commons/thumb/7/72/Bibio_leucopterus_%28White-winged_Bibio%29_-_male.jpg/174px-Bibio_leucopterus_%28White-winged_Bibio%29_-_male.jpg",
                "https://upload.wikimedia.org/wikipedia/commons/thumb/5/56/Bibio_leucopterus_%28Bibionidae%29_-_%28male_imago%29%2C_Elst_%28Gld%29%2C_the_Netherlands.jpg/240px-Bibio_leucopterus_%28Bibionidae%29_-_%28male_imago%29%2C_Elst_%28Gld%29%2C_the_Netherlands.jpg",
                "https://upload.wikimedia.org/wikipedia/commons/thumb/d/d0/2013-05-14_14-59-50-Bibio-marci.JPG/173px-2013-05-14_14-59-50-Bibio-marci.JPG",
                "https://upload.wikimedia.org/wikipedia/commons/thumb/7/76/2013-05-14_15-00-41-Bibio-marci.JPG/158px-2013-05-14_15-00-41-Bibio-marci.JPG",
                "https://upload.wikimedia.org/wikipedia/commons/thumb/f/fd/Bibio.leucopterus2.-.lindsey.jpg/271px-Bibio.leucopterus2.-.lindsey.jpg",
                "https://upload.wikimedia.org/wikipedia/commons/thumb/9/97/Bibio.leucopterus3.-.lindsey.jpg/271px-Bibio.leucopterus3.-.lindsey.jpg",
                "https://upload.wikimedia.org/wikipedia/commons/thumb/1/15/Bibio.lanigerus2.-.lindsey.jpg/270px-Bibio.lanigerus2.-.lindsey.jpg"
            ]
        },
        "SITUACIÓ": {
            "UICN GBIF": null
        },
        "TAXONOMIA": {
            "Espècie": "Bibio leucopterus",
            "Família": "Bibionidae",
            "TaxId": null,
            "Classe": "Insecta",
            "Regne": "Metazoa",
            "Fílum": "Arthropoda",
            "Ordre": "Diptera"
        },
        "NOM DE L'AUTOR": {
            "Autor": "Meigen, 1804"
        }
    },
    {
        "INFORMACIÓ COMPLEMENTÀRIA": {
            "Pertany_A": "Dipters_bibionids",
            "GbifId": "4075677297",
            "Image_urls": [
                "https://inaturalist-open-data.s3.amazonaws.com/photos/360797744/medium.jpg",
                "https://inaturalist-open-data.s3.amazonaws.com/photos/360889535/medium.jpg",
                "https://inaturalist-open-data.s3.amazonaws.com/photos/361091015/medium.jpg",
                "https://inaturalist-open-data.s3.amazonaws.com/photos/361593562/medium.jpg",
                "https://inaturalist-open-data.s3.amazonaws.com/photos/361849440/medium.jpeg",
                "https://inaturalist-open-data.s3.amazonaws.com/photos/361968102/medium.jpg",
                "https://inaturalist-open-data.s3.amazonaws.com/photos/362693889/medium.jpg",
                "https://www.artportalen.se/MediaLibrary/2024/3/dcc4e6db-7a51-4317-aa80-ecd291075ae4_image.jpg"
            ]
        },
        "SITUACIÓ": {
            "UICN GBIF": "NE"
        },
        "TAXONOMIA": {
            "Espècie": "Bibio marci",
            "Família": "Bibionidae",
            "TaxId": "189979",
            "Classe": "Insecta",
            "Regne": "Metazoa",
            "Fílum": "Arthropoda",
            "Ordre": "Diptera"
        },
        "NOM DE L'AUTOR": {
            "Autor": "Linnaeus, 1758"
        }
    },
    {
        "INFORMACIÓ COMPLEMENTÀRIA": {
            "Pertany_A": "Dipters_bibionids",
            "GbifId": "4176705596",
            "Image_urls": [
                "https://inaturalist-open-data.s3.amazonaws.com/photos/375375998/medium.jpeg",
                "https://inaturalist-open-data.s3.amazonaws.com/photos/375375988/medium.jpeg",
                "https://inaturalist-open-data.s3.amazonaws.com/photos/376195699/medium.jpeg",
                "https://inaturalist-open-data.s3.amazonaws.com/photos/387854151/medium.jpeg",
                "https://inaturalist-open-data.s3.amazonaws.com/photos/406429420/medium.jpeg",
                "https://inaturalist-open-data.s3.amazonaws.com/photos/397734837/medium.jpeg",
                "https://inaturalist-open-data.s3.amazonaws.com/photos/406453512/medium.jpeg",
                "https://inaturalist-open-data.s3.amazonaws.com/photos/406893494/medium.jpeg",
                "https://inaturalist-open-data.s3.amazonaws.com/photos/407796380/medium.jpeg",
                "https://inaturalist-open-data.s3.amazonaws.com/photos/407896127/medium.jpeg"
            ]
        },
        "SITUACIÓ": {
            "UICN GBIF": "NE"
        },
        "TAXONOMIA": {
            "Espècie": "Bibio pomonae",
            "Família": "Bibionidae",
            "TaxId": "2881612",
            "Classe": "Insecta",
            "Regne": "Metazoa",
            "Fílum": "Arthropoda",
            "Ordre": "Diptera"
        },
        "NOM DE L'AUTOR": {
            "Autor": "Fabricius, 1775"
        }
    },
    {
        "INFORMACIÓ COMPLEMENTÀRIA": {
            "Pertany_A": "Dipters_bibionids",
            "GbifId": null,
            "Image_urls": null
        },
        "SITUACIÓ": {
            "UICN GBIF": null
        },
        "TAXONOMIA": {
            "Espècie": "Bibio siculus",
            "Família": "Bibionidae",
            "TaxId": null,
            "Classe": "Insecta",
            "Regne": "Metazoa",
            "Fílum": "Arthropoda",
            "Ordre": "Diptera"
        },
        "NOM DE L'AUTOR": {
            "Autor": "Loew, 1846"
        }
    },
    {
        "INFORMACIÓ COMPLEMENTÀRIA": {
            "Pertany_A": "Dipters_bibionids",
            "GbifId": null,
            "Image_urls": null
        },
        "SITUACIÓ": {
            "UICN GBIF": null
        },
        "TAXONOMIA": {
            "Espècie": "Dilophus andalusiacus",
            "Família": "Bibionidae",
            "TaxId": null,
            "Classe": "Insecta",
            "Regne": "Metazoa",
            "Fílum": "Arthropoda",
            "Ordre": "Diptera"
        },
        "NOM DE L'AUTOR": {
            "Autor": "Strobl, 1900"
        }
    },
    {
        "INFORMACIÓ COMPLEMENTÀRIA": {
            "Pertany_A": "Dipters_bibionids",
            "GbifId": "4076329268",
            "Image_urls": [
                "https://inaturalist-open-data.s3.amazonaws.com/photos/373122111/medium.jpeg",
                "https://inaturalist-open-data.s3.amazonaws.com/photos/373122331/medium.jpeg",
                "https://inaturalist-open-data.s3.amazonaws.com/photos/252691023/medium.jpeg",
                "https://inaturalist-open-data.s3.amazonaws.com/photos/252691082/medium.jpeg",
                "https://inaturalist-open-data.s3.amazonaws.com/photos/194323590/medium.jpeg",
                "https://inaturalist-open-data.s3.amazonaws.com/photos/122176873/medium.jpg",
                "https://inaturalist-open-data.s3.amazonaws.com/photos/63897906/medium.jpeg",
                "https://inaturalist-open-data.s3.amazonaws.com/photos/65128412/medium.jpg",
                "https://inaturalist-open-data.s3.amazonaws.com/photos/65317281/medium.jpeg",
                "https://inaturalist-open-data.s3.amazonaws.com/photos/69239954/medium.jpeg"
            ]
        },
        "SITUACIÓ": {
            "UICN GBIF": "NE"
        },
        "TAXONOMIA": {
            "Espècie": "Dilophus antipedalis",
            "Família": "Bibionidae",
            "TaxId": null,
            "Classe": "Insecta",
            "Regne": "Metazoa",
            "Fílum": "Arthropoda",
            "Ordre": "Diptera"
        },
        "NOM DE L'AUTOR": {
            "Autor": "Meigen, 1818"
        }
    },
    {
        "INFORMACIÓ COMPLEMENTÀRIA": {
            "Pertany_A": "Dipters_bibionids",
            "GbifId": "4416778763",
            "Image_urls": [
                "https://inaturalist-open-data.s3.amazonaws.com/photos/326575867/medium.jpeg",
                "https://inaturalist-open-data.s3.amazonaws.com/photos/319849404/medium.jpeg",
                "https://inaturalist-open-data.s3.amazonaws.com/photos/328509619/medium.jpg",
                "https://inaturalist-open-data.s3.amazonaws.com/photos/224956928/medium.jpeg",
                "https://9.ilstatic.hu/images/2022-01/r1642244429628_xl.jpg",
                "https://inaturalist-open-data.s3.amazonaws.com/photos/161545466/medium.jpeg",
                "https://inaturalist-open-data.s3.amazonaws.com/photos/97101167/medium.jpeg",
                "https://inaturalist-open-data.s3.amazonaws.com/photos/101085703/medium.jpg"
            ]
        },
        "SITUACIÓ": {
            "UICN GBIF": "NE"
        },
        "TAXONOMIA": {
            "Espècie": "Dilophus bispinosus",
            "Família": "Bibionidae",
            "TaxId": null,
            "Classe": "Insecta",
            "Regne": "Metazoa",
            "Fílum": "Arthropoda",
            "Ordre": "Diptera"
        },
        "NOM DE L'AUTOR": {
            "Autor": "Lundström, 1913"
        }
    },
    {
        "INFORMACIÓ COMPLEMENTÀRIA": {
            "Pertany_A": "Dipters_bibionids",
            "GbifId": "4055349788",
            "Image_urls": null
        },
        "SITUACIÓ": {
            "UICN GBIF": "NE"
        },
        "TAXONOMIA": {
            "Espècie": "Dilophus borealis",
            "Família": "Bibionidae",
            "TaxId": null,
            "Classe": "Insecta",
            "Regne": "Metazoa",
            "Fílum": "Arthropoda",
            "Ordre": "Diptera"
        },
        "NOM DE L'AUTOR": {
            "Autor": "Skartveit, 1993"
        }
    },
    {
        "INFORMACIÓ COMPLEMENTÀRIA": {
            "Pertany_A": "Dipters_bibionids",
            "GbifId": "4046395073",
            "Image_urls": [
                "https://observation.org/photos/84499942.jpg",
                "https://observation.org/photos/84503222.jpg",
                "https://observation.org/photos/84505636.jpg",
                "https://observation.org/photos/84505701.jpg",
                "https://inaturalist-open-data.s3.amazonaws.com/photos/354774383/medium.jpeg",
                "https://observation.org/photos/85737016.jpg"
            ]
        },
        "SITUACIÓ": {
            "UICN GBIF": "NE"
        },
        "TAXONOMIA": {
            "Espècie": "Dilophus febrilis",
            "Família": "Bibionidae",
            "TaxId": "52734",
            "Classe": "Insecta",
            "Regne": "Metazoa",
            "Fílum": "Arthropoda",
            "Ordre": "Diptera"
        },
        "NOM DE L'AUTOR": {
            "Autor": "Linnaeus, 1758"
        }
    },
    {
        "INFORMACIÓ COMPLEMENTÀRIA": {
            "Pertany_A": "Dipters_bibionids",
            "GbifId": "3822765030",
            "Image_urls": [
                "https://observation.org/photos/85072185.jpg",
                "https://observation.org/photos/85088369.jpg",
                "https://observation.org/photos/85054424.jpg",
                "https://observation.org/photos/85167953.jpg",
                "https://observation.org/photos/85154173.jpg",
                "https://observation.org/photos/85197709.jpg",
                "https://observation.org/photos/85197710.jpg",
                "https://observation.org/photos/85197708.jpg",
                "https://observation.org/photos/85197809.jpg",
                "https://observation.org/photos/85199285.jpg"
            ]
        },
        "SITUACIÓ": {
            "UICN GBIF": "NE"
        },
        "TAXONOMIA": {
            "Espècie": "Dilophus humeralis",
            "Família": "Bibionidae",
            "TaxId": null,
            "Classe": "Insecta",
            "Regne": "Metazoa",
            "Fílum": "Arthropoda",
            "Ordre": "Diptera"
        },
        "NOM DE L'AUTOR": {
            "Autor": "Zetterstedt, 1850"
        }
    },
    {
        "INFORMACIÓ COMPLEMENTÀRIA": {
            "Pertany_A": "Dipters_bibionids",
            "GbifId": "4148528942",
            "Image_urls": null
        },
        "SITUACIÓ": {
            "UICN GBIF": "NE"
        },
        "TAXONOMIA": {
            "Espècie": "Dilophus minor",
            "Família": "Bibionidae",
            "TaxId": null,
            "Classe": "Insecta",
            "Regne": "Metazoa",
            "Fílum": "Arthropoda",
            "Ordre": "Diptera"
        },
        "NOM DE L'AUTOR": {
            "Autor": "Strobl, 1900"
        }
    }
]