[
    {
        "INFORMACIÓ COMPLEMENTÀRIA": {
            "Pertany_A": "Dipters_pticopterids",
            "GbifId": null,
            "Image_urls": [
                "https://upload.wikimedia.org/wikipedia/commons/thumb/4/44/Ptychoptera_albimana.jpg/232px-Ptychoptera_albimana.jpg",
                "https://upload.wikimedia.org/wikipedia/commons/thumb/2/28/Noordwijk_-_Ptychoptera_albimana_%28female%29.jpg/270px-Noordwijk_-_Ptychoptera_albimana_%28female%29.jpg",
                "https://upload.wikimedia.org/wikipedia/commons/thumb/1/1a/Ptychoptera_albimana%2C_Sontley%2C_North_Wales%2C_May_2015_2_-_Flickr_-_janetgraham84.jpg/295px-Ptychoptera_albimana%2C_Sontley%2C_North_Wales%2C_May_2015_2_-_Flickr_-_janetgraham84.jpg",
                "https://upload.wikimedia.org/wikipedia/commons/thumb/0/0f/Ptychoptera_albimana%2C_Sontley%2C_North_Wales%2C_May_2015_-_Flickr_-_janetgraham84.jpg/141px-Ptychoptera_albimana%2C_Sontley%2C_North_Wales%2C_May_2015_-_Flickr_-_janetgraham84.jpg",
                "https://upload.wikimedia.org/wikipedia/commons/thumb/f/fb/Ptychoptera_albimana_%28Diptera_sp.%29_female%2C_Texel%2C_the_Netherlands_-_2.jpg/241px-Ptychoptera_albimana_%28Diptera_sp.%29_female%2C_Texel%2C_the_Netherlands_-_2.jpg",
                "https://upload.wikimedia.org/wikipedia/commons/thumb/d/de/Ptychoptera_albimana_%28Diptera_sp.%29_female%2C_Texel%2C_the_Netherlands.jpg/241px-Ptychoptera_albimana_%28Diptera_sp.%29_female%2C_Texel%2C_the_Netherlands.jpg"
            ]
        },
        "SITUACIÓ": {
            "UICN GBIF": null
        },
        "TAXONOMIA": {
            "Espècie": "Ptychoptera albimana",
            "Família": "Ptychopteridae",
            "TaxId": "1902997",
            "Classe": "Insecta",
            "Regne": "Metazoa",
            "Fílum": "Arthropoda",
            "Ordre": "Diptera"
        },
        "NOM DE L'AUTOR": {
            "Autor": "Fabricius, 1787"
        }
    },
    {
        "INFORMACIÓ COMPLEMENTÀRIA": {
            "Pertany_A": "Dipters_pticopterids",
            "GbifId": "4121030922",
            "Image_urls": [
                "https://inaturalist-open-data.s3.amazonaws.com/photos/280452258/medium.jpg",
                "https://inaturalist-open-data.s3.amazonaws.com/photos/280449964/medium.jpg",
                "https://inaturalist-open-data.s3.amazonaws.com/photos/280449968/medium.jpg",
                "https://inaturalist-open-data.s3.amazonaws.com/photos/280451870/medium.jpeg",
                "https://inaturalist-open-data.s3.amazonaws.com/photos/280440554/medium.jpeg",
                "https://www.artportalen.se/MediaLibrary/2023/7/8d32dbeb-7224-4982-b0a4-274f3d9487c7_image.jpg",
                "https://observation.org/photos/46711607.jpg",
                "https://observation.org/photos/46711606.jpg",
                "https://observation.org/photos/46711608.jpg",
                "https://observation.org/photos/46711609.jpg",
                "https://observation.org/photos/46711611.jpg",
                "https://observation.org/photos/46711610.jpg",
                "https://observation.org/photos/46711612.jpg",
                "https://www.artportalen.se/MediaLibrary/2022/5/befaea2a-0ce2-4f26-a44c-e05681f9b920_image.jpg",
                "https://www.artportalen.se/MediaLibrary/2022/6/5915ce18-b2f2-4ad8-866f-24226fe00da4_image.jpg",
                "https://www.artportalen.se/MediaLibrary/2022/6/ab0c8755-5dec-4d32-bb8a-057e7814df89_image.jpg",
                "https://www.artportalen.se/MediaLibrary/2022/6/04b87d69-0324-49e4-a171-830e514424a5_image.jpg",
                "https://www.artportalen.se/MediaLibrary/2022/6/39789248-47c1-4fbc-bb6a-a918fd319bb0_image.jpg",
                "https://www.artportalen.se/MediaLibrary/2022/11/1d693bb4-be55-4185-8429-f921d3a44837_image.jpg",
                "https://inaturalist-open-data.s3.amazonaws.com/photos/177020850/medium.jpeg",
                "https://inaturalist-open-data.s3.amazonaws.com/photos/169085132/medium.jpeg",
                "https://inaturalist-open-data.s3.amazonaws.com/photos/130922328/medium.jpeg",
                "https://inaturalist-open-data.s3.amazonaws.com/photos/130922320/medium.jpeg",
                "https://inaturalist-open-data.s3.amazonaws.com/photos/130922348/medium.jpeg",
                "https://inaturalist-open-data.s3.amazonaws.com/photos/130922356/medium.jpeg",
                "https://inaturalist-open-data.s3.amazonaws.com/photos/130922337/medium.jpeg"
            ]
        },
        "SITUACIÓ": {
            "UICN GBIF": "NE"
        },
        "TAXONOMIA": {
            "Espècie": "Ptychoptera lacustris",
            "Família": "Ptychopteridae",
            "TaxId": "1903307",
            "Classe": "Insecta",
            "Regne": "Metazoa",
            "Fílum": "Arthropoda",
            "Ordre": "Diptera"
        },
        "NOM DE L'AUTOR": {
            "Autor": "Meigen, 1830"
        }
    }
]