[
    {
        "INFORMACIÓ COMPLEMENTÀRIA": {
            "Pertany_A": "Dipters_tabanids",
            "GbifId": "4171253644",
            "Image_urls": [
                "https://inaturalist-open-data.s3.amazonaws.com/photos/338048787/medium.jpg",
                "https://inaturalist-open-data.s3.amazonaws.com/photos/338048789/medium.jpg",
                "https://inaturalist-open-data.s3.amazonaws.com/photos/338048780/medium.jpg",
                "https://inaturalist-open-data.s3.amazonaws.com/photos/234136167/medium.jpg",
                "https://inaturalist-open-data.s3.amazonaws.com/photos/176260575/medium.jpg",
                "https://inaturalist-open-data.s3.amazonaws.com/photos/176260573/medium.jpg"
            ]
        },
        "SITUACIÓ": {
            "UICN GBIF": "NE"
        },
        "TAXONOMIA": {
            "Espècie": "Atylotus agrestis",
            "Família": "Tabanidae",
            "TaxId": "1525393",
            "Classe": "Insecta",
            "Regne": "Metazoa",
            "Fílum": "Arthropoda",
            "Ordre": "Diptera"
        },
        "NOM DE L'AUTOR": {
            "Autor": "Wiedemann, 1828"
        }
    },
    {
        "INFORMACIÓ COMPLEMENTÀRIA": {
            "Pertany_A": "Dipters_tabanids",
            "GbifId": "4159115570",
            "Image_urls": [
                "https://www.artportalen.se/MediaLibrary/2024/6/b6ac2328-ea01-4e35-a714-825a24aa3e35_image.jpg",
                "https://inaturalist-open-data.s3.amazonaws.com/photos/294609001/medium.jpeg",
                "https://inaturalist-open-data.s3.amazonaws.com/photos/294608891/medium.jpeg",
                "https://inaturalist-open-data.s3.amazonaws.com/photos/294608954/medium.jpeg",
                "https://observation.org/photos/68321390.jpg",
                "https://observation.org/photos/68321392.jpg",
                "https://observation.org/photos/68321391.jpg",
                "https://observation.org/photos/68886622.jpg",
                "https://observation.org/photos/68962617.jpg",
                "https://observation.org/photos/68962616.jpg",
                "https://observation.org/photos/68967847.jpg",
                "https://observation.org/photos/69588411.jpg",
                "https://observation.org/photos/70511838.jpg",
                "https://www.artportalen.se/MediaLibrary/2023/7/ea0486da-21be-41c0-860c-2c029da078f0_image.jpg"
            ]
        },
        "SITUACIÓ": {
            "UICN GBIF": "NE"
        },
        "TAXONOMIA": {
            "Espècie": "Atylotus fulvus",
            "Família": "Tabanidae",
            "TaxId": "2881594",
            "Classe": "Insecta",
            "Regne": "Metazoa",
            "Fílum": "Arthropoda",
            "Ordre": "Diptera"
        },
        "NOM DE L'AUTOR": {
            "Autor": "Meigen, 1820"
        }
    },
    {
        "INFORMACIÓ COMPLEMENTÀRIA": {
            "Pertany_A": "Dipters_tabanids",
            "GbifId": "4160862335",
            "Image_urls": [
                "https://observation.org/photos/71274578.jpg",
                "https://observation.org/photos/71274579.jpg",
                "https://observation.org/photos/72354057.jpg",
                "https://observation.org/photos/72354058.jpg",
                "https://observation.org/photos/72354059.jpg",
                "https://observation.org/photos/73002880.jpg",
                "https://data.nhm.ac.uk/media/957d46ef-ee76-491f-9635-b7f41143c97d",
                "https://data.nhm.ac.uk/media/64827116-666c-4fb5-9a85-5235164acb59",
                "https://data.nhm.ac.uk/media/c85fd146-64f3-4a86-8966-42ab6b1c11a7",
                "https://data.nhm.ac.uk/media/0de189ad-7f79-4cd0-a679-3b386f4f0a76",
                "https://data.nhm.ac.uk/media/b33d6c1c-a27e-40a5-b28b-84ace50d298f",
                "https://data.nhm.ac.uk/media/09ad79c5-6567-4d06-b936-7c218e9f3d10",
                "https://data.nhm.ac.uk/media/d79b0ae1-eb69-4e49-a344-c94cacd0a352",
                "https://observation.org/photos/55684782.jpg",
                "https://observation.org/photos/54182991.jpg",
                "https://observation.org/photos/54182993.jpg",
                "https://observation.org/photos/54182992.jpg",
                "https://observation.org/photos/55233458.jpg"
            ]
        },
        "SITUACIÓ": {
            "UICN GBIF": "NE"
        },
        "TAXONOMIA": {
            "Espècie": "Atylotus latistriatus",
            "Família": "Tabanidae",
            "TaxId": "3037401",
            "Classe": "Insecta",
            "Regne": "Metazoa",
            "Fílum": "Arthropoda",
            "Ordre": "Diptera"
        },
        "NOM DE L'AUTOR": {
            "Autor": "Brauer, 1880"
        }
    },
    {
        "INFORMACIÓ COMPLEMENTÀRIA": {
            "Pertany_A": "Dipters_tabanids",
            "GbifId": "3389768359",
            "Image_urls": [
                "https://10.ilstatic.hu/images/2024-03/r1709887021650_7472699231.jpg",
                "https://10.ilstatic.hu/images/2024-03/r1709887021650_7472699231.jpg",
                "https://10.ilstatic.hu/images/2024-03/r1709887021650_7472699231.jpg",
                "https://10.ilstatic.hu/images/2024-03/r1709887021650_7472699231.jpg",
                "https://10.ilstatic.hu/images/2024-03/r1709887021650_7472699231.jpg",
                "https://10.ilstatic.hu/images/2024-03/r1709887021650_7472699231.jpg",
                "https://10.ilstatic.hu/images/2024-03/r1709887021650_7472699231.jpg",
                "https://inaturalist-open-data.s3.amazonaws.com/photos/24267222/medium.jpeg",
                "https://observation.org/photos/11536019.jpg",
                "https://observation.org/photos/11536020.jpg",
                "https://inaturalist-open-data.s3.amazonaws.com/photos/9514004/medium.jpeg",
                "https://inaturalist-open-data.s3.amazonaws.com/photos/9514003/medium.jpeg",
                "https://7.ilstatic.hu/images/2019-06/r1561309218910_423.jpg",
                "https://7.ilstatic.hu/images/2019-06/r1561309218910_423.jpg",
                "https://7.ilstatic.hu/images/2019-06/r1561309218910_423.jpg"
            ]
        },
        "SITUACIÓ": {
            "UICN GBIF": "NE"
        },
        "TAXONOMIA": {
            "Espècie": "Atylotus loewianus",
            "Família": "Tabanidae",
            "TaxId": "2968927",
            "Classe": "Insecta",
            "Regne": "Metazoa",
            "Fílum": "Arthropoda",
            "Ordre": "Diptera"
        },
        "NOM DE L'AUTOR": {
            "Autor": "Villeneuve, 1920"
        }
    },
    {
        "INFORMACIÓ COMPLEMENTÀRIA": {
            "Pertany_A": "Dipters_tabanids",
            "GbifId": "4146576561",
            "Image_urls": [
                "https://www.artportalen.se/MediaLibrary/2024/6/bee69fba-cf30-4f57-9970-4154bb372618_image.jpg",
                "https://www.artportalen.se/MediaLibrary/2024/6/83c4f14b-9d30-4e4c-90ef-88ccdd4d66f2_image.jpg",
                "https://www.artportalen.se/MediaLibrary/2024/6/422d9ec8-9e8d-4bde-a8a3-907a27c53e08_image.jpg"
            ]
        },
        "SITUACIÓ": {
            "UICN GBIF": "NE"
        },
        "TAXONOMIA": {
            "Espècie": "Atylotus plebeius",
            "Família": "Tabanidae",
            "TaxId": "2881595",
            "Classe": "Insecta",
            "Regne": "Metazoa",
            "Fílum": "Arthropoda",
            "Ordre": "Diptera"
        },
        "NOM DE L'AUTOR": {
            "Autor": "Fallén, 1817"
        }
    },
    {
        "INFORMACIÓ COMPLEMENTÀRIA": {
            "Pertany_A": "Dipters_tabanids",
            "GbifId": "1933600534",
            "Image_urls": [
                "https://static.inaturalist.org/photos/2604617/medium.jpg?1446577823",
                "https://static.inaturalist.org/photos/1970116/medium.jpg?1444441552"
            ]
        },
        "SITUACIÓ": {
            "UICN GBIF": "NE"
        },
        "TAXONOMIA": {
            "Espècie": "Atylotus quadrifarius",
            "Família": "Tabanidae",
            "TaxId": null,
            "Classe": "Insecta",
            "Regne": "Metazoa",
            "Fílum": "Arthropoda",
            "Ordre": "Diptera"
        },
        "NOM DE L'AUTOR": {
            "Autor": "Loew, 1874"
        }
    },
    {
        "INFORMACIÓ COMPLEMENTÀRIA": {
            "Pertany_A": "Dipters_tabanids",
            "GbifId": "4413144708",
            "Image_urls": [
                "https://www.artportalen.se/MediaLibrary/2024/6/77f2a9cc-0a99-4b58-a35c-ec965101f79d_image.jpg",
                "https://www.artportalen.se/MediaLibrary/2024/6/4a0a836f-b13e-4c01-a936-b3eeba2309af_image.jpg",
                "https://www.artportalen.se/MediaLibrary/2024/6/f369c842-0ad1-4620-85df-d225cee445aa_image.jpg",
                "https://www.artportalen.se/MediaLibrary/2024/7/734a7211-f940-42a4-ab78-015ead9eafdc_image.jpg",
                "https://www.artportalen.se/MediaLibrary/2024/7/80eb3b5b-d12a-4501-967c-8abacb1a1a62_image.jpg",
                "https://www.artportalen.se/MediaLibrary/2024/7/c346dc5d-0651-4ed6-885d-bb4065dacd07_image.jpg",
                "https://www.artportalen.se/MediaLibrary/2024/7/28460249-1038-4e3c-8cdc-d6b888bf0dd7_image.jpg",
                "https://www.artportalen.se/MediaLibrary/2024/7/31eedc18-9326-4838-a243-6415de27c199_image.jpg",
                "https://www.artportalen.se/MediaLibrary/2024/7/a9b7f997-ca69-405b-a701-37ccb05fc958_image.jpg",
                "https://www.artportalen.se/MediaLibrary/2024/7/771c457b-b9cb-4e35-8901-cc1f5350b134_image.jpg",
                "https://www.artportalen.se/MediaLibrary/2024/7/9f3b7245-b10b-4391-9083-8e836c0985b7_image.jpg",
                "https://www.artportalen.se/MediaLibrary/2024/7/9ec9d0d1-97fb-4931-8e17-5f9bad252548_image.jpg",
                "https://www.artportalen.se/MediaLibrary/2024/7/e8dbee84-6d0e-484d-84de-2a0e587cd4de_image.jpg",
                "https://inaturalist-open-data.s3.amazonaws.com/photos/292320242/medium.jpeg",
                "https://inaturalist-open-data.s3.amazonaws.com/photos/292860377/medium.jpg",
                "https://inaturalist-open-data.s3.amazonaws.com/photos/292860597/medium.jpg",
                "https://inaturalist-open-data.s3.amazonaws.com/photos/292860673/medium.jpg",
                "https://observation.org/photos/68402234.jpg",
                "https://observation.org/photos/68357990.jpg",
                "https://observation.org/photos/68402233.jpg",
                "https://observation.org/photos/68402232.jpg",
                "https://observation.org/photos/68402231.jpg",
                "https://observation.org/photos/68402230.jpg",
                "https://observation.org/photos/69643730.jpg"
            ]
        },
        "SITUACIÓ": {
            "UICN GBIF": "NE"
        },
        "TAXONOMIA": {
            "Espècie": "Atylotus rusticus",
            "Família": "Tabanidae",
            "TaxId": "2968928",
            "Classe": "Insecta",
            "Regne": "Metazoa",
            "Fílum": "Arthropoda",
            "Ordre": "Diptera"
        },
        "NOM DE L'AUTOR": {
            "Autor": "Linnaeus, 1767"
        }
    },
    {
        "INFORMACIÓ COMPLEMENTÀRIA": {
            "Pertany_A": "Dipters_tabanids",
            "GbifId": null,
            "Image_urls": null
        },
        "SITUACIÓ": {
            "UICN GBIF": null
        },
        "TAXONOMIA": {
            "Espècie": "Atylotus venturii",
            "Família": "Tabanidae",
            "TaxId": null,
            "Classe": "Insecta",
            "Regne": "Metazoa",
            "Fílum": "Arthropoda",
            "Ordre": "Diptera"
        },
        "NOM DE L'AUTOR": {
            "Autor": "Leclercq, 1967"
        }
    },
    {
        "INFORMACIÓ COMPLEMENTÀRIA": {
            "Pertany_A": "Dipters_tabanids",
            "GbifId": "4130216648",
            "Image_urls": [
                "https://observation.org/photos/84947487.jpg",
                "https://observation.org/photos/84947486.jpg",
                "https://10.ilstatic.hu/images/2024-03/r1709887174884_6353816350.jpg",
                "https://10.ilstatic.hu/images/2024-03/r1709887174884_6353816350.jpg",
                "https://10.ilstatic.hu/images/2024-03/r1709887174884_6353816350.jpg",
                "https://inaturalist-open-data.s3.amazonaws.com/photos/381309973/medium.jpg",
                "https://inaturalist-open-data.s3.amazonaws.com/photos/381310005/medium.jpg",
                "https://inaturalist-open-data.s3.amazonaws.com/photos/381309991/medium.jpg",
                "https://inaturalist-open-data.s3.amazonaws.com/photos/381310015/medium.jpg",
                "https://inaturalist-open-data.s3.amazonaws.com/photos/381416410/medium.jpeg",
                "https://inaturalist-open-data.s3.amazonaws.com/photos/383406429/medium.jpeg",
                "https://inaturalist-open-data.s3.amazonaws.com/photos/383406497/medium.jpeg",
                "https://inaturalist-open-data.s3.amazonaws.com/photos/383406494/medium.jpeg",
                "https://inaturalist-open-data.s3.amazonaws.com/photos/383406426/medium.jpeg",
                "https://inaturalist-open-data.s3.amazonaws.com/photos/383489432/medium.jpeg",
                "https://inaturalist-open-data.s3.amazonaws.com/photos/383467297/medium.jpeg",
                "https://inaturalist-open-data.s3.amazonaws.com/photos/384385722/medium.jpeg",
                "https://inaturalist-open-data.s3.amazonaws.com/photos/385105104/medium.jpeg",
                "https://inaturalist-open-data.s3.amazonaws.com/photos/385105159/medium.jpeg",
                "https://inaturalist-open-data.s3.amazonaws.com/photos/385105059/medium.jpeg",
                "https://inaturalist-open-data.s3.amazonaws.com/photos/384680503/medium.jpg",
                "https://inaturalist-open-data.s3.amazonaws.com/photos/385458884/medium.jpg",
                "https://inaturalist-open-data.s3.amazonaws.com/photos/385459471/medium.jpg",
                "https://inaturalist-open-data.s3.amazonaws.com/photos/385948162/medium.jpg",
                "https://inaturalist-open-data.s3.amazonaws.com/photos/386420763/medium.jpg",
                "https://inaturalist-open-data.s3.amazonaws.com/photos/392871881/medium.jpg"
            ]
        },
        "SITUACIÓ": {
            "UICN GBIF": "NE"
        },
        "TAXONOMIA": {
            "Espècie": "Chrysops caecutiens",
            "Família": "Tabanidae",
            "TaxId": "1547359",
            "Classe": "Insecta",
            "Regne": "Metazoa",
            "Fílum": "Arthropoda",
            "Ordre": "Diptera"
        },
        "NOM DE L'AUTOR": {
            "Autor": "Linnaeus, 1758"
        }
    },
    {
        "INFORMACIÓ COMPLEMENTÀRIA": {
            "Pertany_A": "Dipters_tabanids",
            "GbifId": "4134035945",
            "Image_urls": [
                "https://inaturalist-open-data.s3.amazonaws.com/photos/398082107/medium.jpeg",
                "https://inaturalist-open-data.s3.amazonaws.com/photos/288840166/medium.jpeg",
                "https://inaturalist-open-data.s3.amazonaws.com/photos/323510001/medium.jpg",
                "https://inaturalist-open-data.s3.amazonaws.com/photos/141487192/medium.jpg",
                "https://inaturalist-open-data.s3.amazonaws.com/photos/168203589/medium.jpeg",
                "https://inaturalist-open-data.s3.amazonaws.com/photos/53950865/medium.jpeg"
            ]
        },
        "SITUACIÓ": {
            "UICN GBIF": "NE"
        },
        "TAXONOMIA": {
            "Espècie": "Chrysops flavipes",
            "Família": "Tabanidae",
            "TaxId": null,
            "Classe": "Insecta",
            "Regne": "Metazoa",
            "Fílum": "Arthropoda",
            "Ordre": "Diptera"
        },
        "NOM DE L'AUTOR": {
            "Autor": "Meigen, 1804"
        }
    },
    {
        "INFORMACIÓ COMPLEMENTÀRIA": {
            "Pertany_A": "Dipters_tabanids",
            "GbifId": "4116255721",
            "Image_urls": [
                "https://inaturalist-open-data.s3.amazonaws.com/photos/364426288/medium.jpg",
                "https://inaturalist-open-data.s3.amazonaws.com/photos/365142251/medium.jpg",
                "https://inaturalist-open-data.s3.amazonaws.com/photos/393347409/medium.jpeg",
                "https://inaturalist-open-data.s3.amazonaws.com/photos/393351036/medium.jpeg",
                "https://inaturalist-open-data.s3.amazonaws.com/photos/393581169/medium.jpeg",
                "https://inaturalist-open-data.s3.amazonaws.com/photos/277160947/medium.jpeg",
                "https://inaturalist-open-data.s3.amazonaws.com/photos/331045897/medium.jpeg",
                "https://inaturalist-open-data.s3.amazonaws.com/photos/311489934/medium.jpg"
            ]
        },
        "SITUACIÓ": {
            "UICN GBIF": "NE"
        },
        "TAXONOMIA": {
            "Espècie": "Chrysops italicus",
            "Família": "Tabanidae",
            "TaxId": null,
            "Classe": "Insecta",
            "Regne": "Metazoa",
            "Fílum": "Arthropoda",
            "Ordre": "Diptera"
        },
        "NOM DE L'AUTOR": {
            "Autor": "Meigen, 1804"
        }
    },
    {
        "INFORMACIÓ COMPLEMENTÀRIA": {
            "Pertany_A": "Dipters_tabanids",
            "GbifId": "4058156323",
            "Image_urls": [
                "https://inaturalist-open-data.s3.amazonaws.com/photos/383005346/medium.jpg",
                "https://inaturalist-open-data.s3.amazonaws.com/photos/386460916/medium.jpg",
                "https://inaturalist-open-data.s3.amazonaws.com/photos/387739613/medium.jpg",
                "https://inaturalist-open-data.s3.amazonaws.com/photos/388734475/medium.jpeg",
                "https://observation.org/photos/90323606.jpg",
                "https://observation.org/photos/90483985.jpg",
                "https://observation.org/photos/90877585.jpg",
                "https://observation.org/photos/91163721.jpg",
                "https://observation.org/photos/91216019.jpg",
                "https://observation.org/photos/91236697.jpg",
                "https://observation.org/photos/91254144.jpg",
                "https://observation.org/photos/91254143.jpg",
                "https://observation.org/photos/91254142.jpg",
                "https://observation.org/photos/91304165.jpg",
                "https://observation.org/photos/91349119.jpg",
                "https://observation.org/photos/91400077.jpg",
                "https://observation.org/photos/91425622.jpg"
            ]
        },
        "SITUACIÓ": {
            "UICN GBIF": "NE"
        },
        "TAXONOMIA": {
            "Espècie": "Chrysops relictus",
            "Família": "Tabanidae",
            "TaxId": "2881718",
            "Classe": "Insecta",
            "Regne": "Metazoa",
            "Fílum": "Arthropoda",
            "Ordre": "Diptera"
        },
        "NOM DE L'AUTOR": {
            "Autor": "Meigen, 1820"
        }
    },
    {
        "INFORMACIÓ COMPLEMENTÀRIA": {
            "Pertany_A": "Dipters_tabanids",
            "GbifId": "4401446473",
            "Image_urls": [
                "https://inaturalist-open-data.s3.amazonaws.com/photos/386633707/medium.jpeg",
                "https://observation.org/photos/91227101.jpg",
                "https://inaturalist-open-data.s3.amazonaws.com/photos/389425030/medium.jpeg",
                "https://inaturalist-open-data.s3.amazonaws.com/photos/389919026/medium.jpg",
                "https://inaturalist-open-data.s3.amazonaws.com/photos/389962150/medium.jpeg",
                "https://inaturalist-open-data.s3.amazonaws.com/photos/390004657/medium.jpeg",
                "https://inaturalist-open-data.s3.amazonaws.com/photos/391033698/medium.jpg",
                "https://inaturalist-open-data.s3.amazonaws.com/photos/391441133/medium.jpeg",
                "https://inaturalist-open-data.s3.amazonaws.com/photos/391441003/medium.jpeg",
                "https://inaturalist-open-data.s3.amazonaws.com/photos/391441342/medium.jpeg",
                "https://inaturalist-open-data.s3.amazonaws.com/photos/391441070/medium.jpeg",
                "https://inaturalist-open-data.s3.amazonaws.com/photos/391594375/medium.jpeg",
                "https://inaturalist-open-data.s3.amazonaws.com/photos/391594501/medium.jpeg",
                "https://inaturalist-open-data.s3.amazonaws.com/photos/392544034/medium.jpg",
                "https://inaturalist-open-data.s3.amazonaws.com/photos/392586059/medium.jpeg",
                "https://inaturalist-open-data.s3.amazonaws.com/photos/392994284/medium.jpg",
                "https://inaturalist-open-data.s3.amazonaws.com/photos/393557486/medium.jpeg",
                "https://inaturalist-open-data.s3.amazonaws.com/photos/393557497/medium.jpeg",
                "https://inaturalist-open-data.s3.amazonaws.com/photos/394898702/medium.jpg"
            ]
        },
        "SITUACIÓ": {
            "UICN GBIF": "NE"
        },
        "TAXONOMIA": {
            "Espècie": "Chrysops viduatus",
            "Família": "Tabanidae",
            "TaxId": "798133",
            "Classe": "Insecta",
            "Regne": "Metazoa",
            "Fílum": "Arthropoda",
            "Ordre": "Diptera"
        },
        "NOM DE L'AUTOR": {
            "Autor": "Fabricius, 1794"
        }
    },
    {
        "INFORMACIÓ COMPLEMENTÀRIA": {
            "Pertany_A": "Dipters_tabanids",
            "GbifId": null,
            "Image_urls": null
        },
        "SITUACIÓ": {
            "UICN GBIF": null
        },
        "TAXONOMIA": {
            "Espècie": "Dasyrhamphis atra",
            "Família": "Tabanidae",
            "TaxId": null,
            "Classe": "Insecta",
            "Regne": "Metazoa",
            "Fílum": "Arthropoda",
            "Ordre": "Diptera"
        },
        "NOM DE L'AUTOR": {
            "Autor": "Rossi, 1790"
        }
    },
    {
        "INFORMACIÓ COMPLEMENTÀRIA": {
            "Pertany_A": "Dipters_tabanids",
            "GbifId": "4413240694",
            "Image_urls": [
                "https://observation.org/photos/90484485.jpg",
                "https://observation.org/photos/90583869.jpg",
                "https://observation.org/photos/90652602.jpg",
                "https://observation.org/photos/90652603.jpg",
                "https://observation.org/photos/90700565.jpg",
                "https://observation.org/photos/90856849.jpg",
                "https://observation.org/photos/90856851.jpg",
                "https://observation.org/photos/90911085.jpg",
                "https://arter.dk/media/69d601df-e467-47e1-b274-b18100761200.jpg",
                "https://arter.dk/media/ad461475-fe8b-4da7-aa4a-b18100761272.jpg",
                "https://arter.dk/media/326c3e68-2a05-4333-ba31-b18100761349.jpg",
                "https://arter.dk/media/a97cd4cb-3fe3-48f2-8596-b181007613ff.jpg",
                "https://arter.dk/media/fa4a6861-00aa-4fc3-9dab-b18100761305.jpg",
                "https://www.artsobservasjoner.no/MediaLibrary/2024/7/ac83d8af-da85-4e22-8166-57bc06de6cf4_image.jpg",
                "https://observation.org/photos/68707537.jpg"
            ]
        },
        "SITUACIÓ": {
            "UICN GBIF": "NE"
        },
        "TAXONOMIA": {
            "Espècie": "Haematopota crassicornis",
            "Família": "Tabanidae",
            "TaxId": null,
            "Classe": "Insecta",
            "Regne": "Metazoa",
            "Fílum": "Arthropoda",
            "Ordre": "Diptera"
        },
        "NOM DE L'AUTOR": {
            "Autor": "Wahlberg, 1848"
        }
    },
    {
        "INFORMACIÓ COMPLEMENTÀRIA": {
            "Pertany_A": "Dipters_tabanids",
            "GbifId": "2450422999",
            "Image_urls": null
        },
        "SITUACIÓ": {
            "UICN GBIF": "NE"
        },
        "TAXONOMIA": {
            "Espècie": "Haematopota eugeniae",
            "Família": "Tabanidae",
            "TaxId": null,
            "Classe": "Insecta",
            "Regne": "Metazoa",
            "Fílum": "Arthropoda",
            "Ordre": "Diptera"
        },
        "NOM DE L'AUTOR": {
            "Autor": "Portillo y Schacht, 1984"
        }
    },
    {
        "INFORMACIÓ COMPLEMENTÀRIA": {
            "Pertany_A": "Dipters_tabanids",
            "GbifId": "4413283457",
            "Image_urls": [
                "bins.boldsystems.org/pics/CROTA/IMG_SK_42-1%2B1622574354.jpg",
                "bins.boldsystems.org/pics/CROTA/IMG_SK_42-1%2B1622574354.jpg"
            ]
        },
        "SITUACIÓ": {
            "UICN GBIF": "NE"
        },
        "TAXONOMIA": {
            "Espècie": "Haematopota grandis",
            "Família": "Tabanidae",
            "TaxId": "2968931",
            "Classe": "Insecta",
            "Regne": "Metazoa",
            "Fílum": "Arthropoda",
            "Ordre": "Diptera"
        },
        "NOM DE L'AUTOR": {
            "Autor": "Meigen, 1820"
        }
    },
    {
        "INFORMACIÓ COMPLEMENTÀRIA": {
            "Pertany_A": "Dipters_tabanids",
            "GbifId": "4157703267",
            "Image_urls": [
                "https://observation.org/photos/91349392.jpg",
                "https://observation.org/photos/91349391.jpg",
                "https://observation.org/photos/91349393.jpg",
                "https://observation.org/photos/91349395.jpg",
                "https://observation.org/photos/91349394.jpg",
                "https://inaturalist-open-data.s3.amazonaws.com/photos/405306008/medium.jpg",
                "https://inaturalist-open-data.s3.amazonaws.com/photos/405306041/medium.jpg",
                "https://inaturalist-open-data.s3.amazonaws.com/photos/405306060/medium.jpg",
                "https://inaturalist-open-data.s3.amazonaws.com/photos/405306214/medium.jpg",
                "https://www.artportalen.se/MediaLibrary/2024/7/49dd8cb0-6f98-45af-a941-80fd9eeeb0b6_image.jpg",
                "https://www.artsobservasjoner.no/MediaLibrary/2024/8/a19f9d36-f2d3-418b-a776-6a6a66d573f9_image.jpg",
                "https://observation.org/photos/68068952.jpg",
                "https://observation.org/photos/68316611.jpg",
                "https://observation.org/photos/68544178.jpg",
                "https://observation.org/photos/68762061.jpg",
                "https://observation.org/photos/70337819.jpg",
                "https://observation.org/photos/70486784.jpg",
                "https://observation.org/photos/70589705.jpg",
                "https://observation.org/photos/70589706.jpg",
                "https://inaturalist-open-data.s3.amazonaws.com/photos/303978428/medium.jpeg",
                "https://observation.org/photos/70746491.jpg",
                "https://observation.org/photos/70746492.jpg",
                "https://observation.org/photos/70746489.jpg",
                "https://observation.org/photos/70955456.jpg",
                "https://observation.org/photos/71666291.jpg",
                "https://observation.org/photos/71673639.jpg",
                "https://observation.org/photos/71994385.jpg",
                "https://observation.org/photos/72138140.jpg"
            ]
        },
        "SITUACIÓ": {
            "UICN GBIF": "NE"
        },
        "TAXONOMIA": {
            "Espècie": "Haematopota italica",
            "Família": "Tabanidae",
            "TaxId": "2968932",
            "Classe": "Insecta",
            "Regne": "Metazoa",
            "Fílum": "Arthropoda",
            "Ordre": "Diptera"
        },
        "NOM DE L'AUTOR": {
            "Autor": "Meigen, 1804"
        }
    },
    {
        "INFORMACIÓ COMPLEMENTÀRIA": {
            "Pertany_A": "Dipters_tabanids",
            "GbifId": "3721993518",
            "Image_urls": [
                "https://observation.org/photos/41067511.jpg",
                "https://static.inaturalist.org/photos/2000680/medium.jpg?1444420649"
            ]
        },
        "SITUACIÓ": {
            "UICN GBIF": "NE"
        },
        "TAXONOMIA": {
            "Espècie": "Haematopota ocelligera",
            "Família": "Tabanidae",
            "TaxId": "2725513",
            "Classe": "Insecta",
            "Regne": "Metazoa",
            "Fílum": "Arthropoda",
            "Ordre": "Diptera"
        },
        "NOM DE L'AUTOR": {
            "Autor": "Kröber, 1922"
        }
    },
    {
        "INFORMACIÓ COMPLEMENTÀRIA": {
            "Pertany_A": "Dipters_tabanids",
            "GbifId": "4156695971",
            "Image_urls": [
                "https://inaturalist-open-data.s3.amazonaws.com/photos/386375545/medium.jpg",
                "https://observation.org/photos/90500716.jpg",
                "https://observation.org/photos/90563387.jpg",
                "https://observation.org/photos/90563386.jpg",
                "https://observation.org/photos/90628799.jpg",
                "https://observation.org/photos/91169290.jpg",
                "https://observation.org/photos/91209331.jpg",
                "https://observation.org/photos/91230968.jpg",
                "https://observation.org/photos/91287908.jpg",
                "https://observation.org/photos/91287869.jpg",
                "https://arter.dk/media/c03ab0e0-c7e4-410f-b8a6-b18100f9981e.jpg",
                "https://arter.dk/media/45ea1f1a-3ec1-4eb6-832e-b19c00f68114.jpg",
                "https://arter.dk/media/581c2b68-3387-4002-88d1-b19c00f68589.jpg",
                "https://arter.dk/media/8faacd4e-bb61-4c97-8fee-b1a1017bb0ca.jpg",
                "https://arter.dk/media/6f360940-f8ab-4d5e-94fb-b1a1017bb17a.jpg",
                "https://arter.dk/media/59b2afea-b786-4da3-ae16-b1a1017bafca.jpg",
                "https://inaturalist-open-data.s3.amazonaws.com/photos/392926792/medium.jpg"
            ]
        },
        "SITUACIÓ": {
            "UICN GBIF": "NE"
        },
        "TAXONOMIA": {
            "Espècie": "Haematopota pluvialis",
            "Família": "Tabanidae",
            "TaxId": "178770",
            "Classe": "Insecta",
            "Regne": "Metazoa",
            "Fílum": "Arthropoda",
            "Ordre": "Diptera"
        },
        "NOM DE L'AUTOR": {
            "Autor": "Linnaeus, 1758"
        }
    },
    {
        "INFORMACIÓ COMPLEMENTÀRIA": {
            "Pertany_A": "Dipters_tabanids",
            "GbifId": "3903309922",
            "Image_urls": [
                "https://10.ilstatic.hu/images/2023-07/r1690196496658_490451790.jpg",
                "https://10.ilstatic.hu/images/2023-07/r1690196496658_490451790.jpg",
                "https://10.ilstatic.hu/images/2023-07/r1690196496658_490451790.jpg",
                "https://10.ilstatic.hu/images/2023-07/r1690196496658_490451790.jpg",
                "https://10.ilstatic.hu/images/2023-07/r1690196496658_490451790.jpg",
                "https://10.ilstatic.hu/images/2024-03/r1709887097813_7607330450.jpg",
                "https://10.ilstatic.hu/images/2024-03/r1709887097813_7607330450.jpg",
                "https://10.ilstatic.hu/images/2024-03/r1709887097813_7607330450.jpg",
                "https://10.ilstatic.hu/images/2024-03/r1709887097813_7607330450.jpg",
                "https://10.ilstatic.hu/images/2024-03/r1709887097813_7607330450.jpg",
                "https://inaturalist-open-data.s3.amazonaws.com/photos/228265027/medium.jpeg",
                "https://inaturalist-open-data.s3.amazonaws.com/photos/228265251/medium.jpeg",
                "https://inaturalist-open-data.s3.amazonaws.com/photos/228264955/medium.jpeg",
                "https://inaturalist-open-data.s3.amazonaws.com/photos/228264976/medium.jpeg",
                "https://inaturalist-open-data.s3.amazonaws.com/photos/228264992/medium.jpeg",
                "bins.boldsystems.org/pics/CROTA/IMG_SK_36-1%2B1622574124.jpg",
                "bins.boldsystems.org/pics/CROTA/IMG_SK_36-1%2B1622574124.jpg",
                "bins.boldsystems.org/pics/GBMIX/GBOL17689%2B1447096414.JPG",
                "bins.boldsystems.org/pics/FBDIP/BC_ZSM_DIP_00058%2B1255011900.jpg",
                "bins.boldsystems.org/pics/FBDIP/BC_ZSM_DIP_00056%2B1255011900.jpg"
            ]
        },
        "SITUACIÓ": {
            "UICN GBIF": "NE"
        },
        "TAXONOMIA": {
            "Espècie": "Haematopota scutellata",
            "Família": "Tabanidae",
            "TaxId": "2968933",
            "Classe": "Insecta",
            "Regne": "Metazoa",
            "Fílum": "Arthropoda",
            "Ordre": "Diptera"
        },
        "NOM DE L'AUTOR": {
            "Autor": "Olsufjev, Moucha y Chvála, 1964"
        }
    },
    {
        "INFORMACIÓ COMPLEMENTÀRIA": {
            "Pertany_A": "Dipters_tabanids",
            "GbifId": "4131909767",
            "Image_urls": [
                "https://www.artsobservasjoner.no/MediaLibrary/2024/6/de090017-a3c8-4323-b751-c8a3d5299c42_image.jpg",
                "https://www.artsobservasjoner.no/MediaLibrary/2024/6/baec6b27-7a95-4abe-84e5-38e53b46883a_image.jpg",
                "https://www.artsobservasjoner.no/MediaLibrary/2024/6/25c03163-78d6-4705-a778-f705edee5162_image.jpg",
                "https://www.artsobservasjoner.no/MediaLibrary/2024/6/ea444a9d-1f28-4f31-9cb3-c5a7cd2636d8_image.jpg",
                "https://www.artsobservasjoner.no/MediaLibrary/2024/7/3aa263cc-83f4-4d81-bc6d-7067ecf66f3e_image.jpg",
                "https://www.artsobservasjoner.no/MediaLibrary/2024/7/6d3ba1a0-ccc9-4263-90b5-0aa8aef017e9_image.jpg",
                "https://www.artsobservasjoner.no/MediaLibrary/2023/5/55833c2d-e8bf-4199-9354-d67b17a46421_image.jpg",
                "https://www.artsobservasjoner.no/MediaLibrary/2023/5/8f581984-a61d-4675-ac02-3a09ed1a233b_image.jpg",
                "https://www.artsobservasjoner.no/MediaLibrary/2023/5/b6f5aa55-afe4-4f2f-9b5f-e9df375a8a5b_image.jpg",
                "https://inaturalist-open-data.s3.amazonaws.com/photos/289054211/medium.jpeg",
                "https://inaturalist-open-data.s3.amazonaws.com/photos/289054292/medium.jpeg",
                "https://inaturalist-open-data.s3.amazonaws.com/photos/289054358/medium.jpeg",
                "https://inaturalist-open-data.s3.amazonaws.com/photos/289054451/medium.jpeg",
                "https://www.artsobservasjoner.no/MediaLibrary/2023/7/5539b550-4a16-4a99-9af5-600838be506a_image.jpg",
                "https://www.artsobservasjoner.no/MediaLibrary/2023/7/2c3e5bea-602d-4942-94d3-96c23c40d2a8_image.jpg",
                "https://www.artsobservasjoner.no/MediaLibrary/2023/6/2416604e-83c1-4509-b475-c0ae016a5a89_image.jpg",
                "https://inaturalist-open-data.s3.amazonaws.com/photos/300498013/medium.jpeg",
                "https://inaturalist-open-data.s3.amazonaws.com/photos/300497984/medium.jpeg",
                "https://inaturalist-open-data.s3.amazonaws.com/photos/300498093/medium.jpeg",
                "https://inaturalist-open-data.s3.amazonaws.com/photos/300498055/medium.jpeg",
                "https://www.artsobservasjoner.no/MediaLibrary/2023/7/44d93191-2497-4916-854b-d95b7c919f81_image.jpg",
                "https://www.artsobservasjoner.no/MediaLibrary/2023/7/1506da68-7907-4669-9301-78350aeef4c4_image.jpg",
                "https://www.artsobservasjoner.no/MediaLibrary/2023/7/bbbd01df-56ba-4ad7-8943-8c4c49f17d3b_image.jpg",
                "https://www.artsobservasjoner.no/MediaLibrary/2023/7/a2b0e081-3a59-4fd0-af41-4d9398d989f3_image.jpg",
                "https://www.artsobservasjoner.no/MediaLibrary/2023/7/9b00af22-aec9-4988-a22a-6e6bbc9d850e_image.jpg",
                "https://inaturalist-open-data.s3.amazonaws.com/photos/208178749/medium.jpeg",
                "https://www.artsobservasjoner.no/MediaLibrary/2022/6/c68673c1-8cdc-41aa-8ca0-29ff01c339e8_image.jpg"
            ]
        },
        "SITUACIÓ": {
            "UICN GBIF": "NE"
        },
        "TAXONOMIA": {
            "Espècie": "Hybomitra aterrima",
            "Família": "Tabanidae",
            "TaxId": null,
            "Classe": "Insecta",
            "Regne": "Metazoa",
            "Fílum": "Arthropoda",
            "Ordre": "Diptera"
        },
        "NOM DE L'AUTOR": {
            "Autor": "Meigen, 1820"
        }
    },
    {
        "INFORMACIÓ COMPLEMENTÀRIA": {
            "Pertany_A": "Dipters_tabanids",
            "GbifId": "4423097508",
            "Image_urls": [
                "https://observation.org/photos/40029059.jpg",
                "https://observation.org/photos/40029060.jpg",
                "https://observation.org/photos/40324810.jpg",
                "https://observation.org/photos/40324809.jpg",
                "https://observation.org/photos/40324811.jpg"
            ]
        },
        "SITUACIÓ": {
            "UICN GBIF": "NE"
        },
        "TAXONOMIA": {
            "Espècie": "Hybomitra caucasica",
            "Família": "Tabanidae",
            "TaxId": null,
            "Classe": "Insecta",
            "Regne": "Metazoa",
            "Fílum": "Arthropoda",
            "Ordre": "Diptera"
        },
        "NOM DE L'AUTOR": {
            "Autor": "Enderlein, 1925"
        }
    },
    {
        "INFORMACIÓ COMPLEMENTÀRIA": {
            "Pertany_A": "Dipters_tabanids",
            "GbifId": "4175811575",
            "Image_urls": [
                "https://observation.org/photos/67840448.jpg",
                "https://www.artsobservasjoner.no/MediaLibrary/2023/6/e0c8fad1-5153-4428-a24a-392f0ea89ca3_image.jpg",
                "https://www.artsobservasjoner.no/MediaLibrary/2023/6/5f9c6e8a-ef8e-49cf-a53e-ea47d6920e08_image.jpg"
            ]
        },
        "SITUACIÓ": {
            "UICN GBIF": "NE"
        },
        "TAXONOMIA": {
            "Espècie": "Hybomitra distinguenda",
            "Família": "Tabanidae",
            "TaxId": "2878347",
            "Classe": "Insecta",
            "Regne": "Metazoa",
            "Fílum": "Arthropoda",
            "Ordre": "Diptera"
        },
        "NOM DE L'AUTOR": {
            "Autor": "Verral, 1909"
        }
    },
    {
        "INFORMACIÓ COMPLEMENTÀRIA": {
            "Pertany_A": "Dipters_tabanids",
            "GbifId": "4160192288",
            "Image_urls": [
                "https://observation.org/photos/66727491.jpg",
                "https://observation.org/photos/66727490.jpg",
                "https://observation.org/photos/39164709.jpg",
                "https://observation.org/photos/39164710.jpg",
                "https://observation.org/photos/39164708.jpg",
                "https://observation.org/photos/39164701.jpg"
            ]
        },
        "SITUACIÓ": {
            "UICN GBIF": "NE"
        },
        "TAXONOMIA": {
            "Espècie": "Hybomitra micans",
            "Família": "Tabanidae",
            "TaxId": null,
            "Classe": "Insecta",
            "Regne": "Metazoa",
            "Fílum": "Arthropoda",
            "Ordre": "Diptera"
        },
        "NOM DE L'AUTOR": {
            "Autor": "Meigen, 1804"
        }
    },
    {
        "INFORMACIÓ COMPLEMENTÀRIA": {
            "Pertany_A": "Dipters_tabanids",
            "GbifId": "4159625987",
            "Image_urls": [
                "https://www.artportalen.se/MediaLibrary/2024/6/4d1ea27e-ef06-42c3-aab6-da9d05c0e4b8_image.jpg",
                "https://inaturalist-open-data.s3.amazonaws.com/photos/390663437/medium.jpeg",
                "https://www.artportalen.se/MediaLibrary/2024/6/074c2497-9905-4adc-81eb-f00fbd310436_image.jpg",
                "https://www.artportalen.se/MediaLibrary/2024/6/3a96b059-2d25-4c69-997b-8cb032348b2e_image.jpg",
                "https://observation.org/photos/82062460.jpg",
                "https://observation.org/photos/82062459.jpg",
                "https://10.ilstatic.hu/images/2023-05/r1685027471328_2723701696.jpg",
                "https://observation.org/photos/68293456.jpg",
                "https://observation.org/photos/68369876.jpg",
                "https://observation.org/photos/68494266.jpg",
                "https://observation.org/photos/68494899.jpg",
                "https://observation.org/photos/68495293.jpg",
                "https://observation.org/photos/68545111.jpg",
                "https://observation.org/photos/68799986.jpg",
                "https://observation.org/photos/68799987.jpg",
                "https://observation.org/photos/68828660.jpg",
                "https://observation.org/photos/68828661.jpg"
            ]
        },
        "SITUACIÓ": {
            "UICN GBIF": "NE"
        },
        "TAXONOMIA": {
            "Espècie": "Hybomitra solstitialis",
            "Família": "Tabanidae",
            "TaxId": "2882138",
            "Classe": "Insecta",
            "Regne": "Metazoa",
            "Fílum": "Arthropoda",
            "Ordre": "Diptera"
        },
        "NOM DE L'AUTOR": {
            "Autor": "Meigen, 1820"
        }
    },
    {
        "INFORMACIÓ COMPLEMENTÀRIA": {
            "Pertany_A": "Dipters_tabanids",
            "GbifId": "4407096642",
            "Image_urls": [
                "https://inaturalist-open-data.s3.amazonaws.com/photos/297315241/medium.jpg",
                "https://inaturalist-open-data.s3.amazonaws.com/photos/297315181/medium.jpg",
                "https://inaturalist-open-data.s3.amazonaws.com/photos/298535803/medium.jpg",
                "https://inaturalist-open-data.s3.amazonaws.com/photos/298535735/medium.jpg",
                "http://mediaphoto.mnhn.fr/media/14464716413345KKJRw49UPB0AX4n",
                "http://mediaphoto.mnhn.fr/media/14464698633181lwmfWrpSSZNs8Kg",
                "http://mediaphoto.mnhn.fr/media/1446473329197iy68gVkdItSuTpRn",
                "http://mediaphoto.mnhn.fr/media/1446475535249vPCb4Z5aqvz5hrE7",
                "http://mediaphoto.mnhn.fr/media/1446475581755WAmVvZREaFBP9olR",
                "http://mediaphoto.mnhn.fr/media/1446473372785OK0zshVlGmakR35W",
                "http://mediaphoto.mnhn.fr/media/1446471661188zASzuVLOa5vedVXE",
                "http://mediaphoto.mnhn.fr/media/1446469908371dZocAKZ0sjioaZCw"
            ]
        },
        "SITUACIÓ": {
            "UICN GBIF": "NE"
        },
        "TAXONOMIA": {
            "Espècie": "Nemorius vitripennis",
            "Família": "Tabanidae",
            "TaxId": null,
            "Classe": "Insecta",
            "Regne": "Metazoa",
            "Fílum": "Arthropoda",
            "Ordre": "Diptera"
        },
        "NOM DE L'AUTOR": {
            "Autor": "Meigen, 1820"
        }
    },
    {
        "INFORMACIÓ COMPLEMENTÀRIA": {
            "Pertany_A": "Dipters_tabanids",
            "GbifId": "1804822459",
            "Image_urls": null
        },
        "SITUACIÓ": {
            "UICN GBIF": "NE"
        },
        "TAXONOMIA": {
            "Espècie": "Pangonius affinis",
            "Família": "Tabanidae",
            "TaxId": null,
            "Classe": "Insecta",
            "Regne": "Metazoa",
            "Fílum": "Arthropoda",
            "Ordre": "Diptera"
        },
        "NOM DE L'AUTOR": {
            "Autor": "Loew, 1859"
        }
    },
    {
        "INFORMACIÓ COMPLEMENTÀRIA": {
            "Pertany_A": "Dipters_tabanids",
            "GbifId": "3860561659",
            "Image_urls": [
                "https://inaturalist-open-data.s3.amazonaws.com/photos/341282288/medium.jpg",
                "https://inaturalist-open-data.s3.amazonaws.com/photos/203825489/medium.jpeg",
                "https://inaturalist-open-data.s3.amazonaws.com/photos/203825526/medium.jpeg",
                "https://inaturalist-open-data.s3.amazonaws.com/photos/203825509/medium.jpeg",
                "https://inaturalist-open-data.s3.amazonaws.com/photos/74131010/medium.jpeg",
                "https://inaturalist-open-data.s3.amazonaws.com/photos/77950664/medium.jpeg",
                "https://inaturalist-open-data.s3.amazonaws.com/photos/78108729/medium.jpg",
                "https://inaturalist-open-data.s3.amazonaws.com/photos/242199890/medium.jpg",
                "http://mediaphoto.mnhn.fr/media/1436192218540hqPEWPSWP5iWtcPW",
                "http://mediaphoto.mnhn.fr/media/1436191787295IXOZ6XRh7g9nRbXn",
                "http://mediaphoto.mnhn.fr/media/1436191968186Lq8KICTr8aNNebCI",
                "http://mediaphoto.mnhn.fr/media/1436192091638wZLFBu9WcQuuXzeb",
                "http://mediaphoto.mnhn.fr/media/1436192220637Dlw5dT1fuld5DrUu",
                "http://mediaphoto.mnhn.fr/media/14361917899958CfQJaOF28WwUW5F",
                "http://mediaphoto.mnhn.fr/media/1436192094728AEGxW304PWCEIK4G",
                "http://mediaphoto.mnhn.fr/media/1436191970386KIaqyl1SgTDwOy9r",
                "http://mediaphoto.mnhn.fr/media/1436191792556VoJfrsgIwSDYLJDb",
                "http://mediaphoto.mnhn.fr/media/1436192098188ebYoPLU7Rj0a8AjA",
                "http://mediaphoto.mnhn.fr/media/14361919723168jtkkdeOrJrmTSQC",
                "http://mediaphoto.mnhn.fr/media/14361922229753FZhUPxKHMi2YION"
            ]
        },
        "SITUACIÓ": {
            "UICN GBIF": "NE"
        },
        "TAXONOMIA": {
            "Espècie": "Pangonius micans",
            "Família": "Tabanidae",
            "TaxId": null,
            "Classe": "Insecta",
            "Regne": "Metazoa",
            "Fílum": "Arthropoda",
            "Ordre": "Diptera"
        },
        "NOM DE L'AUTOR": {
            "Autor": "Meigen, 1820"
        }
    },
    {
        "INFORMACIÓ COMPLEMENTÀRIA": {
            "Pertany_A": "Dipters_tabanids",
            "GbifId": "4175242653",
            "Image_urls": [
                "https://inaturalist-open-data.s3.amazonaws.com/photos/387838812/medium.jpeg",
                "https://inaturalist-open-data.s3.amazonaws.com/photos/397789674/medium.jpeg",
                "https://inaturalist-open-data.s3.amazonaws.com/photos/406868582/medium.jpeg",
                "https://inaturalist-open-data.s3.amazonaws.com/photos/407054308/medium.jpeg",
                "https://inaturalist-open-data.s3.amazonaws.com/photos/407171010/medium.jpeg",
                "https://inaturalist-open-data.s3.amazonaws.com/photos/407171178/medium.jpeg",
                "https://inaturalist-open-data.s3.amazonaws.com/photos/408516876/medium.jpeg",
                "https://inaturalist-open-data.s3.amazonaws.com/photos/408516803/medium.jpeg",
                "https://inaturalist-open-data.s3.amazonaws.com/photos/410771715/medium.jpeg",
                "https://inaturalist-open-data.s3.amazonaws.com/photos/413067773/medium.jpeg",
                "https://inaturalist-open-data.s3.amazonaws.com/photos/291656599/medium.jpeg",
                "https://10.ilstatic.hu/images/2023-06/r1686567357497_3238901921.jpg",
                "https://10.ilstatic.hu/images/2023-06/r1686567357497_3238901921.jpg",
                "https://inaturalist-open-data.s3.amazonaws.com/photos/299569281/medium.jpeg"
            ]
        },
        "SITUACIÓ": {
            "UICN GBIF": "NE"
        },
        "TAXONOMIA": {
            "Espècie": "Philipomyia aprica",
            "Família": "Tabanidae",
            "TaxId": "798138",
            "Classe": "Insecta",
            "Regne": "Metazoa",
            "Fílum": "Arthropoda",
            "Ordre": "Diptera"
        },
        "NOM DE L'AUTOR": {
            "Autor": "Meigen, 1820"
        }
    },
    {
        "INFORMACIÓ COMPLEMENTÀRIA": {
            "Pertany_A": "Dipters_tabanids",
            "GbifId": "4145191587",
            "Image_urls": [
                "https://inaturalist-open-data.s3.amazonaws.com/photos/289578616/medium.jpeg",
                "https://inaturalist-open-data.s3.amazonaws.com/photos/200456221/medium.jpeg",
                "https://inaturalist-open-data.s3.amazonaws.com/photos/207340077/medium.jpg",
                "https://inaturalist-open-data.s3.amazonaws.com/photos/209352333/medium.jpeg",
                "https://inaturalist-open-data.s3.amazonaws.com/photos/209352207/medium.jpeg",
                "https://inaturalist-open-data.s3.amazonaws.com/photos/211457398/medium.jpeg",
                "https://inaturalist-open-data.s3.amazonaws.com/photos/211726705/medium.jpeg",
                "https://inaturalist-open-data.s3.amazonaws.com/photos/137903676/medium.jpeg",
                "https://inaturalist-open-data.s3.amazonaws.com/photos/138760863/medium.jpg",
                "https://inaturalist-open-data.s3.amazonaws.com/photos/177114268/medium.jpg",
                "https://inaturalist-open-data.s3.amazonaws.com/photos/78203302/medium.jpeg",
                "https://inaturalist-open-data.s3.amazonaws.com/photos/78306333/medium.jpeg"
            ]
        },
        "SITUACIÓ": {
            "UICN GBIF": "NE"
        },
        "TAXONOMIA": {
            "Espècie": "Philipomyia graeca",
            "Família": "Tabanidae",
            "TaxId": "798139",
            "Classe": "Insecta",
            "Regne": "Metazoa",
            "Fílum": "Arthropoda",
            "Ordre": "Diptera"
        },
        "NOM DE L'AUTOR": {
            "Autor": "Fabricius, 1794"
        }
    },
    {
        "INFORMACIÓ COMPLEMENTÀRIA": {
            "Pertany_A": "Dipters_tabanids",
            "GbifId": "2802751029",
            "Image_urls": [
                "https://inaturalist-open-data.s3.amazonaws.com/photos/78506848/medium.jpeg",
                "https://static.inaturalist.org/photos/4124292/medium.jpg?1467120374"
            ]
        },
        "SITUACIÓ": {
            "UICN GBIF": "NE"
        },
        "TAXONOMIA": {
            "Espècie": "Silvius variegatus",
            "Família": "Tabanidae",
            "TaxId": "1547356",
            "Classe": "Insecta",
            "Regne": "Metazoa",
            "Fílum": "Arthropoda",
            "Ordre": "Diptera"
        },
        "NOM DE L'AUTOR": {
            "Autor": "Fabricius, 1805"
        }
    },
    {
        "INFORMACIÓ COMPLEMENTÀRIA": {
            "Pertany_A": "Dipters_tabanids",
            "GbifId": "4145627834",
            "Image_urls": [
                "https://observation.org/photos/89219996.jpg",
                "https://observation.org/photos/90559602.jpg",
                "https://observation.org/photos/90559603.jpg",
                "https://observation.org/photos/90559601.jpg",
                "https://observation.org/photos/90559600.jpg",
                "https://observation.org/photos/90589129.jpg",
                "https://observation.org/photos/90641933.jpg",
                "https://observation.org/photos/90755001.jpg",
                "https://observation.org/photos/90785794.jpg",
                "https://observation.org/photos/90793558.jpg",
                "https://observation.org/photos/90806840.jpg",
                "https://observation.org/photos/90806841.jpg",
                "https://observation.org/photos/90929143.jpg",
                "https://observation.org/photos/90982109.jpg",
                "https://observation.org/photos/91023488.jpg",
                "https://observation.org/photos/91055133.jpg",
                "https://observation.org/photos/91065722.jpg",
                "https://observation.org/photos/91076815.jpg",
                "https://observation.org/photos/91076814.jpg",
                "https://observation.org/photos/91110815.jpg",
                "https://observation.org/photos/91198797.jpg"
            ]
        },
        "SITUACIÓ": {
            "UICN GBIF": "NE"
        },
        "TAXONOMIA": {
            "Espècie": "Tabanus autumnalis",
            "Família": "Tabanidae",
            "TaxId": "2719099",
            "Classe": "Insecta",
            "Regne": "Metazoa",
            "Fílum": "Arthropoda",
            "Ordre": "Diptera"
        },
        "NOM DE L'AUTOR": {
            "Autor": "Linnaeus, 1761"
        }
    },
    {
        "INFORMACIÓ COMPLEMENTÀRIA": {
            "Pertany_A": "Dipters_tabanids",
            "GbifId": "4038713324",
            "Image_urls": [
                "bins.boldsystems.org/pics/CROTA/IMG_SK_7-1%2B1622571484.jpg",
                "bins.boldsystems.org/pics/CROTA/IMG_SK_7-1%2B1622571484.jpg"
            ]
        },
        "SITUACIÓ": {
            "UICN GBIF": null
        },
        "TAXONOMIA": {
            "Espècie": "Tabanus bifarius",
            "Família": "Tabanidae",
            "TaxId": "2968938",
            "Classe": "Insecta",
            "Regne": "Metazoa",
            "Fílum": "Arthropoda",
            "Ordre": "Diptera"
        },
        "NOM DE L'AUTOR": {
            "Autor": "Loew, 1858"
        }
    },
    {
        "INFORMACIÓ COMPLEMENTÀRIA": {
            "Pertany_A": "Dipters_tabanids",
            "GbifId": "4110889889",
            "Image_urls": [
                "https://inaturalist-open-data.s3.amazonaws.com/photos/397733293/medium.jpeg",
                "https://inaturalist-open-data.s3.amazonaws.com/photos/397733956/medium.jpeg",
                "https://storage.googleapis.com/blaast-spel.appspot.com/observation/2mbfYlJIIZNh469w714JMLsOGVg2/bSwF9VpLTU3YbbES2VDx/e8b03da6-e047-43ce-9a94-b04d9303c608_500x500.jpg",
                "https://www.artportalen.se/MediaLibrary/2024/6/434c459e-5c3d-43eb-a40c-368a90e9cabd_image.jpg",
                "https://www.artportalen.se/MediaLibrary/2024/6/24901c4a-0fc8-46d2-b819-606d717c8aaa_image.jpg",
                "https://www.artportalen.se/MediaLibrary/2024/6/0d50acee-516c-4dc7-a496-da65ddc6aa16_image.jpg",
                "https://www.artportalen.se/MediaLibrary/2024/6/320faef2-65ea-4960-849f-12314542e20a_image.jpg",
                "https://www.artportalen.se/MediaLibrary/2024/7/1f1f7bbd-db59-446f-a20b-bd24c7809c0c_image.jpg",
                "https://www.artportalen.se/MediaLibrary/2024/7/f4622e0d-d4d3-4161-bb03-7eb00688945b_image.jpg"
            ]
        },
        "SITUACIÓ": {
            "UICN GBIF": "NE"
        },
        "TAXONOMIA": {
            "Espècie": "Tabanus bovinus",
            "Família": "Tabanidae",
            "TaxId": "503977",
            "Classe": "Insecta",
            "Regne": "Metazoa",
            "Fílum": "Arthropoda",
            "Ordre": "Diptera"
        },
        "NOM DE L'AUTOR": {
            "Autor": "Linnaeus, 1758"
        }
    },
    {
        "INFORMACIÓ COMPLEMENTÀRIA": {
            "Pertany_A": "Dipters_tabanids",
            "GbifId": "4159555040",
            "Image_urls": [
                "https://observation.org/photos/91036984.jpg",
                "https://inaturalist-open-data.s3.amazonaws.com/photos/397227923/medium.jpeg",
                "https://inaturalist-open-data.s3.amazonaws.com/photos/397227948/medium.jpeg",
                "https://inaturalist-open-data.s3.amazonaws.com/photos/397233786/medium.jpeg",
                "https://inaturalist-open-data.s3.amazonaws.com/photos/400990573/medium.jpeg",
                "https://inaturalist-open-data.s3.amazonaws.com/photos/400990577/medium.jpeg",
                "https://www.artportalen.se/MediaLibrary/2024/6/5a37bbea-a310-4eda-b049-d48eefb82982_image.jpg",
                "https://www.artportalen.se/MediaLibrary/2024/6/bb9992ef-db01-4a5b-85aa-cd424737bea7_image.jpg",
                "https://www.artportalen.se/MediaLibrary/2024/6/fa392144-39cd-407b-ae67-84564a341dd4_image.jpg",
                "https://www.artportalen.se/MediaLibrary/2024/6/eaf4b422-40e0-4dba-88c4-3d83ea2114c1_image.jpg",
                "https://www.artportalen.se/MediaLibrary/2024/6/934de9af-a07b-43ba-b85f-c4cf10e7e0b9_image.jpg",
                "https://www.artportalen.se/MediaLibrary/2024/6/9c375dea-607d-49c9-a4f3-7e12977c644e_image.jpg",
                "https://www.artportalen.se/MediaLibrary/2024/6/a9569201-acdc-42ad-b76a-843240b5da03_image.jpg",
                "https://www.artportalen.se/MediaLibrary/2024/6/331ad262-8f43-4ce8-8622-0c213d80f207_image.jpg",
                "https://www.artportalen.se/MediaLibrary/2024/6/d1ac3ec9-4731-4340-a93d-65d9d24e3e38_image.jpg",
                "https://www.artportalen.se/MediaLibrary/2024/6/dc5e0b8e-b1f7-4aea-b7f4-cbc3654d399b_image.jpg",
                "https://www.artportalen.se/MediaLibrary/2024/6/2649053a-3f85-4f15-b37e-8d7f26419eb4_image.jpg"
            ]
        },
        "SITUACIÓ": {
            "UICN GBIF": "NE"
        },
        "TAXONOMIA": {
            "Espècie": "Tabanus bromius",
            "Família": "Tabanidae",
            "TaxId": "304241",
            "Classe": "Insecta",
            "Regne": "Metazoa",
            "Fílum": "Arthropoda",
            "Ordre": "Diptera"
        },
        "NOM DE L'AUTOR": {
            "Autor": "Linnaeus, 1758"
        }
    },
    {
        "INFORMACIÓ COMPLEMENTÀRIA": {
            "Pertany_A": "Dipters_tabanids",
            "GbifId": "4160625839",
            "Image_urls": [
                "https://observation.org/photos/90811722.jpg",
                "https://observation.org/photos/90811723.jpg",
                "https://observation.org/photos/90811720.jpg",
                "https://observation.org/photos/90811721.jpg",
                "https://observation.org/photos/90811724.jpg",
                "https://observation.org/photos/67894417.jpg",
                "https://www.artportalen.se/MediaLibrary/2023/5/068117e9-d99a-45d4-a765-70f2410056b3_image.jpg",
                "https://www.artportalen.se/MediaLibrary/2023/5/d00e9ed3-225e-4987-bd01-183710be429e_image.jpg",
                "https://www.artportalen.se/MediaLibrary/2023/5/88dc4d99-bfa7-4fc9-b044-ed9898f7583f_image.jpg",
                "https://www.artportalen.se/MediaLibrary/2023/5/490cf5b0-46e0-4455-b83a-3a8d7d3e7478_image.jpg",
                "https://observation.org/photos/61333777.jpg",
                "https://observation.org/photos/61333778.jpg",
                "https://observation.org/photos/62024084.jpg",
                "https://observation.org/photos/53709971.jpg",
                "https://observation.org/photos/53709972.jpg"
            ]
        },
        "SITUACIÓ": {
            "UICN GBIF": "NE"
        },
        "TAXONOMIA": {
            "Espècie": "Tabanus cordiger",
            "Família": "Tabanidae",
            "TaxId": "2882931",
            "Classe": "Insecta",
            "Regne": "Metazoa",
            "Fílum": "Arthropoda",
            "Ordre": "Diptera"
        },
        "NOM DE L'AUTOR": {
            "Autor": "Meigen, 1820"
        }
    },
    {
        "INFORMACIÓ COMPLEMENTÀRIA": {
            "Pertany_A": "Dipters_tabanids",
            "GbifId": "3889035667",
            "Image_urls": [
                "https://inaturalist-open-data.s3.amazonaws.com/photos/305154434/medium.jpeg",
                "https://inaturalist-open-data.s3.amazonaws.com/photos/304754562/medium.jpeg",
                "https://inaturalist-open-data.s3.amazonaws.com/photos/304754540/medium.jpeg",
                "https://inaturalist-open-data.s3.amazonaws.com/photos/305154402/medium.jpeg",
                "https://inaturalist-open-data.s3.amazonaws.com/photos/219729632/medium.jpg",
                "https://inaturalist-open-data.s3.amazonaws.com/photos/224713050/medium.jpeg",
                "https://inaturalist-open-data.s3.amazonaws.com/photos/224713086/medium.jpeg"
            ]
        },
        "SITUACIÓ": {
            "UICN GBIF": "NE"
        },
        "TAXONOMIA": {
            "Espècie": "Tabanus eggeri",
            "Família": "Tabanidae",
            "TaxId": "2968940",
            "Classe": "Insecta",
            "Regne": "Metazoa",
            "Fílum": "Arthropoda",
            "Ordre": "Diptera"
        },
        "NOM DE L'AUTOR": {
            "Autor": "Schiner, 1868"
        }
    },
    {
        "INFORMACIÓ COMPLEMENTÀRIA": {
            "Pertany_A": "Dipters_tabanids",
            "GbifId": "2450422532",
            "Image_urls": null
        },
        "SITUACIÓ": {
            "UICN GBIF": "NE"
        },
        "TAXONOMIA": {
            "Espècie": "Tabanus flavofemoratus",
            "Família": "Tabanidae",
            "TaxId": null,
            "Classe": "Insecta",
            "Regne": "Metazoa",
            "Fílum": "Arthropoda",
            "Ordre": "Diptera"
        },
        "NOM DE L'AUTOR": {
            "Autor": "Strobl, 1908"
        }
    },
    {
        "INFORMACIÓ COMPLEMENTÀRIA": {
            "Pertany_A": "Dipters_tabanids",
            "GbifId": "4171323285",
            "Image_urls": [
                "https://www.artportalen.se/MediaLibrary/2024/7/4ca8a303-a95e-4fbf-9e0d-fac3a04d8967_image.jpg",
                "https://inaturalist-open-data.s3.amazonaws.com/photos/304839858/medium.jpeg",
                "https://inaturalist-open-data.s3.amazonaws.com/photos/304839891/medium.jpeg",
                "https://www.artportalen.se/MediaLibrary/2023/7/9b5e2e02-1fac-4c00-9108-893d70dc0813_image.jpg",
                "https://10.ilstatic.hu/images/2023-08/r1692610008135_7272014912.jpg",
                "https://10.ilstatic.hu/images/2023-08/r1692610008135_7272014912.jpg",
                "https://10.ilstatic.hu/images/2023-08/r1692610008135_7272014912.jpg",
                "https://10.ilstatic.hu/images/2023-08/r1692610008135_7272014912.jpg",
                "https://www.artsobservasjoner.no/MediaLibrary/2023/9/d18751da-282d-4ba7-a0ef-11c510234517_image.jpg",
                "https://www.artsobservasjoner.no/MediaLibrary/2023/9/2f4a8c2d-fa0a-45f5-aa62-73a5dfffd1d3_image.jpg",
                "https://www.artsobservasjoner.no/MediaLibrary/2023/9/888f8807-94af-4bc2-924c-0d75c20903ac_image.jpg",
                "https://www.artsobservasjoner.no/MediaLibrary/2023/9/0006e3a3-e79d-48ce-ba19-29e9d519c738_image.jpg",
                "https://inaturalist-open-data.s3.amazonaws.com/photos/323005194/medium.jpeg",
                "https://inaturalist-open-data.s3.amazonaws.com/photos/328458640/medium.jpeg",
                "https://inaturalist-open-data.s3.amazonaws.com/photos/328778986/medium.jpeg",
                "https://www.artportalen.se/MediaLibrary/2022/7/f40e6f16-e13a-4d45-bce3-d2ae4afc72a0_image.jpg",
                "https://www.artportalen.se/MediaLibrary/2022/7/158b879a-ef5f-42ba-b04c-88122a7a8d30_image.jpg",
                "https://inaturalist-open-data.s3.amazonaws.com/photos/224584474/medium.jpg",
                "https://inaturalist-open-data.s3.amazonaws.com/photos/346722353/medium.jpg",
                "https://inaturalist-open-data.s3.amazonaws.com/photos/230968692/medium.jpg"
            ]
        },
        "SITUACIÓ": {
            "UICN GBIF": "NE"
        },
        "TAXONOMIA": {
            "Espècie": "Tabanus glaucopis",
            "Família": "Tabanidae",
            "TaxId": "2968942",
            "Classe": "Insecta",
            "Regne": "Metazoa",
            "Fílum": "Arthropoda",
            "Ordre": "Diptera"
        },
        "NOM DE L'AUTOR": {
            "Autor": "Meigen, 1820"
        }
    },
    {
        "INFORMACIÓ COMPLEMENTÀRIA": {
            "Pertany_A": "Dipters_tabanids",
            "GbifId": "4157400548",
            "Image_urls": [
                "https://observation.org/photos/91104815.jpg",
                "https://observation.org/photos/91177679.jpg",
                "https://observation.org/photos/91177680.jpg",
                "https://observation.org/photos/91481314.jpg",
                "https://observation.org/photos/91481651.jpg",
                "https://observation.org/photos/91481315.jpg",
                "https://observation.org/photos/91481650.jpg",
                "https://observation.org/photos/91481430.jpg",
                "https://observation.org/photos/91481431.jpg",
                "https://www.artportalen.se/MediaLibrary/2024/5/588f721f-5b5c-40ae-a1a9-aa08a9b4602a_image.jpg",
                "https://www.artportalen.se/MediaLibrary/2024/5/eb98761c-cf76-48a9-bb7c-4d09f0621681_image.jpg",
                "https://www.artsobservasjoner.no/MediaLibrary/2024/5/371c51f0-a6ef-411f-beac-c4ce07c975ea_image.jpg",
                "https://www.artportalen.se/MediaLibrary/2024/6/44e89ea4-f4a8-4dbd-9864-a1e6f3ff3302_image.jpg",
                "https://www.artportalen.se/MediaLibrary/2024/6/1c20089c-62be-4ffa-aa30-7fb029728a66_image.jpg",
                "https://www.artportalen.se/MediaLibrary/2024/6/142ed39b-0f6c-4c63-bfa1-cf76e242d781_image.jpg",
                "https://www.artportalen.se/MediaLibrary/2024/6/cd2330cf-c365-4f1f-9d6a-85337f166b50_image.jpg",
                "https://www.artportalen.se/MediaLibrary/2024/6/4bce29e3-819c-42c2-b2c9-b5aa52e1fc8e_image.jpg",
                "https://www.artportalen.se/MediaLibrary/2024/6/d8b180be-fd2c-4ab1-97cf-6bf9193dc222_image.jpg",
                "https://www.artportalen.se/MediaLibrary/2024/6/b5a10656-5385-4833-9122-10bff1ac268c_image.jpg",
                "https://www.artsobservasjoner.no/MediaLibrary/2024/6/0459a083-04ea-437d-8b42-9f8c1294aeb1_image.jpg",
                "https://www.artsobservasjoner.no/MediaLibrary/2024/6/6a8a6492-5aab-4a17-8cdf-1fe509f851f5_image.jpg",
                "https://www.artsobservasjoner.no/MediaLibrary/2024/6/eb28c3cc-6510-401d-bc77-9bfec5a003c1_image.jpg",
                "https://www.artsobservasjoner.no/MediaLibrary/2024/6/e43d464b-e620-446e-a3fd-05f2f9b83fbf_image.jpg",
                "https://www.artsobservasjoner.no/MediaLibrary/2024/6/e18c160e-5779-4c88-9bbe-27d2e66ac9a0_image.jpg",
                "https://www.artsobservasjoner.no/MediaLibrary/2024/6/194ce075-3853-4f2b-8000-4f775adf6365_image.jpg",
                "https://www.artsobservasjoner.no/MediaLibrary/2024/7/1c95bab1-6543-4e02-a41a-d243d9e47659_image.jpeg",
                "https://inaturalist-open-data.s3.amazonaws.com/photos/402514876/medium.jpeg",
                "https://inaturalist-open-data.s3.amazonaws.com/photos/407715611/medium.jpeg",
                "https://inaturalist-open-data.s3.amazonaws.com/photos/407715601/medium.jpeg",
                "https://inaturalist-open-data.s3.amazonaws.com/photos/409213879/medium.jpeg",
                "https://www.artportalen.se/MediaLibrary/2024/7/be645ed6-60f2-42b6-b605-a93153d1b8d2_image.jpg"
            ]
        },
        "SITUACIÓ": {
            "UICN GBIF": "NE"
        },
        "TAXONOMIA": {
            "Espècie": "Tabanus maculicornis",
            "Família": "Tabanidae",
            "TaxId": "798142",
            "Classe": "Insecta",
            "Regne": "Metazoa",
            "Fílum": "Arthropoda",
            "Ordre": "Diptera"
        },
        "NOM DE L'AUTOR": {
            "Autor": "Zettertedt, 1842"
        }
    },
    {
        "INFORMACIÓ COMPLEMENTÀRIA": {
            "Pertany_A": "Dipters_tabanids",
            "GbifId": "4163256498",
            "Image_urls": [
                "https://www.artportalen.se/MediaLibrary/2021/7/a0689290-5431-4eca-bbe8-7d2c43841f93_image.jpg",
                "https://www.artportalen.se/MediaLibrary/2021/7/9a0c7dac-d617-4a9c-867e-c1d0fd73ae4b_image.jpg",
                "https://www.artportalen.se/MediaLibrary/2021/7/65fa9df5-042b-4b4d-a7ee-96d391c2cab0_image.jpg",
                "https://inaturalist-open-data.s3.amazonaws.com/photos/332693082/medium.jpg",
                "https://inaturalist-open-data.s3.amazonaws.com/photos/332693087/medium.jpg",
                "https://inaturalist-open-data.s3.amazonaws.com/photos/332693077/medium.jpg",
                "https://www.artportalen.se/MediaLibrary/2023/9/6728c833-acce-4f66-9359-a96942ad8133_image.jpg",
                "https://www.artportalen.se/MediaLibrary/2023/9/90c6ae84-b027-4c73-bbb4-4c07ec734e9c_image.jpg",
                "bins.boldsystems.org/pics/CROTA/IMG_SK_16-1%2B1622572086.jpg",
                "bins.boldsystems.org/pics/CROTA/IMG_SK_16-1%2B1622572086.jpg"
            ]
        },
        "SITUACIÓ": {
            "UICN GBIF": "NE"
        },
        "TAXONOMIA": {
            "Espècie": "Tabanus miki",
            "Família": "Tabanidae",
            "TaxId": "2968944",
            "Classe": "Insecta",
            "Regne": "Metazoa",
            "Fílum": "Arthropoda",
            "Ordre": "Diptera"
        },
        "NOM DE L'AUTOR": {
            "Autor": "Brauer, 1880"
        }
    },
    {
        "INFORMACIÓ COMPLEMENTÀRIA": {
            "Pertany_A": "Dipters_tabanids",
            "GbifId": "3743046389",
            "Image_urls": [
                "https://inaturalist-open-data.s3.amazonaws.com/photos/139200550/medium.jpeg",
                "https://inaturalist-open-data.s3.amazonaws.com/photos/139200638/medium.jpeg",
                "https://inaturalist-open-data.s3.amazonaws.com/photos/139200640/medium.jpeg",
                "https://inaturalist-open-data.s3.amazonaws.com/photos/92625935/medium.jpeg",
                "https://inaturalist-open-data.s3.amazonaws.com/photos/92624120/medium.jpeg",
                "https://static.inaturalist.org/photos/2053065/medium.jpg?1444461639"
            ]
        },
        "SITUACIÓ": {
            "UICN GBIF": "NE"
        },
        "TAXONOMIA": {
            "Espècie": "Tabanus nemoralis",
            "Família": "Tabanidae",
            "TaxId": null,
            "Classe": "Insecta",
            "Regne": "Metazoa",
            "Fílum": "Arthropoda",
            "Ordre": "Diptera"
        },
        "NOM DE L'AUTOR": {
            "Autor": "Meigen, 1820"
        }
    },
    {
        "INFORMACIÓ COMPLEMENTÀRIA": {
            "Pertany_A": "Dipters_tabanids",
            "GbifId": "2470128596",
            "Image_urls": [
                "https://upload.wikimedia.org/wikipedia/commons/thumb/7/7d/Tabanus_paradoxus_%E2%99%82%2C_Le-Collet-de-D%C3%A8ze%2C_Loz%C3%A8re_%2851953766870%29.jpg/245px-Tabanus_paradoxus_%E2%99%82%2C_Le-Collet-de-D%C3%A8ze%2C_Loz%C3%A8re_%2851953766870%29.jpg"
            ]
        },
        "SITUACIÓ": {
            "UICN GBIF": "NE"
        },
        "TAXONOMIA": {
            "Espècie": "Tabanus paradoxus",
            "Família": "Tabanidae",
            "TaxId": null,
            "Classe": "Insecta",
            "Regne": "Metazoa",
            "Fílum": "Arthropoda",
            "Ordre": "Diptera"
        },
        "NOM DE L'AUTOR": {
            "Autor": "Jaennicke, 1866"
        }
    },
    {
        "INFORMACIÓ COMPLEMENTÀRIA": {
            "Pertany_A": "Dipters_tabanids",
            "GbifId": "4127334800",
            "Image_urls": [
                "https://inaturalist-open-data.s3.amazonaws.com/photos/19429823/medium.jpeg",
                "https://inaturalist-open-data.s3.amazonaws.com/photos/19429681/medium.jpeg",
                "https://inaturalist-open-data.s3.amazonaws.com/photos/19429953/medium.jpeg",
                "bins.boldsystems.org/pics/CROTA/IMG_SK_21-1%2B1622572462.jpg",
                "bins.boldsystems.org/pics/CROTA/IMG_SK_21-1%2B1622572462.jpg",
                "bins.boldsystems.org/pics/GBCOU/GBOL01233%2B1372340556.jpg"
            ]
        },
        "SITUACIÓ": {
            "UICN GBIF": "NE"
        },
        "TAXONOMIA": {
            "Espècie": "Tabanus quatuornotatus",
            "Família": "Tabanidae",
            "TaxId": "2968945",
            "Classe": "Insecta",
            "Regne": "Metazoa",
            "Fílum": "Arthropoda",
            "Ordre": "Diptera"
        },
        "NOM DE L'AUTOR": {
            "Autor": "Meigen, 1820"
        }
    },
    {
        "INFORMACIÓ COMPLEMENTÀRIA": {
            "Pertany_A": "Dipters_tabanids",
            "GbifId": "4138548826",
            "Image_urls": [
                "https://inaturalist-open-data.s3.amazonaws.com/photos/408552058/medium.jpeg",
                "https://inaturalist-open-data.s3.amazonaws.com/photos/292413696/medium.jpeg",
                "https://inaturalist-open-data.s3.amazonaws.com/photos/292413749/medium.jpeg",
                "https://inaturalist-open-data.s3.amazonaws.com/photos/292413723/medium.jpeg",
                "https://inaturalist-open-data.s3.amazonaws.com/photos/205793399/medium.jpg",
                "https://inaturalist-open-data.s3.amazonaws.com/photos/214389540/medium.jpeg",
                "https://inaturalist-open-data.s3.amazonaws.com/photos/82660389/medium.jpeg",
                "https://inaturalist-open-data.s3.amazonaws.com/photos/45533775/medium.jpeg",
                "https://inaturalist-open-data.s3.amazonaws.com/photos/22779421/medium.jpeg"
            ]
        },
        "SITUACIÓ": {
            "UICN GBIF": "NE"
        },
        "TAXONOMIA": {
            "Espècie": "Tabanus rectus",
            "Família": "Tabanidae",
            "TaxId": null,
            "Classe": "Insecta",
            "Regne": "Metazoa",
            "Fílum": "Arthropoda",
            "Ordre": "Diptera"
        },
        "NOM DE L'AUTOR": {
            "Autor": "Loew, 1858"
        }
    },
    {
        "INFORMACIÓ COMPLEMENTÀRIA": {
            "Pertany_A": "Dipters_tabanids",
            "GbifId": "4438628963",
            "Image_urls": [
                "https://inaturalist-open-data.s3.amazonaws.com/photos/316510657/medium.jpeg",
                "https://inaturalist-open-data.s3.amazonaws.com/photos/223059051/medium.jpg",
                "https://inaturalist-open-data.s3.amazonaws.com/photos/332717242/medium.jpg",
                "https://inaturalist-open-data.s3.amazonaws.com/photos/154898995/medium.jpeg",
                "https://inaturalist-open-data.s3.amazonaws.com/photos/332698554/medium.jpg",
                "https://inaturalist-open-data.s3.amazonaws.com/photos/88040867/medium.jpeg",
                "https://inaturalist-open-data.s3.amazonaws.com/photos/92245639/medium.jpeg",
                "https://static.inaturalist.org/photos/2604632/medium.jpg?1446577832"
            ]
        },
        "SITUACIÓ": {
            "UICN GBIF": "NE"
        },
        "TAXONOMIA": {
            "Espècie": "Tabanus regularis",
            "Família": "Tabanidae",
            "TaxId": null,
            "Classe": "Insecta",
            "Regne": "Metazoa",
            "Fílum": "Arthropoda",
            "Ordre": "Diptera"
        },
        "NOM DE L'AUTOR": {
            "Autor": "Jaennicke, 1866"
        }
    },
    {
        "INFORMACIÓ COMPLEMENTÀRIA": {
            "Pertany_A": "Dipters_tabanids",
            "GbifId": "1804822548",
            "Image_urls": null
        },
        "SITUACIÓ": {
            "UICN GBIF": "NE"
        },
        "TAXONOMIA": {
            "Espècie": "Tabanus spectabilis",
            "Família": "Tabanidae",
            "TaxId": null,
            "Classe": "Insecta",
            "Regne": "Metazoa",
            "Fílum": "Arthropoda",
            "Ordre": "Diptera"
        },
        "NOM DE L'AUTOR": {
            "Autor": "Loew, 1858"
        }
    },
    {
        "INFORMACIÓ COMPLEMENTÀRIA": {
            "Pertany_A": "Dipters_tabanids",
            "GbifId": "1706014241",
            "Image_urls": null
        },
        "SITUACIÓ": {
            "UICN GBIF": "NE"
        },
        "TAXONOMIA": {
            "Espècie": "Tabanus spodopteroides",
            "Família": "Tabanidae",
            "TaxId": null,
            "Classe": "Insecta",
            "Regne": "Metazoa",
            "Fílum": "Arthropoda",
            "Ordre": "Diptera"
        },
        "NOM DE L'AUTOR": {
            "Autor": "Olsufjev, Moucha y Chvála, 1969"
        }
    },
    {
        "INFORMACIÓ COMPLEMENTÀRIA": {
            "Pertany_A": "Dipters_tabanids",
            "GbifId": "2450422831",
            "Image_urls": null
        },
        "SITUACIÓ": {
            "UICN GBIF": null
        },
        "TAXONOMIA": {
            "Espècie": "Tabanus spodopterus ibericus",
            "Família": "Tabanidae",
            "TaxId": null,
            "Classe": "Insecta",
            "Regne": "Metazoa",
            "Fílum": "Arthropoda",
            "Ordre": "Diptera"
        },
        "NOM DE L'AUTOR": {
            "Autor": "Olsufjev, Moucha y Chvála, 1967"
        }
    },
    {
        "INFORMACIÓ COMPLEMENTÀRIA": {
            "Pertany_A": "Dipters_tabanids",
            "GbifId": "4117647360",
            "Image_urls": [
                "https://inaturalist-open-data.s3.amazonaws.com/photos/392763079/medium.jpg",
                "https://inaturalist-open-data.s3.amazonaws.com/photos/394762714/medium.jpeg",
                "https://inaturalist-open-data.s3.amazonaws.com/photos/395297020/medium.jpeg",
                "https://inaturalist-open-data.s3.amazonaws.com/photos/395490073/medium.jpeg",
                "https://inaturalist-open-data.s3.amazonaws.com/photos/395693686/medium.jpeg",
                "https://inaturalist-open-data.s3.amazonaws.com/photos/396038783/medium.jpeg",
                "https://inaturalist-open-data.s3.amazonaws.com/photos/396527917/medium.jpeg",
                "https://inaturalist-open-data.s3.amazonaws.com/photos/398150077/medium.jpg",
                "https://inaturalist-open-data.s3.amazonaws.com/photos/398168071/medium.jpg",
                "https://inaturalist-open-data.s3.amazonaws.com/photos/398929447/medium.jpeg",
                "https://inaturalist-open-data.s3.amazonaws.com/photos/399784933/medium.jpg",
                "https://inaturalist-open-data.s3.amazonaws.com/photos/399902626/medium.jpg",
                "https://inaturalist-open-data.s3.amazonaws.com/photos/399902874/medium.jpg"
            ]
        },
        "SITUACIÓ": {
            "UICN GBIF": "NE"
        },
        "TAXONOMIA": {
            "Espècie": "Tabanus sudeticus",
            "Família": "Tabanidae",
            "TaxId": "52755",
            "Classe": "Insecta",
            "Regne": "Metazoa",
            "Fílum": "Arthropoda",
            "Ordre": "Diptera"
        },
        "NOM DE L'AUTOR": {
            "Autor": "Zeller, 1842"
        }
    },
    {
        "INFORMACIÓ COMPLEMENTÀRIA": {
            "Pertany_A": "Dipters_tabanids",
            "GbifId": "3873935218",
            "Image_urls": [
                "https://10.ilstatic.hu/images/2023-07/r1689198818923_4832807849.jpg",
                "https://10.ilstatic.hu/images/2023-07/r1689198818923_4832807849.jpg",
                "https://10.ilstatic.hu/images/2023-07/r1689198818923_4832807849.jpg",
                "https://10.ilstatic.hu/images/2023-07/r1689198818923_4832807849.jpg",
                "https://10.ilstatic.hu/images/2023-07/r1689198818923_4832807849.jpg",
                "https://10.ilstatic.hu/images/2023-07/r1689198976183_1946120418.jpg",
                "https://10.ilstatic.hu/images/2023-07/r1689198976183_1946120418.jpg",
                "https://10.ilstatic.hu/images/2023-07/r1689198976183_1946120418.jpg",
                "https://10.ilstatic.hu/images/2023-07/r1689198976183_1946120418.jpg",
                "https://10.ilstatic.hu/images/2023-07/r1689198976183_1946120418.jpg",
                "https://10.ilstatic.hu/images/2024-04/r1712390928216_1358266168.jpg",
                "https://10.ilstatic.hu/images/2024-04/r1712390928216_1358266168.jpg",
                "https://inaturalist-open-data.s3.amazonaws.com/photos/43614360/medium.jpg",
                "https://inaturalist-open-data.s3.amazonaws.com/photos/43614372/medium.jpg",
                "https://inaturalist-open-data.s3.amazonaws.com/photos/43614378/medium.jpg",
                "https://inaturalist-open-data.s3.amazonaws.com/photos/43614381/medium.jpg",
                "https://inaturalist-open-data.s3.amazonaws.com/photos/43614854/medium.jpg",
                "https://observation.org/photos/14690861.jpg",
                "https://observation.org/photos/14690862.jpg",
                "bins.boldsystems.org/pics/CROTA/IMG_SK_19-1%2B1622572390.jpg",
                "bins.boldsystems.org/pics/CROTA/IMG_SK_19-1%2B1622572390.jpg"
            ]
        },
        "SITUACIÓ": {
            "UICN GBIF": "NE"
        },
        "TAXONOMIA": {
            "Espècie": "Tabanus tergestinus",
            "Família": "Tabanidae",
            "TaxId": "503976",
            "Classe": "Insecta",
            "Regne": "Metazoa",
            "Fílum": "Arthropoda",
            "Ordre": "Diptera"
        },
        "NOM DE L'AUTOR": {
            "Autor": "Egger, 1859"
        }
    }
]