[
    {
        "INFORMACIÓ COMPLEMENTÀRIA": {
            "GbifId": "4011915397",
            "Image_urls": null,
            "Pertany_A": "Dipters_loncopterids"
        },
        "SITUACIÓ": {
            "UICN GBIF": "NE"
        },
        "TAXONOMIA": {
            "Classe": "Insecta",
            "Espècie": "Lonchoptera bifurcata",
            "Família": "Lonchopteridae",
            "Regne": "Metazoa",
            "TaxId": "385268",
            "Fílum": "Arthropoda",
            "Ordre": "Diptera"
        },
        "NOM DE L'AUTOR": {
            "Autor": "Fallén, 1810"
        }
    },
    {
        "INFORMACIÓ COMPLEMENTÀRIA": {
            "GbifId": "3498659576",
            "Image_urls": null,
            "Pertany_A": "Dipters_loncopterids"
        },
        "SITUACIÓ": {
            "UICN GBIF": "NE"
        },
        "TAXONOMIA": {
            "Classe": "Insecta",
            "Espècie": "Lonchoptera lutea",
            "Família": "Lonchopteridae",
            "Regne": "Metazoa",
            "TaxId": "92596",
            "Fílum": "Arthropoda",
            "Ordre": "Diptera"
        },
        "NOM DE L'AUTOR": {
            "Autor": "Panzer, 1809"
        }
    },
    {
        "INFORMACIÓ COMPLEMENTÀRIA": {
            "GbifId": "3058180645",
            "Image_urls": [
                "https://observation.org/photos/30662868.jpg",
                "https://observation.org/photos/30662867.jpg",
                "https://data.nhm.ac.uk/media/438db485-1512-4e74-b09c-0e9da8bf3581",
                "https://data.nhm.ac.uk/media/bee8d17c-5270-4b68-86cd-fc08737dc2eb",
                "https://observation.org/photos/15742238.jpg",
                "https://observation.org/photos/15742239.jpg"
            ],
            "Pertany_A": "Dipters_loncopterids"
        },
        "SITUACIÓ": {
            "UICN GBIF": "NE"
        },
        "TAXONOMIA": {
            "Classe": "Insecta",
            "Espècie": "Lonchoptera tristis",
            "Família": "Lonchopteridae",
            "Regne": "Metazoa",
            "TaxId": "768768",
            "Fílum": "Arthropoda",
            "Ordre": "Diptera"
        },
        "NOM DE L'AUTOR": {
            "Autor": "Meigen, 1824"
        }
    }
]