[
    {
        "INFORMACIÓ COMPLEMENTÀRIA": {
            "GbifId": "4116583299",
            "Image_urls": null,
            "Pertany_A": "Dipters_micropezids"
        },
        "SITUACIÓ": {
            "UICN GBIF": "NE"
        },
        "TAXONOMIA": {
            "Classe": "Insecta",
            "Espècie": "Micropeza corrigiolata",
            "Família": "Micropezidae",
            "Regne": "Metazoa",
            "TaxId": "1572562",
            "Fílum": "Arthropoda",
            "Ordre": "Diptera"
        },
        "NOM DE L'AUTOR": {
            "Autor": "Linnaeus, 1767"
        }
    },
    {
        "INFORMACIÓ COMPLEMENTÀRIA": {
            "GbifId": "3915382705",
            "Image_urls": null,
            "Pertany_A": "Dipters_micropezids"
        },
        "SITUACIÓ": {
            "UICN GBIF": "NE"
        },
        "TAXONOMIA": {
            "Classe": "Insecta",
            "Espècie": "Micropeza grallatrix",
            "Família": "Micropezidae",
            "Regne": "Metazoa",
            "TaxId": null,
            "Fílum": "Arthropoda",
            "Ordre": "Diptera"
        },
        "NOM DE L'AUTOR": {
            "Autor": "Loew, 1868"
        }
    },
    {
        "INFORMACIÓ COMPLEMENTÀRIA": {
            "GbifId": "4161546386",
            "Image_urls": null,
            "Pertany_A": "Dipters_micropezids"
        },
        "SITUACIÓ": {
            "UICN GBIF": "NE"
        },
        "TAXONOMIA": {
            "Classe": "Insecta",
            "Espècie": "Micropeza lateralis",
            "Família": "Micropezidae",
            "Regne": "Metazoa",
            "TaxId": "2725516",
            "Fílum": "Arthropoda",
            "Ordre": "Diptera"
        },
        "NOM DE L'AUTOR": {
            "Autor": "Meigen, 1826"
        }
    },
    {
        "INFORMACIÓ COMPLEMENTÀRIA": {
            "GbifId": "4102788838",
            "Image_urls": null,
            "Pertany_A": "Dipters_micropezids"
        },
        "SITUACIÓ": {
            "UICN GBIF": "NE"
        },
        "TAXONOMIA": {
            "Classe": "Insecta",
            "Espècie": "Neria cibaria",
            "Família": "Micropezidae",
            "Regne": "Metazoa",
            "TaxId": "1262234",
            "Fílum": "Arthropoda",
            "Ordre": "Diptera"
        },
        "NOM DE L'AUTOR": {
            "Autor": "Linnaeus, 1761"
        }
    }
]