[
    {
        "INFORMACIÓ COMPLEMENTÀRIA": {
            "GbifId": "4057512278",
            "Image_urls": [
                "https://inaturalist-open-data.s3.amazonaws.com/photos/178033865/medium.jpeg"
            ],
            "Pertany_A": "Dipters_asteids"
        },
        "SITUACIÓ": {
            "UICN GBIF": "NE"
        },
        "TAXONOMIA": {
            "Classe": "Insecta",
            "Espècie": "Asteia amoena",
            "Família": "Asteiidae",
            "Regne": "Metazoa",
            "TaxId": "716597",
            "Fílum": "Arthropoda",
            "Ordre": "Diptera"
        },
        "NOM DE L'AUTOR": {
            "Autor": "Meigen, 1830"
        }
    },
    {
        "INFORMACIÓ COMPLEMENTÀRIA": {
            "GbifId": "3867626139",
            "Image_urls": null,
            "Pertany_A": "Dipters_asteids"
        },
        "SITUACIÓ": {
            "UICN GBIF": "NE"
        },
        "TAXONOMIA": {
            "Classe": "Insecta",
            "Espècie": "Asteia elegantula",
            "Família": "Asteiidae",
            "Regne": "Metazoa",
            "TaxId": "2881575",
            "Fílum": "Arthropoda",
            "Ordre": "Diptera"
        },
        "NOM DE L'AUTOR": {
            "Autor": "Zetterstedt, 1847"
        }
    },
    {
        "INFORMACIÓ COMPLEMENTÀRIA": {
            "GbifId": "4060059353",
            "Image_urls": null,
            "Pertany_A": "Dipters_asteids"
        },
        "SITUACIÓ": {
            "UICN GBIF": "NE"
        },
        "TAXONOMIA": {
            "Classe": "Insecta",
            "Espècie": "Leiomyza curvinervis",
            "Família": "Asteiidae",
            "Regne": "Metazoa",
            "TaxId": "716617",
            "Fílum": "Arthropoda",
            "Ordre": "Diptera"
        },
        "NOM DE L'AUTOR": {
            "Autor": "Zetterstedt, 1838"
        }
    },
    {
        "INFORMACIÓ COMPLEMENTÀRIA": {
            "GbifId": "3905590356",
            "Image_urls": [
                "https://observation.org/photos/52741782.jpg",
                "https://observation.org/photos/52741783.jpg"
            ],
            "Pertany_A": "Dipters_asteids"
        },
        "SITUACIÓ": {
            "UICN GBIF": "NE"
        },
        "TAXONOMIA": {
            "Classe": "Insecta",
            "Espècie": "Leiomyza dudai",
            "Família": "Asteiidae",
            "Regne": "Metazoa",
            "TaxId": "2882204",
            "Fílum": "Arthropoda",
            "Ordre": "Diptera"
        },
        "NOM DE L'AUTOR": {
            "Autor": "Sabrosky, 1956"
        }
    },
    {
        "INFORMACIÓ COMPLEMENTÀRIA": {
            "GbifId": "3717645208",
            "Image_urls": null,
            "Pertany_A": "Dipters_asteids"
        },
        "SITUACIÓ": {
            "UICN GBIF": "NE"
        },
        "TAXONOMIA": {
            "Classe": "Insecta",
            "Espècie": "Leiomyza laevigata",
            "Família": "Asteiidae",
            "Regne": "Metazoa",
            "TaxId": "2662244",
            "Fílum": "Arthropoda",
            "Ordre": "Diptera"
        },
        "NOM DE L'AUTOR": {
            "Autor": "Meigen, 1830"
        }
    }
]