[
    {
        "INFORMACIÓ COMPLEMENTÀRIA": {
            "Pertany_A": "Dipters_escatopsids",
            "GbifId": "2565004915",
            "Image_urls": [
                "https://observation.org/photos/15533185.jpg",
                "https://observation.org/photos/15533188.jpg",
                "https://observation.org/photos/15533187.jpg",
                "https://observation.org/photos/15533186.jpg",
                "https://observation.org/photos/15533189.jpg"
            ]
        },
        "SITUACIÓ": {
            "UICN GBIF": "NE"
        },
        "TAXONOMIA": {
            "Espècie": "Apiloscatopse picea",
            "Família": "Scatopsidae",
            "TaxId": null,
            "Classe": "Insecta",
            "Regne": "Metazoa",
            "Fílum": "Arthropoda",
            "Ordre": "Diptera"
        },
        "NOM DE L'AUTOR": {
            "Autor": "Meigen, 1818"
        }
    },
    {
        "INFORMACIÓ COMPLEMENTÀRIA": {
            "Pertany_A": "Dipters_escatopsids",
            "GbifId": "3468549460",
            "Image_urls": null
        },
        "SITUACIÓ": {
            "UICN GBIF": "NE"
        },
        "TAXONOMIA": {
            "Espècie": "Apiloscatopse scutellata",
            "Família": "Scatopsidae",
            "TaxId": null,
            "Classe": "Insecta",
            "Regne": "Metazoa",
            "Fílum": "Arthropoda",
            "Ordre": "Diptera"
        },
        "NOM DE L'AUTOR": {
            "Autor": "Loew, 1876"
        }
    },
    {
        "INFORMACIÓ COMPLEMENTÀRIA": {
            "Pertany_A": "Dipters_escatopsids",
            "GbifId": "4028837199",
            "Image_urls": [
                "https://inaturalist-open-data.s3.amazonaws.com/photos/396281615/medium.jpg",
                "https://inaturalist-open-data.s3.amazonaws.com/photos/396289378/medium.png",
                "https://inaturalist-open-data.s3.amazonaws.com/photos/396283109/medium.jpg",
                "https://inaturalist-open-data.s3.amazonaws.com/photos/399391054/medium.jpeg",
                "https://inaturalist-open-data.s3.amazonaws.com/photos/403733310/medium.jpeg",
                "https://inaturalist-open-data.s3.amazonaws.com/photos/251636643/medium.jpg",
                "https://inaturalist-open-data.s3.amazonaws.com/photos/251636642/medium.jpg",
                "https://inaturalist-open-data.s3.amazonaws.com/photos/258249052/medium.jpg",
                "https://inaturalist-open-data.s3.amazonaws.com/photos/384454580/medium.jpg",
                "https://inaturalist-open-data.s3.amazonaws.com/photos/285246397/medium.jpg",
                "https://inaturalist-open-data.s3.amazonaws.com/photos/285257069/medium.jpg",
                "https://inaturalist-open-data.s3.amazonaws.com/photos/345844035/medium.jpg",
                "https://inaturalist-open-data.s3.amazonaws.com/photos/345843983/medium.jpg",
                "https://inaturalist-open-data.s3.amazonaws.com/photos/345844021/medium.jpg",
                "https://inaturalist-open-data.s3.amazonaws.com/photos/345844099/medium.jpg",
                "https://inaturalist-open-data.s3.amazonaws.com/photos/345844060/medium.jpg",
                "https://inaturalist-open-data.s3.amazonaws.com/photos/345844070/medium.jpg",
                "https://inaturalist-open-data.s3.amazonaws.com/photos/346344695/medium.jpg",
                "https://inaturalist-open-data.s3.amazonaws.com/photos/286993711/medium.jpg",
                "https://inaturalist-open-data.s3.amazonaws.com/photos/286993694/medium.jpg",
                "https://inaturalist-open-data.s3.amazonaws.com/photos/287091781/medium.jpg",
                "https://inaturalist-open-data.s3.amazonaws.com/photos/296781456/medium.jpg"
            ]
        },
        "SITUACIÓ": {
            "UICN GBIF": "NE"
        },
        "TAXONOMIA": {
            "Espècie": "Coboldia fuscipes",
            "Família": "Scatopsidae",
            "TaxId": "170625",
            "Classe": "Insecta",
            "Regne": "Metazoa",
            "Fílum": "Arthropoda",
            "Ordre": "Diptera"
        },
        "NOM DE L'AUTOR": {
            "Autor": "Meigen, 1830"
        }
    },
    {
        "INFORMACIÓ COMPLEMENTÀRIA": {
            "Pertany_A": "Dipters_escatopsids",
            "GbifId": "4148428981",
            "Image_urls": [
                "https://upload.wikimedia.org/wikipedia/commons/thumb/7/74/Flies_on_Leucanthemum_vulgare.JPG/120px-Flies_on_Leucanthemum_vulgare.JPG",
                "https://upload.wikimedia.org/wikipedia/commons/thumb/1/16/Scatopsidae-midges_on_Leucanthemum_vulgare-detail.png/199px-Scatopsidae-midges_on_Leucanthemum_vulgare-detail.png"
            ]
        },
        "SITUACIÓ": {
            "UICN GBIF": "NE"
        },
        "TAXONOMIA": {
            "Espècie": "Reichertella geniculata",
            "Família": "Scatopsidae",
            "TaxId": null,
            "Classe": "Insecta",
            "Regne": "Metazoa",
            "Fílum": "Arthropoda",
            "Ordre": "Diptera"
        },
        "NOM DE L'AUTOR": {
            "Autor": "Zetterstedt, 1850"
        }
    },
    {
        "INFORMACIÓ COMPLEMENTÀRIA": {
            "Pertany_A": "Dipters_escatopsids",
            "GbifId": "3991835520",
            "Image_urls": null
        },
        "SITUACIÓ": {
            "UICN GBIF": "NE"
        },
        "TAXONOMIA": {
            "Espècie": "Reichertella pulicaria",
            "Família": "Scatopsidae",
            "TaxId": null,
            "Classe": "Insecta",
            "Regne": "Metazoa",
            "Fílum": "Arthropoda",
            "Ordre": "Diptera"
        },
        "NOM DE L'AUTOR": {
            "Autor": "Loew, 1846"
        }
    },
    {
        "INFORMACIÓ COMPLEMENTÀRIA": {
            "Pertany_A": "Dipters_escatopsids",
            "GbifId": "4177003652",
            "Image_urls": [
                "https://inaturalist-open-data.s3.amazonaws.com/photos/353941523/medium.jpg",
                "https://inaturalist-open-data.s3.amazonaws.com/photos/354224607/medium.jpeg",
                "https://inaturalist-open-data.s3.amazonaws.com/photos/357428138/medium.jpeg",
                "https://inaturalist-open-data.s3.amazonaws.com/photos/357428137/medium.jpeg",
                "https://inaturalist-open-data.s3.amazonaws.com/photos/368197385/medium.jpeg",
                "https://inaturalist-open-data.s3.amazonaws.com/photos/368197352/medium.jpeg",
                "https://inaturalist-open-data.s3.amazonaws.com/photos/369135654/medium.jpeg",
                "https://www.artsobservasjoner.no/MediaLibrary/2024/5/bdee81a8-ddbf-4836-afbb-984239ecb2d5_image.jpg",
                "https://www.artsobservasjoner.no/MediaLibrary/2024/5/bf70fc02-d87e-4ab8-a10a-c26516e5c96c_image.jpg",
                "https://www.artsobservasjoner.no/MediaLibrary/2024/5/ddd7ec2f-b476-4076-9d74-b1832506f88a_image.jpg",
                "https://www.artportalen.se/MediaLibrary/2024/7/9e540dd7-3e09-4845-bd6b-876d6e4e8839_image.jpg",
                "https://inaturalist-open-data.s3.amazonaws.com/photos/253635468/medium.jpg",
                "https://inaturalist-open-data.s3.amazonaws.com/photos/260544753/medium.jpeg",
                "https://inaturalist-open-data.s3.amazonaws.com/photos/261056788/medium.jpeg"
            ]
        },
        "SITUACIÓ": {
            "UICN GBIF": "NE"
        },
        "TAXONOMIA": {
            "Espècie": "Scatopse notata",
            "Família": "Scatopsidae",
            "TaxId": "1520325",
            "Classe": "Insecta",
            "Regne": "Metazoa",
            "Fílum": "Arthropoda",
            "Ordre": "Diptera"
        },
        "NOM DE L'AUTOR": {
            "Autor": "Linnaeus, 1758"
        }
    },
    {
        "INFORMACIÓ COMPLEMENTÀRIA": {
            "Pertany_A": "Dipters_escatopsids",
            "GbifId": "4002980073",
            "Image_urls": [
                "https://upload.wikimedia.org/wikipedia/commons/thumb/9/98/Swammerdamella_brevicornis_%28Meigen_1830%29_%E2%99%82_adult.jpg/144px-Swammerdamella_brevicornis_%28Meigen_1830%29_%E2%99%82_adult.jpg"
            ]
        },
        "SITUACIÓ": {
            "UICN GBIF": "NE"
        },
        "TAXONOMIA": {
            "Espècie": "Swammerdamella brevicornis",
            "Família": "Scatopsidae",
            "TaxId": null,
            "Classe": "Insecta",
            "Regne": "Metazoa",
            "Fílum": "Arthropoda",
            "Ordre": "Diptera"
        },
        "NOM DE L'AUTOR": {
            "Autor": "Meigen, 1830"
        }
    },
    {
        "INFORMACIÓ COMPLEMENTÀRIA": {
            "Pertany_A": "Dipters_escatopsids",
            "GbifId": "2903743447",
            "Image_urls": null
        },
        "SITUACIÓ": {
            "UICN GBIF": "NE"
        },
        "TAXONOMIA": {
            "Espècie": "Thripomorpha coxendix",
            "Família": "Scatopsidae",
            "TaxId": null,
            "Classe": "Insecta",
            "Regne": "Metazoa",
            "Fílum": "Arthropoda",
            "Ordre": "Diptera"
        },
        "NOM DE L'AUTOR": {
            "Autor": "Verrall, 1912"
        }
    }
]