[
    {
        "INFORMACIÓ COMPLEMENTÀRIA": {
            "GbifId": "4094783440",
            "Image_urls": [
                "https://inaturalist-open-data.s3.amazonaws.com/photos/270298127/medium.jpeg",
                "https://inaturalist-open-data.s3.amazonaws.com/photos/279931038/medium.jpg"
            ],
            "Pertany_A": "Hemipters_adelgids"
        },
        "SITUACIÓ": {
            "UICN GBIF": "NE"
        },
        "TAXONOMIA": {
            "Classe": "Insecta",
            "Espècie": "Adelges (Gilletteella) cooleyi",
            "Família": "Adelgidae",
            "Regne": "Metazoa",
            "TaxId": "133065",
            "Fílum": "Arthropoda",
            "Ordre": "Hemiptera"
        },
        "ORIGEN I ENDEMISME": {
            "Origen i Endemisme": "Autòctona"
        },
        "NOM DE L'AUTOR": {
            "Autor": "Gillette, 1907"
        }
    }
]