[
    {
        "INFORMACIÓ COMPLEMENTÀRIA": {
            "GbifId": null,
            "Image_urls": null,
            "Pertany_A": "Ortòpters_dubtosos"
        },
        "LEGISLACIÓ": {
            "Decret 328/1992 PEIN": "Citada amb anterioritat però no retrobada"
        },
        "SITUACIÓ": {
            "UICN GBIF": null
        },
        "TAXONOMIA": {
            "Classe": "Insecta",
            "Espècie": "Acheta hispanica",
            "Família": "Gryllidae",
            "Regne": "Metazoa",
            "TaxId": null,
            "Fílum": "Arthropoda",
            "Ordre": "Orthoptera"
        },
        "NOM DE L'AUTOR": {
            "Autor": "Rambur, 1839"
        }
    },
    {
        "INFORMACIÓ COMPLEMENTÀRIA": {
            "GbifId": "4028844515",
            "Image_urls": [
                "https://inaturalist-open-data.s3.amazonaws.com/photos/258804840/medium.jpeg",
                "https://inaturalist-open-data.s3.amazonaws.com/photos/260541994/medium.jpeg",
                "https://inaturalist-open-data.s3.amazonaws.com/photos/264029200/medium.jpeg"
            ],
            "Pertany_A": "Ortòpters_dubtosos"
        },
        "LEGISLACIÓ": {
            "Decret 328/1992 PEIN": "Espècie probable. Àrea distribució propera a Catalunya"
        },
        "SITUACIÓ": {
            "UICN GBIF": "NE"
        },
        "TAXONOMIA": {
            "Classe": "Insecta",
            "Espècie": "Aiolopus thalassinus",
            "Família": "Acrididae",
            "Regne": "Metazoa",
            "TaxId": "243007",
            "Fílum": "Arthropoda",
            "Ordre": "Orthoptera"
        },
        "NOM DE L'AUTOR": {
            "Autor": "Fabricius, 1781"
        }
    },
    {
        "INFORMACIÓ COMPLEMENTÀRIA": {
            "GbifId": "4145733681",
            "Image_urls": [
                "https://inaturalist-open-data.s3.amazonaws.com/photos/216194781/medium.jpeg",
                "https://inaturalist-open-data.s3.amazonaws.com/photos/222224282/medium.jpg"
            ],
            "Pertany_A": "Ortòpters_dubtosos"
        },
        "LEGISLACIÓ": {
            "Decret 328/1992 PEIN": "Espècie probable. Àrea distribució propera a Catalunya"
        },
        "SITUACIÓ": {
            "UICN GBIF": "NE"
        },
        "TAXONOMIA": {
            "Classe": "Insecta",
            "Espècie": "Dociostaurus genei",
            "Família": "Acrididae",
            "Regne": "Metazoa",
            "TaxId": "37630",
            "Fílum": "Arthropoda",
            "Ordre": "Orthoptera"
        },
        "NOM DE L'AUTOR": {
            "Autor": "Ocskay, 1832"
        }
    },
    {
        "INFORMACIÓ COMPLEMENTÀRIA": {
            "GbifId": "1830951828",
            "Image_urls": [
                "http://orthoptera.speciesfile.org/Common/Basic/Taxa.aspx?TaxonNameID=1732"
            ],
            "Pertany_A": "Ortòpters_dubtosos"
        },
        "LEGISLACIÓ": {
            "Decret 328/1992 PEIN": "Citada amb anterioritat però no retrobada"
        },
        "SITUACIÓ": {
            "UICN GBIF": "LC"
        },
        "TAXONOMIA": {
            "Classe": "Insecta",
            "Espècie": "Ephippigerida carinata",
            "Família": "Tettigoniidae",
            "Regne": "Metazoa",
            "TaxId": null,
            "Fílum": "Arthropoda",
            "Ordre": "Orthoptera"
        },
        "NOM DE L'AUTOR": {
            "Autor": "Bolívar, 1877"
        }
    },
    {
        "INFORMACIÓ COMPLEMENTÀRIA": {
            "GbifId": null,
            "Image_urls": null,
            "Pertany_A": "Ortòpters_dubtosos"
        },
        "LEGISLACIÓ": {
            "Decret 328/1992 PEIN": "Citada amb anterioritat però no retrobada"
        },
        "SITUACIÓ": {
            "UICN GBIF": null
        },
        "TAXONOMIA": {
            "Classe": "Insecta",
            "Espècie": "Ephippigerida marceti",
            "Família": "Tettigoniidae",
            "Regne": "Metazoa",
            "TaxId": null,
            "Fílum": "Arthropoda",
            "Ordre": "Orthoptera"
        },
        "NOM DE L'AUTOR": {
            "Autor": "Navàs 1907"
        }
    },
    {
        "INFORMACIÓ COMPLEMENTÀRIA": {
            "GbifId": "4011698249",
            "Image_urls": [
                "https://inaturalist-open-data.s3.amazonaws.com/photos/250209765/medium.jpeg",
                "https://inaturalist-open-data.s3.amazonaws.com/photos/250209815/medium.jpeg",
                "https://inaturalist-open-data.s3.amazonaws.com/photos/250209789/medium.jpeg",
                "https://inaturalist-open-data.s3.amazonaws.com/photos/251115862/medium.jpg",
                "https://inaturalist-open-data.s3.amazonaws.com/photos/254036888/medium.jpeg",
                "https://inaturalist-open-data.s3.amazonaws.com/photos/254296534/medium.jpg",
                "https://inaturalist-open-data.s3.amazonaws.com/photos/255740985/medium.jpeg",
                "https://inaturalist-open-data.s3.amazonaws.com/photos/256859759/medium.jpg"
            ],
            "Pertany_A": "Ortòpters_dubtosos"
        },
        "LEGISLACIÓ": {
            "Decret 328/1992 PEIN": "Espècie probable. Àrea distribució propera a Catalunya"
        },
        "SITUACIÓ": {
            "UICN GBIF": "NE"
        },
        "TAXONOMIA": {
            "Classe": "Insecta",
            "Espècie": "Locusta migratoria",
            "Família": "Acrididae",
            "Regne": "Metazoa",
            "TaxId": "7004",
            "Fílum": "Arthropoda",
            "Ordre": "Orthoptera"
        },
        "NOM DE L'AUTOR": {
            "Autor": "Linnaeus, 1758"
        }
    },
    {
        "INFORMACIÓ COMPLEMENTÀRIA": {
            "GbifId": "4076136802",
            "Image_urls": [
                "https://inaturalist-open-data.s3.amazonaws.com/photos/245170502/medium.jpg",
                "https://inaturalist-open-data.s3.amazonaws.com/photos/245340049/medium.jpeg",
                "https://inaturalist-open-data.s3.amazonaws.com/photos/245343294/medium.jpeg",
                "https://inaturalist-open-data.s3.amazonaws.com/photos/119855784/medium.jpeg",
                "https://inaturalist-open-data.s3.amazonaws.com/photos/109942533/medium.jpeg"
            ],
            "Pertany_A": "Ortòpters_dubtosos"
        },
        "LEGISLACIÓ": {
            "Decret 328/1992 PEIN": "Espècie probable. Àrea distribució propera a Catalunya"
        },
        "SITUACIÓ": {
            "UICN GBIF": "LC"
        },
        "TAXONOMIA": {
            "Classe": "Insecta",
            "Espècie": "Myrmecophilus myrmecophilus",
            "Família": "Mymecophilidae",
            "Regne": "Metazoa",
            "TaxId": null,
            "Fílum": "Arthropoda",
            "Ordre": "Orthoptera"
        },
        "NOM DE L'AUTOR": {
            "Autor": "Savi, 1819"
        }
    },
    {
        "INFORMACIÓ COMPLEMENTÀRIA": {
            "GbifId": "4006776427",
            "Image_urls": [
                "https://inaturalist-open-data.s3.amazonaws.com/photos/197080008/medium.jpg",
                "https://inaturalist-open-data.s3.amazonaws.com/photos/135800993/medium.jpeg",
                "https://inaturalist-open-data.s3.amazonaws.com/photos/27581647/medium.jpeg",
                "http://orthoptera.speciesfile.org/Common/Basic/Taxa.aspx?TaxonNameID=1800",
                "http://orthoptera.speciesfile.org/Common/Basic/Taxa.aspx?TaxonNameID=1800"
            ],
            "Pertany_A": "Ortòpters_dubtosos"
        },
        "LEGISLACIÓ": {
            "Decret 328/1992 PEIN": "Citada amb anterioritat però no retrobada"
        },
        "SITUACIÓ": {
            "UICN GBIF": "LC"
        },
        "TAXONOMIA": {
            "Classe": "Insecta",
            "Espècie": "Parasteropleurus martorellii",
            "Família": "Tettigoniidae",
            "Regne": "Metazoa",
            "TaxId": null,
            "Fílum": "Arthropoda",
            "Ordre": "Orthoptera"
        },
        "NOM DE L'AUTOR": {
            "Autor": "Bolívar, 1878"
        }
    }
]